# MagicaVoxel @ Ephtracy

# group
o 

# material
mtllib RoadPiece_Alley100.mtl
usemtl palette

# normals
vn -1 0 0
vn 1 0 0
vn 0 0 1
vn 0 0 -1
vn 0 -1 0
vn 0 1 0

# texcoords
vt 0.00195313 0.5
vt 0.00585938 0.5

# verts
v -2.5 0 5
v -2.5 0 -5
v -2.5 0.2 5
v -2.5 0.2 -5
v 2.5 0 5
v 2.5 0 -5
v 2.5 0.2 5
v 2.5 0.2 -5
v -2.5 0 5
v -2.5 0.2 5
v -2.2 0 5
v -2.2 0.2 5
v 2.2 0 5
v 2.2 0.2 5
v 2.5 0 5
v 2.5 0.2 5
v -2.5 0 -5
v -2.5 0.2 -5
v -2.2 0 -5
v -2.2 0.2 -5
v 2.2 0 -5
v 2.2 0.2 -5
v 2.5 0 -5
v 2.5 0.2 -5
v -2.5 0 5
v -2.2 0 5
v 2.2 0 5
v 2.5 0 5
v 0.9 0 4.9
v 2.2 0 4.9
v 0.9 0 -4.9
v 2.2 0 -4.9
v -2.5 0 -5
v -2.2 0 -5
v 2.2 0 -5
v 2.5 0 -5
v -2.5 0.2 5
v -2.2 0.2 5
v 2.2 0.2 5
v 2.5 0.2 5
v -2.5 0.2 -5
v -2.2 0.2 -5
v 2.2 0.2 -5
v 2.5 0.2 -5

# faces
f 3/2/1 2/2/1 1/2/1
f 4/2/1 2/2/1 3/2/1
f 5/2/2 6/2/2 7/2/2
f 7/2/2 6/2/2 8/2/2
f 11/2/3 10/2/3 9/2/3
f 12/2/3 10/2/3 11/2/3
f 13/1/3 12/1/3 11/1/3
f 14/1/3 12/1/3 13/1/3
f 15/2/3 14/2/3 13/2/3
f 16/2/3 14/2/3 15/2/3
f 17/2/4 18/2/4 19/2/4
f 19/2/4 18/2/4 20/2/4
f 19/1/4 20/1/4 21/1/4
f 21/1/4 20/1/4 22/1/4
f 21/2/4 22/2/4 23/2/4
f 23/2/4 22/2/4 24/2/4
f 29/1/5 27/1/5 26/1/5
f 30/2/5 28/2/5 27/2/5
f 30/1/5 27/1/5 29/1/5
f 31/1/5 29/1/5 26/1/5
f 31/2/5 30/2/5 29/2/5
f 32/2/5 28/2/5 30/2/5
f 32/2/5 30/2/5 31/2/5
f 33/2/5 26/2/5 25/2/5
f 34/1/5 31/1/5 26/1/5
f 34/2/5 26/2/5 33/2/5
f 34/1/5 32/1/5 31/1/5
f 35/2/5 28/2/5 32/2/5
f 35/1/5 32/1/5 34/1/5
f 36/2/5 28/2/5 35/2/5
f 37/2/6 38/2/6 41/2/6
f 38/1/6 39/1/6 42/1/6
f 41/2/6 38/2/6 42/2/6
f 39/2/6 40/2/6 43/2/6
f 42/1/6 39/1/6 43/1/6
f 43/2/6 40/2/6 44/2/6
