# MagicaVoxel @ Ephtracy

# group
o 

# material
mtllib Orange_BlockHouseF1_01.mtl
usemtl palette

# normals
vn -1 0 0
vn 1 0 0
vn 0 0 1
vn 0 0 -1
vn 0 -1 0
vn 0 1 0

# texcoords
vt 0.00195313 0.5
vt 0.00976563 0.5
vt 0.0136719 0.5
vt 0.0253906 0.5
vt 0.0292969 0.5
vt 0.0371094 0.5
vt 0.0644531 0.5

# verts
v -2.5 0 2.5
v -2.5 0 1.9
v -2.5 0 -1.9
v -2.5 0 -2.5
v -2.5 0.1 2.5
v -2.5 0.1 1.9
v -2.5 0.1 -1.9
v -2.5 0.1 -2.5
v -2.5 2.3 2
v -2.5 2.3 1.9
v -2.5 2.3 -1.9
v -2.5 2.3 -2
v -2.5 2.4 2
v -2.5 2.4 1.9
v -2.5 2.4 -1.9
v -2.5 2.4 -2
v -1.9 0.1 2.2
v -1.9 0.1 1.9
v -1.9 0.1 -1.9
v -1.9 0.1 -2
v -1.9 1.7 2.2
v -1.9 1.7 1.9
v -1.9 2 -1.9
v -1.9 2 -2
v -1.8 0.1 2.4
v -1.8 0.1 2.2
v -1.8 1.7 2.4
v -1.8 1.7 2.2
v -1.7 0.1 2.5
v -1.7 0.1 2.4
v -1.7 1.7 2.5
v -1.7 1.7 2.4
v -1.7 1.7 2.2
v -1.7 1.7 1.9
v -1.7 1.8 2.2
v -1.7 1.8 1.9
v -1.6 0.5 -1.8
v -1.6 0.5 -1.9
v -1.6 1.4 -1.8
v -1.6 1.4 -1.9
v -1.6 1.7 2.4
v -1.6 1.7 2.2
v -1.6 1.8 2.4
v -1.6 1.8 2.2
v -1.5 1.8 2.1
v -1.5 1.8 1.9
v -1.5 1.9 2.1
v -1.5 1.9 1.9
v -1.4 1.8 2.2
v -1.4 1.8 2.1
v -1.4 1.9 2.2
v -1.4 1.9 2.1
v -1.2 0.8 -1.9
v -1.2 0.8 -2
v -1.2 0.9 -1.9
v -1.2 0.9 -2
v -1 0.2 -1.9
v -1 0.2 -2
v -1 1.6 -1.9
v -1 1.6 -2
v -1 1.7 -1.9
v -1 1.7 -2
v -1 1.9 -1.9
v -1 1.9 -2
v -0.4 0.7 2.4
v -0.4 0.7 2.3
v -0.4 1 2.4
v -0.4 1 2.3
v -0.4 1.1 2.4
v -0.4 1.1 2.3
v -0.4 1.3 2.4
v -0.4 1.3 2.3
v -0.3 0.6 2.5
v -0.3 0.6 2.4
v -0.3 1.4 2.5
v -0.3 1.4 2.4
v 0.6 0.8 -1.7
v 0.6 0.8 -1.8
v 0.6 1.5 -1.7
v 0.6 1.5 -1.8
v 1 0.1 2
v 1 0.1 1.9
v 1 1.9 2
v 1 1.9 1.9
v 1.2 0.8 2
v 1.2 0.8 1.9
v 1.2 0.9 2
v 1.2 0.9 1.9
v 1.3 0.8 -1.7
v 1.3 0.8 -1.8
v 1.3 1.5 -1.7
v 1.3 1.5 -1.8
v 1.7 0.4 1.9
v 1.7 0.4 1.8
v 1.7 0.5 1.9
v 1.7 0.5 1.8
v 1.8 0.8 -1.7
v 1.8 0.8 -1.8
v 1.8 1.5 -1.7
v 1.8 1.5 -1.8
v 1.9 0.1 2
v 1.9 0.1 1.9
v 1.9 0.7 -1.8
v 1.9 0.7 -1.9
v 1.9 1.5 2
v 1.9 1.5 1.9
v 1.9 1.6 2
v 1.9 1.6 1.9
v 1.9 1.6 -1.8
v 1.9 1.6 -1.9
v 1.9 1.8 2
v 1.9 1.8 1.9
v -1.8 0.2 -1.9
v -1.8 0.2 -2
v -1.8 1.6 -1.9
v -1.8 1.6 -2
v -1.8 1.7 -1.9
v -1.8 1.7 -2
v -1.8 1.9 -1.9
v -1.8 1.9 -2
v -1.7 0.5 -1.8
v -1.7 0.5 -1.9
v -1.7 1.4 -1.8
v -1.7 1.4 -1.9
v -1.4 0.6 2.5
v -1.4 0.6 2.4
v -1.4 1.4 2.5
v -1.4 1.4 2.4
v -1.3 0.7 2.4
v -1.3 0.7 2.3
v -1.3 1 2.4
v -1.3 1 2.3
v -1.3 1.1 2.4
v -1.3 1.1 2.3
v -1.3 1.3 2.4
v -1.3 1.3 2.3
v -1.1 0.8 -1.9
v -1.1 0.8 -2
v -1.1 0.9 -1.9
v -1.1 0.9 -2
v -0.9 0.1 -1.9
v -0.9 0.1 -2
v -0.9 2 -1.9
v -0.9 2 -2
v -0.3 1.8 2.2
v -0.3 1.8 2.1
v -0.3 1.9 2.2
v -0.3 1.9 2.1
v -0.2 1.8 2.1
v -0.2 1.8 1.9
v -0.2 1.9 2.1
v -0.2 1.9 1.9
v -0.0999999 1.7 2.4
v -0.0999999 1.7 2.2
v -0.0999999 1.8 2.4
v -0.0999999 1.8 2.2
v 2.38419e-07 0.1 2.5
v 2.38419e-07 0.1 2.4
v 2.38419e-07 1.7 2.5
v 2.38419e-07 1.7 2.4
v 2.38419e-07 1.7 2.2
v 2.38419e-07 1.7 1.9
v 2.38419e-07 1.8 2.2
v 2.38419e-07 1.8 1.9
v 0.1 0.1 2.4
v 0.1 0.1 2.2
v 0.1 0.7 -1.8
v 0.1 0.7 -1.9
v 0.1 1.6 -1.8
v 0.1 1.6 -1.9
v 0.1 1.7 2.4
v 0.1 1.7 2.2
v 0.2 0.1 2.2
v 0.2 0.1 1.9
v 0.2 0.8 -1.7
v 0.2 0.8 -1.8
v 0.2 1.5 -1.7
v 0.2 1.5 -1.8
v 0.2 1.7 2.2
v 0.2 1.7 1.9
v 0.7 0.8 -1.7
v 0.7 0.8 -1.8
v 0.7 1.5 -1.7
v 0.7 1.5 -1.8
v 1.1 0.1 2
v 1.1 0.1 1.9
v 1.1 1.5 2
v 1.1 1.5 1.9
v 1.1 1.6 2
v 1.1 1.6 1.9
v 1.1 1.8 2
v 1.1 1.8 1.9
v 1.3 0.4 1.9
v 1.3 0.4 1.8
v 1.3 0.5 1.9
v 1.3 0.5 1.8
v 1.3 0.8 2
v 1.3 0.8 1.9
v 1.3 0.9 2
v 1.3 0.9 1.9
v 1.4 0.8 -1.7
v 1.4 0.8 -1.8
v 1.4 1.5 -1.7
v 1.4 1.5 -1.8
v 2 0.1 2
v 2 0.1 1.9
v 2 1.9 2
v 2 1.9 1.9
v 2.5 0 2.5
v 2.5 0 1.9
v 2.5 0 -1.9
v 2.5 0 -2.5
v 2.5 0.1 2.5
v 2.5 0.1 1.9
v 2.5 0.1 -1.9
v 2.5 0.1 -2.5
v 2.5 2.3 2
v 2.5 2.3 1.9
v 2.5 2.3 -1.9
v 2.5 2.3 -2
v 2.5 2.4 2
v 2.5 2.4 1.9
v 2.5 2.4 -1.9
v 2.5 2.4 -2
v -2.5 0 2.5
v -2.5 0.1 2.5
v -1.7 0.1 2.5
v -1.7 1.7 2.5
v -1.5 0.5 2.5
v -1.5 1.5 2.5
v -1.4 0.6 2.5
v -1.4 1.4 2.5
v -0.3 0.6 2.5
v -0.3 1.4 2.5
v -0.2 0.5 2.5
v -0.2 1.5 2.5
v 2.38419e-07 0.1 2.5
v 2.38419e-07 1.7 2.5
v 2.5 0 2.5
v 2.5 0.1 2.5
v -1.8 0.1 2.4
v -1.8 1.7 2.4
v -1.7 0.1 2.4
v -1.7 1.7 2.4
v -1.6 1.7 2.4
v -1.6 1.8 2.4
v -1.4 0.6 2.4
v -1.4 1.4 2.4
v -1.3 0.7 2.4
v -1.3 1 2.4
v -1.3 1.1 2.4
v -1.3 1.3 2.4
v -0.4 0.7 2.4
v -0.4 1 2.4
v -0.4 1.1 2.4
v -0.4 1.3 2.4
v -0.3 0.6 2.4
v -0.3 1.4 2.4
v -0.0999999 1.7 2.4
v -0.0999999 1.8 2.4
v 2.38419e-07 0.1 2.4
v 2.38419e-07 1.7 2.4
v 0.1 0.1 2.4
v 0.1 1.7 2.4
v -1.3 0.7 2.3
v -1.3 1 2.3
v -1.3 1.1 2.3
v -1.3 1.3 2.3
v -0.4 0.7 2.3
v -0.4 1 2.3
v -0.4 1.1 2.3
v -0.4 1.3 2.3
v -1.9 0.1 2.2
v -1.9 1.7 2.2
v -1.8 0.1 2.2
v -1.8 1.7 2.2
v -1.7 1.7 2.2
v -1.7 1.8 2.2
v -1.6 1.7 2.2
v -1.6 1.8 2.2
v -1.4 1.8 2.2
v -1.4 1.9 2.2
v -0.3 1.8 2.2
v -0.3 1.9 2.2
v -0.0999999 1.7 2.2
v -0.0999999 1.8 2.2
v 2.38419e-07 1.7 2.2
v 2.38419e-07 1.8 2.2
v 0.1 0.1 2.2
v 0.1 1.7 2.2
v 0.2 0.1 2.2
v 0.2 1.7 2.2
v -1.5 1.8 2.1
v -1.5 1.9 2.1
v -1.4 1.8 2.1
v -1.4 1.9 2.1
v -0.3 1.8 2.1
v -0.3 1.9 2.1
v -0.2 1.8 2.1
v -0.2 1.9 2.1
v -2.5 2.3 2
v -2.5 2.4 2
v 1 0.1 2
v 1 1.9 2
v 1.1 0.1 2
v 1.1 1.5 2
v 1.1 1.6 2
v 1.1 1.8 2
v 1.2 0.8 2
v 1.2 0.9 2
v 1.3 0.8 2
v 1.3 0.9 2
v 1.9 0.1 2
v 1.9 1.5 2
v 1.9 1.6 2
v 1.9 1.8 2
v 2 0.1 2
v 2 1.9 2
v 2.5 2.3 2
v 2.5 2.4 2
v -2.5 0.1 1.9
v -2.5 2.3 1.9
v -1.9 0.1 1.9
v -1.9 1.7 1.9
v -1.7 1.7 1.9
v -1.7 1.8 1.9
v -1.5 1.8 1.9
v -1.5 1.9 1.9
v -0.2 1.8 1.9
v -0.2 1.9 1.9
v 2.38419e-07 1.7 1.9
v 2.38419e-07 1.8 1.9
v 0.2 0.1 1.9
v 0.2 1.7 1.9
v 1 0.1 1.9
v 1 1.9 1.9
v 1.1 0.1 1.9
v 1.1 1.5 1.9
v 1.1 1.6 1.9
v 1.1 1.8 1.9
v 1.2 0.8 1.9
v 1.2 0.9 1.9
v 1.3 0.4 1.9
v 1.3 0.5 1.9
v 1.3 0.8 1.9
v 1.3 0.9 1.9
v 1.7 0.4 1.9
v 1.7 0.5 1.9
v 1.9 0.1 1.9
v 1.9 1.5 1.9
v 1.9 1.6 1.9
v 1.9 1.8 1.9
v 2 0.1 1.9
v 2 1.9 1.9
v 2.5 0.1 1.9
v 2.5 2.3 1.9
v 1.3 0.4 1.8
v 1.3 0.5 1.8
v 1.7 0.4 1.8
v 1.7 0.5 1.8
v 0.2 0.8 -1.7
v 0.2 1.5 -1.7
v 0.6 0.8 -1.7
v 0.6 1.5 -1.7
v 0.7 0.8 -1.7
v 0.7 1.5 -1.7
v 1.3 0.8 -1.7
v 1.3 1.5 -1.7
v 1.4 0.8 -1.7
v 1.4 1.5 -1.7
v 1.8 0.8 -1.7
v 1.8 1.5 -1.7
v -1.7 0.5 -1.8
v -1.7 1.4 -1.8
v -1.6 0.5 -1.8
v -1.6 1.4 -1.8
v 0.1 0.7 -1.8
v 0.1 1.6 -1.8
v 0.2 0.8 -1.8
v 0.2 1.5 -1.8
v 0.6 0.8 -1.8
v 0.6 1.5 -1.8
v 0.7 0.8 -1.8
v 0.7 1.5 -1.8
v 1.3 0.8 -1.8
v 1.3 1.5 -1.8
v 1.4 0.8 -1.8
v 1.4 1.5 -1.8
v 1.8 0.8 -1.8
v 1.8 1.5 -1.8
v 1.9 0.7 -1.8
v 1.9 1.6 -1.8
v -2.5 0.1 -1.9
v -2.5 2.3 -1.9
v -1.9 0.1 -1.9
v -1.9 2 -1.9
v -1.8 0.2 -1.9
v -1.8 1.6 -1.9
v -1.8 1.7 -1.9
v -1.8 1.9 -1.9
v -1.7 0.5 -1.9
v -1.7 1.4 -1.9
v -1.6 0.5 -1.9
v -1.6 1.4 -1.9
v -1.2 0.8 -1.9
v -1.2 0.9 -1.9
v -1.1 0.8 -1.9
v -1.1 0.9 -1.9
v -1 0.2 -1.9
v -1 1.6 -1.9
v -1 1.7 -1.9
v -1 1.9 -1.9
v -0.9 0.1 -1.9
v -0.9 2 -1.9
v 2.38419e-07 0.6 -1.9
v 2.38419e-07 1.7 -1.9
v 0.1 0.7 -1.9
v 0.1 1.6 -1.9
v 1.9 0.7 -1.9
v 1.9 1.6 -1.9
v 2 0.6 -1.9
v 2 1.7 -1.9
v 2.5 0.1 -1.9
v 2.5 2.3 -1.9
v -2.5 2.3 -2
v -2.5 2.4 -2
v -1.9 0.1 -2
v -1.9 2 -2
v -1.8 0.2 -2
v -1.8 1.6 -2
v -1.8 1.7 -2
v -1.8 1.9 -2
v -1.2 0.8 -2
v -1.2 0.9 -2
v -1.1 0.8 -2
v -1.1 0.9 -2
v -1 0.2 -2
v -1 1.6 -2
v -1 1.7 -2
v -1 1.9 -2
v -0.9 0.1 -2
v -0.9 2 -2
v 2.5 2.3 -2
v 2.5 2.4 -2
v -2.5 0 -2.5
v -2.5 0.1 -2.5
v 2.5 0 -2.5
v 2.5 0.1 -2.5
v -2.5 0 2.5
v 2.5 0 2.5
v -2.5 0 1.9
v 2.5 0 1.9
v -2.4 0 1.8
v 2.4 0 1.8
v -2.4 0 -1.8
v 2.4 0 -1.8
v -2.5 0 -1.9
v 2.5 0 -1.9
v -2.5 0 -2.5
v 2.5 0 -2.5
v 1.3 0.5 1.9
v 1.7 0.5 1.9
v 1.3 0.5 1.8
v 1.7 0.5 1.8
v 1.2 0.8 2
v 1.3 0.8 2
v 1.2 0.8 1.9
v 1.3 0.8 1.9
v -1.2 0.8 -1.9
v -1.1 0.8 -1.9
v -1.2 0.8 -2
v -1.1 0.8 -2
v -1.3 1 2.4
v -0.4 1 2.4
v -1.3 1 2.3
v -0.4 1 2.3
v -1.3 1.3 2.4
v -0.4 1.3 2.4
v -1.3 1.3 2.3
v -0.4 1.3 2.3
v -1.4 1.4 2.5
v -0.3 1.4 2.5
v -1.4 1.4 2.4
v -0.3 1.4 2.4
v -1.7 1.4 -1.8
v -1.6 1.4 -1.8
v -1.7 1.4 -1.9
v -1.6 1.4 -1.9
v 1.1 1.5 2
v 1.9 1.5 2
v 1.1 1.5 1.9
v 1.9 1.5 1.9
v 0.2 1.5 -1.7
v 0.6 1.5 -1.7
v 0.7 1.5 -1.7
v 1.3 1.5 -1.7
v 1.4 1.5 -1.7
v 1.8 1.5 -1.7
v 0.2 1.5 -1.8
v 0.6 1.5 -1.8
v 0.7 1.5 -1.8
v 1.3 1.5 -1.8
v 1.4 1.5 -1.8
v 1.8 1.5 -1.8
v 0.1 1.6 -1.8
v 1.9 1.6 -1.8
v -1.8 1.6 -1.9
v -1 1.6 -1.9
v 0.1 1.6 -1.9
v 1.9 1.6 -1.9
v -1.8 1.6 -2
v -1 1.6 -2
v 1.1 1.8 2
v 1.9 1.8 2
v 1.1 1.8 1.9
v 1.9 1.8 1.9
v -1.8 1.9 -1.9
v -1 1.9 -1.9
v -1.8 1.9 -2
v -1 1.9 -2
v -2.5 2.3 2
v 2.5 2.3 2
v -2.5 2.3 1.9
v 2.5 2.3 1.9
v -2.5 2.3 -1.9
v 2.5 2.3 -1.9
v -2.5 2.3 -2
v 2.5 2.3 -2
v -2.5 0.1 2.5
v -1.7 0.1 2.5
v 2.38419e-07 0.1 2.5
v 2.5 0.1 2.5
v -1.8 0.1 2.4
v -1.7 0.1 2.4
v 2.38419e-07 0.1 2.4
v 0.1 0.1 2.4
v -1.9 0.1 2.2
v -1.8 0.1 2.2
v 0.1 0.1 2.2
v 0.2 0.1 2.2
v 1 0.1 2
v 1.1 0.1 2
v 1.9 0.1 2
v 2 0.1 2
v -2.5 0.1 1.9
v -1.9 0.1 1.9
v 0.2 0.1 1.9
v 1 0.1 1.9
v 1.1 0.1 1.9
v 1.9 0.1 1.9
v 2 0.1 1.9
v 2.5 0.1 1.9
v -2.5 0.1 -1.9
v -1.9 0.1 -1.9
v -0.9 0.1 -1.9
v 2.5 0.1 -1.9
v -1.9 0.1 -2
v -0.9 0.1 -2
v -2.5 0.1 -2.5
v 2.5 0.1 -2.5
v -1.8 0.2 -1.9
v -1 0.2 -1.9
v -1.8 0.2 -2
v -1 0.2 -2
v 1.3 0.4 1.9
v 1.7 0.4 1.9
v 1.3 0.4 1.8
v 1.7 0.4 1.8
v -1.7 0.5 -1.8
v -1.6 0.5 -1.8
v -1.7 0.5 -1.9
v -1.6 0.5 -1.9
v -1.4 0.6 2.5
v -0.3 0.6 2.5
v -1.4 0.6 2.4
v -0.3 0.6 2.4
v -1.3 0.7 2.4
v -0.4 0.7 2.4
v -1.3 0.7 2.3
v -0.4 0.7 2.3
v 0.1 0.7 -1.8
v 1.9 0.7 -1.8
v 0.1 0.7 -1.9
v 1.9 0.7 -1.9
v 0.2 0.8 -1.7
v 0.6 0.8 -1.7
v 0.7 0.8 -1.7
v 1.3 0.8 -1.7
v 1.4 0.8 -1.7
v 1.8 0.8 -1.7
v 0.2 0.8 -1.8
v 0.6 0.8 -1.8
v 0.7 0.8 -1.8
v 1.3 0.8 -1.8
v 1.4 0.8 -1.8
v 1.8 0.8 -1.8
v 1.2 0.9 2
v 1.3 0.9 2
v 1.2 0.9 1.9
v 1.3 0.9 1.9
v -1.2 0.9 -1.9
v -1.1 0.9 -1.9
v -1.2 0.9 -2
v -1.1 0.9 -2
v -1.3 1.1 2.4
v -0.4 1.1 2.4
v -1.3 1.1 2.3
v -0.4 1.1 2.3
v 1.1 1.6 2
v 1.9 1.6 2
v 1.1 1.6 1.9
v 1.9 1.6 1.9
v -1.7 1.7 2.5
v 2.38419e-07 1.7 2.5
v -1.8 1.7 2.4
v -1.7 1.7 2.4
v -1.6 1.7 2.4
v -0.0999999 1.7 2.4
v 2.38419e-07 1.7 2.4
v 0.1 1.7 2.4
v -1.9 1.7 2.2
v -1.8 1.7 2.2
v -1.7 1.7 2.2
v -1.6 1.7 2.2
v -0.0999999 1.7 2.2
v 2.38419e-07 1.7 2.2
v 0.1 1.7 2.2
v 0.2 1.7 2.2
v -1.9 1.7 1.9
v -1.7 1.7 1.9
v 2.38419e-07 1.7 1.9
v 0.2 1.7 1.9
v -1.8 1.7 -1.9
v -1 1.7 -1.9
v -1.8 1.7 -2
v -1 1.7 -2
v -1.6 1.8 2.4
v -0.0999999 1.8 2.4
v -1.7 1.8 2.2
v -1.6 1.8 2.2
v -1.4 1.8 2.2
v -0.3 1.8 2.2
v -0.0999999 1.8 2.2
v 2.38419e-07 1.8 2.2
v -1.5 1.8 2.1
v -1.4 1.8 2.1
v -0.3 1.8 2.1
v -0.2 1.8 2.1
v -1.7 1.8 1.9
v -1.5 1.8 1.9
v -0.2 1.8 1.9
v 2.38419e-07 1.8 1.9
v -1.4 1.9 2.2
v -0.3 1.9 2.2
v -1.5 1.9 2.1
v -1.4 1.9 2.1
v -0.3 1.9 2.1
v -0.2 1.9 2.1
v 1 1.9 2
v 2 1.9 2
v -1.5 1.9 1.9
v -0.2 1.9 1.9
v 1 1.9 1.9
v 2 1.9 1.9
v -1.9 2 -1.9
v -0.9 2 -1.9
v -1.9 2 -2
v -0.9 2 -2
v -2.5 2.4 2
v 2.5 2.4 2
v -2.5 2.4 1.9
v 2.5 2.4 1.9
v -2.5 2.4 -1.9
v 2.5 2.4 -1.9
v -2.5 2.4 -2
v 2.5 2.4 -2

# faces
f 5/1/1 2/1/1 1/1/1
f 6/7/1 3/7/1 2/7/1
f 6/1/1 2/1/1 5/1/1
f 7/1/1 4/1/1 3/1/1
f 7/7/1 3/7/1 6/7/1
f 8/1/1 4/1/1 7/1/1
f 10/7/1 7/7/1 6/7/1
f 11/7/1 7/7/1 10/7/1
f 13/3/1 10/3/1 9/3/1
f 14/7/1 11/7/1 10/7/1
f 14/3/1 10/3/1 13/3/1
f 15/3/1 12/3/1 11/3/1
f 15/7/1 11/7/1 14/7/1
f 16/3/1 12/3/1 15/3/1
f 21/7/1 18/7/1 17/7/1
f 22/7/1 18/7/1 21/7/1
f 23/3/1 20/3/1 19/3/1
f 24/3/1 20/3/1 23/3/1
f 27/7/1 26/7/1 25/7/1
f 28/7/1 26/7/1 27/7/1
f 31/7/1 30/7/1 29/7/1
f 32/7/1 30/7/1 31/7/1
f 35/7/1 34/7/1 33/7/1
f 36/7/1 34/7/1 35/7/1
f 39/4/1 38/4/1 37/4/1
f 40/4/1 38/4/1 39/4/1
f 43/7/1 42/7/1 41/7/1
f 44/7/1 42/7/1 43/7/1
f 47/7/1 46/7/1 45/7/1
f 48/7/1 46/7/1 47/7/1
f 51/7/1 50/7/1 49/7/1
f 52/7/1 50/7/1 51/7/1
f 55/3/1 54/3/1 53/3/1
f 56/3/1 54/3/1 55/3/1
f 59/3/1 58/3/1 57/3/1
f 60/3/1 58/3/1 59/3/1
f 63/3/1 62/3/1 61/3/1
f 64/3/1 62/3/1 63/3/1
f 67/4/1 66/4/1 65/4/1
f 68/4/1 66/4/1 67/4/1
f 71/4/1 70/4/1 69/4/1
f 72/4/1 70/4/1 71/4/1
f 75/4/1 74/4/1 73/4/1
f 76/4/1 74/4/1 75/4/1
f 79/4/1 78/4/1 77/4/1
f 80/4/1 78/4/1 79/4/1
f 83/3/1 82/3/1 81/3/1
f 84/3/1 82/3/1 83/3/1
f 87/3/1 86/3/1 85/3/1
f 88/3/1 86/3/1 87/3/1
f 91/4/1 90/4/1 89/4/1
f 92/4/1 90/4/1 91/4/1
f 95/4/1 94/4/1 93/4/1
f 96/4/1 94/4/1 95/4/1
f 99/4/1 98/4/1 97/4/1
f 100/4/1 98/4/1 99/4/1
f 105/3/1 102/3/1 101/3/1
f 106/3/1 102/3/1 105/3/1
f 109/4/1 104/4/1 103/4/1
f 110/4/1 104/4/1 109/4/1
f 111/3/1 108/3/1 107/3/1
f 112/3/1 108/3/1 111/3/1
f 113/3/2 114/3/2 115/3/2
f 115/3/2 114/3/2 116/3/2
f 117/3/2 118/3/2 119/3/2
f 119/3/2 118/3/2 120/3/2
f 121/4/2 122/4/2 123/4/2
f 123/4/2 122/4/2 124/4/2
f 125/4/2 126/4/2 127/4/2
f 127/4/2 126/4/2 128/4/2
f 129/4/2 130/4/2 131/4/2
f 131/4/2 130/4/2 132/4/2
f 133/4/2 134/4/2 135/4/2
f 135/4/2 134/4/2 136/4/2
f 137/3/2 138/3/2 139/3/2
f 139/3/2 138/3/2 140/3/2
f 141/3/2 142/3/2 143/3/2
f 143/3/2 142/3/2 144/3/2
f 145/7/2 146/7/2 147/7/2
f 147/7/2 146/7/2 148/7/2
f 149/7/2 150/7/2 151/7/2
f 151/7/2 150/7/2 152/7/2
f 153/7/2 154/7/2 155/7/2
f 155/7/2 154/7/2 156/7/2
f 157/7/2 158/7/2 159/7/2
f 159/7/2 158/7/2 160/7/2
f 161/7/2 162/7/2 163/7/2
f 163/7/2 162/7/2 164/7/2
f 167/4/2 168/4/2 169/4/2
f 169/4/2 168/4/2 170/4/2
f 165/7/2 166/7/2 171/7/2
f 171/7/2 166/7/2 172/7/2
f 175/4/2 176/4/2 177/4/2
f 177/4/2 176/4/2 178/4/2
f 173/7/2 174/7/2 179/7/2
f 179/7/2 174/7/2 180/7/2
f 181/4/2 182/4/2 183/4/2
f 183/4/2 182/4/2 184/4/2
f 185/3/2 186/3/2 187/3/2
f 187/3/2 186/3/2 188/3/2
f 189/3/2 190/3/2 191/3/2
f 191/3/2 190/3/2 192/3/2
f 193/4/2 194/4/2 195/4/2
f 195/4/2 194/4/2 196/4/2
f 197/3/2 198/3/2 199/3/2
f 199/3/2 198/3/2 200/3/2
f 201/4/2 202/4/2 203/4/2
f 203/4/2 202/4/2 204/4/2
f 205/3/2 206/3/2 207/3/2
f 207/3/2 206/3/2 208/3/2
f 209/1/2 210/1/2 213/1/2
f 210/7/2 211/7/2 214/7/2
f 213/1/2 210/1/2 214/1/2
f 211/1/2 212/1/2 215/1/2
f 214/7/2 211/7/2 215/7/2
f 215/1/2 212/1/2 216/1/2
f 214/7/2 215/7/2 218/7/2
f 218/7/2 215/7/2 219/7/2
f 217/3/2 218/3/2 221/3/2
f 218/7/2 219/7/2 222/7/2
f 221/3/2 218/3/2 222/3/2
f 219/3/2 220/3/2 223/3/2
f 222/7/2 219/7/2 223/7/2
f 223/3/2 220/3/2 224/3/2
f 227/1/3 226/1/3 225/1/3
f 229/7/3 228/7/3 227/7/3
f 230/7/3 228/7/3 229/7/3
f 231/4/3 230/4/3 229/4/3
f 232/4/3 230/4/3 231/4/3
f 233/4/3 231/4/3 229/4/3
f 234/4/3 230/4/3 232/4/3
f 235/7/3 229/7/3 227/7/3
f 235/4/3 234/4/3 233/4/3
f 235/4/3 233/4/3 229/4/3
f 236/4/3 230/4/3 234/4/3
f 236/4/3 234/4/3 235/4/3
f 236/7/3 228/7/3 230/7/3
f 237/1/3 227/1/3 225/1/3
f 237/7/3 235/7/3 227/7/3
f 237/7/3 236/7/3 235/7/3
f 238/7/3 228/7/3 236/7/3
f 238/7/3 236/7/3 237/7/3
f 239/1/3 237/1/3 225/1/3
f 240/1/3 237/1/3 239/1/3
f 243/7/3 242/7/3 241/7/3
f 244/7/3 242/7/3 243/7/3
f 249/4/3 248/4/3 247/4/3
f 250/4/3 248/4/3 249/4/3
f 251/4/3 248/4/3 250/4/3
f 252/4/3 248/4/3 251/4/3
f 253/4/3 249/4/3 247/4/3
f 254/4/3 251/4/3 250/4/3
f 255/4/3 251/4/3 254/4/3
f 256/4/3 248/4/3 252/4/3
f 257/4/3 255/4/3 254/4/3
f 257/4/3 256/4/3 255/4/3
f 257/4/3 253/4/3 247/4/3
f 257/4/3 254/4/3 253/4/3
f 258/4/3 248/4/3 256/4/3
f 258/4/3 256/4/3 257/4/3
f 259/7/3 246/7/3 245/7/3
f 260/7/3 246/7/3 259/7/3
f 263/7/3 262/7/3 261/7/3
f 264/7/3 262/7/3 263/7/3
f 269/5/3 266/5/3 265/5/3
f 270/5/3 266/5/3 269/5/3
f 271/5/3 268/5/3 267/5/3
f 272/5/3 268/5/3 271/5/3
f 275/7/3 274/7/3 273/7/3
f 276/7/3 274/7/3 275/7/3
f 279/7/3 278/7/3 277/7/3
f 280/7/3 278/7/3 279/7/3
f 283/7/3 282/7/3 281/7/3
f 284/7/3 282/7/3 283/7/3
f 287/7/3 286/7/3 285/7/3
f 288/7/3 286/7/3 287/7/3
f 291/7/3 290/7/3 289/7/3
f 292/7/3 290/7/3 291/7/3
f 295/7/3 294/7/3 293/7/3
f 296/7/3 294/7/3 295/7/3
f 299/7/3 298/7/3 297/7/3
f 300/7/3 298/7/3 299/7/3
f 305/3/3 304/3/3 303/3/3
f 306/3/3 304/3/3 305/3/3
f 307/3/3 304/3/3 306/3/3
f 308/3/3 304/3/3 307/3/3
f 311/3/3 310/3/3 309/3/3
f 312/3/3 310/3/3 311/3/3
f 314/3/3 307/3/3 306/3/3
f 315/3/3 307/3/3 314/3/3
f 316/3/3 304/3/3 308/3/3
f 317/3/3 315/3/3 314/3/3
f 317/3/3 316/3/3 315/3/3
f 317/3/3 314/3/3 313/3/3
f 318/3/3 304/3/3 316/3/3
f 318/3/3 316/3/3 317/3/3
f 319/3/3 302/3/3 301/3/3
f 320/3/3 302/3/3 319/3/3
f 323/7/3 322/7/3 321/7/3
f 324/7/3 322/7/3 323/7/3
f 325/7/3 322/7/3 324/7/3
f 326/7/3 322/7/3 325/7/3
f 327/7/3 322/7/3 326/7/3
f 328/7/3 322/7/3 327/7/3
f 330/7/3 322/7/3 328/7/3
f 332/7/3 330/7/3 329/7/3
f 334/7/3 332/7/3 331/7/3
f 335/7/3 334/7/3 333/7/3
f 336/7/3 322/7/3 330/7/3
f 336/7/3 334/7/3 335/7/3
f 336/7/3 330/7/3 332/7/3
f 336/7/3 332/7/3 334/7/3
f 341/4/3 338/4/3 337/4/3
f 342/4/3 338/4/3 341/4/3
f 343/4/3 341/4/3 337/4/3
f 344/4/3 341/4/3 343/4/3
f 345/4/3 341/4/3 344/4/3
f 346/4/3 338/4/3 342/4/3
f 347/4/3 343/4/3 337/4/3
f 348/4/3 345/4/3 344/4/3
f 348/4/3 346/4/3 345/4/3
f 349/4/3 347/4/3 337/4/3
f 349/4/3 348/4/3 347/4/3
f 350/4/3 346/4/3 348/4/3
f 350/4/3 348/4/3 349/4/3
f 350/4/3 338/4/3 346/4/3
f 351/4/3 340/4/3 339/4/3
f 352/4/3 340/4/3 351/4/3
f 354/7/3 322/7/3 336/7/3
f 355/7/3 354/7/3 353/7/3
f 356/7/3 322/7/3 354/7/3
f 356/7/3 354/7/3 355/7/3
f 359/3/3 358/3/3 357/3/3
f 360/3/3 358/3/3 359/3/3
f 361/6/4 362/6/4 363/6/4
f 363/6/4 362/6/4 364/6/4
f 365/6/4 366/6/4 367/6/4
f 367/6/4 366/6/4 368/6/4
f 369/6/4 370/6/4 371/6/4
f 371/6/4 370/6/4 372/6/4
f 373/3/4 374/3/4 375/3/4
f 375/3/4 374/3/4 376/3/4
f 377/4/4 378/4/4 379/4/4
f 379/4/4 378/4/4 380/4/4
f 377/4/4 379/4/4 381/4/4
f 380/4/4 378/4/4 382/4/4
f 377/4/4 381/4/4 383/4/4
f 381/4/4 382/4/4 383/4/4
f 382/4/4 378/4/4 384/4/4
f 383/4/4 382/4/4 384/4/4
f 377/4/4 383/4/4 385/4/4
f 384/4/4 378/4/4 386/4/4
f 377/4/4 385/4/4 387/4/4
f 385/4/4 386/4/4 387/4/4
f 386/4/4 378/4/4 388/4/4
f 387/4/4 386/4/4 388/4/4
f 377/4/4 387/4/4 389/4/4
f 388/4/4 378/4/4 390/4/4
f 377/4/4 389/4/4 391/4/4
f 389/4/4 390/4/4 391/4/4
f 390/4/4 378/4/4 392/4/4
f 391/4/4 390/4/4 392/4/4
f 393/7/4 394/7/4 395/7/4
f 395/7/4 394/7/4 396/7/4
f 397/4/4 398/4/4 401/4/4
f 401/4/4 398/4/4 402/4/4
f 397/4/4 401/4/4 403/4/4
f 402/4/4 398/4/4 404/4/4
f 403/4/4 404/4/4 405/4/4
f 405/4/4 404/4/4 406/4/4
f 403/4/4 405/4/4 407/4/4
f 406/4/4 404/4/4 408/4/4
f 397/4/4 403/4/4 409/4/4
f 407/4/4 408/4/4 409/4/4
f 403/4/4 407/4/4 409/4/4
f 408/4/4 404/4/4 410/4/4
f 409/4/4 408/4/4 410/4/4
f 404/4/4 398/4/4 410/4/4
f 399/4/4 400/4/4 411/4/4
f 411/4/4 400/4/4 412/4/4
f 396/7/4 394/7/4 414/7/4
f 413/7/4 414/7/4 415/7/4
f 415/7/4 414/7/4 416/7/4
f 415/4/4 416/4/4 417/4/4
f 417/4/4 416/4/4 418/4/4
f 415/4/4 417/4/4 419/4/4
f 418/4/4 416/4/4 420/4/4
f 413/7/4 415/7/4 421/7/4
f 419/4/4 420/4/4 421/4/4
f 415/4/4 419/4/4 421/4/4
f 420/4/4 416/4/4 422/4/4
f 421/4/4 420/4/4 422/4/4
f 416/7/4 414/7/4 422/7/4
f 413/7/4 421/7/4 423/7/4
f 421/7/4 422/7/4 423/7/4
f 414/7/4 394/7/4 424/7/4
f 423/7/4 422/7/4 424/7/4
f 422/7/4 414/7/4 424/7/4
f 427/3/4 428/3/4 429/3/4
f 429/3/4 428/3/4 430/3/4
f 430/3/4 428/3/4 431/3/4
f 431/3/4 428/3/4 432/3/4
f 433/3/4 434/3/4 435/3/4
f 435/3/4 434/3/4 436/3/4
f 427/3/4 429/3/4 437/3/4
f 430/3/4 431/3/4 438/3/4
f 438/3/4 431/3/4 439/3/4
f 432/3/4 428/3/4 440/3/4
f 427/3/4 437/3/4 441/3/4
f 439/3/4 440/3/4 441/3/4
f 438/3/4 439/3/4 441/3/4
f 437/3/4 438/3/4 441/3/4
f 440/3/4 428/3/4 442/3/4
f 441/3/4 440/3/4 442/3/4
f 425/3/4 426/3/4 443/3/4
f 443/3/4 426/3/4 444/3/4
f 445/1/4 446/1/4 447/1/4
f 447/1/4 446/1/4 448/1/4
f 451/1/5 450/1/5 449/1/5
f 452/1/5 450/1/5 451/1/5
f 453/7/5 452/7/5 451/7/5
f 454/7/5 452/7/5 453/7/5
f 455/7/5 453/7/5 451/7/5
f 455/1/5 454/1/5 453/1/5
f 456/7/5 452/7/5 454/7/5
f 456/1/5 454/1/5 455/1/5
f 457/7/5 455/7/5 451/7/5
f 457/7/5 456/7/5 455/7/5
f 458/7/5 452/7/5 456/7/5
f 458/7/5 456/7/5 457/7/5
f 459/1/5 458/1/5 457/1/5
f 460/1/5 458/1/5 459/1/5
f 463/4/5 462/4/5 461/4/5
f 464/4/5 462/4/5 463/4/5
f 467/3/5 466/3/5 465/3/5
f 468/3/5 466/3/5 467/3/5
f 471/3/5 470/3/5 469/3/5
f 472/3/5 470/3/5 471/3/5
f 475/4/5 474/4/5 473/4/5
f 476/4/5 474/4/5 475/4/5
f 479/4/5 478/4/5 477/4/5
f 480/4/5 478/4/5 479/4/5
f 483/4/5 482/4/5 481/4/5
f 484/4/5 482/4/5 483/4/5
f 487/4/5 486/4/5 485/4/5
f 488/4/5 486/4/5 487/4/5
f 491/3/5 490/3/5 489/3/5
f 492/3/5 490/3/5 491/3/5
f 499/4/5 494/4/5 493/4/5
f 500/4/5 494/4/5 499/4/5
f 501/4/5 496/4/5 495/4/5
f 502/4/5 496/4/5 501/4/5
f 503/4/5 498/4/5 497/4/5
f 504/4/5 498/4/5 503/4/5
f 509/4/5 506/4/5 505/4/5
f 510/4/5 506/4/5 509/4/5
f 511/3/5 508/3/5 507/3/5
f 512/3/5 508/3/5 511/3/5
f 515/3/5 514/3/5 513/3/5
f 516/3/5 514/3/5 515/3/5
f 519/3/5 518/3/5 517/3/5
f 520/3/5 518/3/5 519/3/5
f 523/3/5 522/3/5 521/3/5
f 524/3/5 522/3/5 523/3/5
f 527/3/5 526/3/5 525/3/5
f 528/3/5 526/3/5 527/3/5
f 529/1/6 530/1/6 533/1/6
f 533/1/6 530/1/6 534/1/6
f 531/1/6 532/1/6 535/1/6
f 535/1/6 532/1/6 536/1/6
f 529/1/6 533/1/6 537/1/6
f 537/1/6 533/1/6 538/1/6
f 536/1/6 532/1/6 539/1/6
f 539/1/6 532/1/6 540/1/6
f 540/1/6 532/1/6 541/1/6
f 541/1/6 532/1/6 542/1/6
f 542/1/6 532/1/6 543/1/6
f 543/1/6 532/1/6 544/1/6
f 529/1/6 537/1/6 545/1/6
f 545/1/6 537/1/6 546/1/6
f 540/1/6 541/1/6 547/1/6
f 547/1/6 541/1/6 548/1/6
f 542/1/6 543/1/6 549/1/6
f 549/1/6 543/1/6 550/1/6
f 544/1/6 532/1/6 551/1/6
f 551/1/6 532/1/6 552/1/6
f 553/1/6 554/1/6 557/1/6
f 555/1/6 556/1/6 558/1/6
f 553/1/6 557/1/6 559/1/6
f 557/1/6 558/1/6 559/1/6
f 558/1/6 556/1/6 560/1/6
f 559/1/6 558/1/6 560/1/6
f 561/3/6 562/3/6 563/3/6
f 563/3/6 562/3/6 564/3/6
f 565/4/6 566/4/6 567/4/6
f 567/4/6 566/4/6 568/4/6
f 569/4/6 570/4/6 571/4/6
f 571/4/6 570/4/6 572/4/6
f 573/4/6 574/4/6 575/4/6
f 575/4/6 574/4/6 576/4/6
f 577/4/6 578/4/6 579/4/6
f 579/4/6 578/4/6 580/4/6
f 581/4/6 582/4/6 583/4/6
f 583/4/6 582/4/6 584/4/6
f 585/4/6 586/4/6 591/4/6
f 591/4/6 586/4/6 592/4/6
f 587/4/6 588/4/6 593/4/6
f 593/4/6 588/4/6 594/4/6
f 589/4/6 590/4/6 595/4/6
f 595/4/6 590/4/6 596/4/6
f 597/3/6 598/3/6 599/3/6
f 599/3/6 598/3/6 600/3/6
f 601/3/6 602/3/6 603/3/6
f 603/3/6 602/3/6 604/3/6
f 605/4/6 606/4/6 607/4/6
f 607/4/6 606/4/6 608/4/6
f 609/3/6 610/3/6 611/3/6
f 611/3/6 610/3/6 612/3/6
f 613/7/6 614/7/6 616/7/6
f 616/7/6 614/7/6 617/7/6
f 617/7/6 614/7/6 618/7/6
f 618/7/6 614/7/6 619/7/6
f 615/7/6 616/7/6 622/7/6
f 616/7/6 617/7/6 622/7/6
f 622/7/6 617/7/6 623/7/6
f 623/7/6 617/7/6 624/7/6
f 618/7/6 619/7/6 625/7/6
f 619/7/6 620/7/6 625/7/6
f 625/7/6 620/7/6 626/7/6
f 626/7/6 620/7/6 627/7/6
f 622/7/6 623/7/6 629/7/6
f 621/7/6 622/7/6 629/7/6
f 629/7/6 623/7/6 630/7/6
f 627/7/6 628/7/6 631/7/6
f 626/7/6 627/7/6 631/7/6
f 631/7/6 628/7/6 632/7/6
f 633/3/6 634/3/6 635/3/6
f 635/3/6 634/3/6 636/3/6
f 637/7/6 638/7/6 640/7/6
f 640/7/6 638/7/6 641/7/6
f 641/7/6 638/7/6 642/7/6
f 642/7/6 638/7/6 643/7/6
f 639/7/6 640/7/6 645/7/6
f 640/7/6 641/7/6 645/7/6
f 645/7/6 641/7/6 646/7/6
f 643/7/6 644/7/6 647/7/6
f 642/7/6 643/7/6 647/7/6
f 647/7/6 644/7/6 648/7/6
f 639/7/6 645/7/6 649/7/6
f 649/7/6 645/7/6 650/7/6
f 648/7/6 644/7/6 651/7/6
f 651/7/6 644/7/6 652/7/6
f 653/7/6 654/7/6 656/7/6
f 656/7/6 654/7/6 657/7/6
f 655/7/6 656/7/6 661/7/6
f 656/7/6 657/7/6 661/7/6
f 657/7/6 658/7/6 661/7/6
f 661/7/6 658/7/6 662/7/6
f 659/3/6 660/3/6 663/3/6
f 663/3/6 660/3/6 664/3/6
f 665/3/6 666/3/6 667/3/6
f 667/3/6 666/3/6 668/3/6
f 669/3/6 670/3/6 671/3/6
f 671/3/6 670/3/6 672/3/6
f 671/7/6 672/7/6 673/7/6
f 673/7/6 672/7/6 674/7/6
f 673/3/6 674/3/6 675/3/6
f 675/3/6 674/3/6 676/3/6
