# MagicaVoxel @ Ephtracy

# group
o 

# material
mtllib Orange_BlockHouseF1_02.mtl
usemtl palette

# normals
vn -1 0 0
vn 1 0 0
vn 0 0 1
vn 0 0 -1
vn 0 -1 0
vn 0 1 0

# texcoords
vt 0.00195313 0.5
vt 0.00976563 0.5
vt 0.0136719 0.5
vt 0.0253906 0.5
vt 0.0292969 0.5
vt 0.0644531 0.5

# verts
v -2.5 0 2.5
v -2.5 0 1.9
v -2.5 0 -1.9
v -2.5 0 -2.5
v -2.5 0.1 2.5
v -2.5 0.1 1.9
v -2.5 0.1 -1.9
v -2.5 0.1 -2.5
v -2.5 2.3 2
v -2.5 2.3 1.9
v -2.5 2.3 -1.9
v -2.5 2.3 -2
v -2.5 2.4 2
v -2.5 2.4 1.9
v -2.5 2.4 -1.9
v -2.5 2.4 -2
v -2 0.8 -1.9
v -2 0.8 -2
v -2 2 -1.9
v -2 2 -2
v -1.9 0.1 2.4
v -1.9 0.1 1.9
v -1.9 0.8 2.4
v -1.9 0.8 1.9
v -1.9 0.9 2.3
v -1.9 0.9 2
v -1.9 2 2.3
v -1.9 2 2
v -1.9 2.1 2.4
v -1.9 2.1 1.9
v -1.9 2.3 2.4
v -1.9 2.3 2
v -1.9 2.3 1.9
v -1.6 0.9 -1.8
v -1.6 0.9 -1.9
v -1.6 1.3 -1.8
v -1.6 1.3 -1.9
v -1.6 1.5 -1.8
v -1.6 1.5 -1.9
v -1.6 1.9 -1.8
v -1.6 1.9 -1.9
v -1.2 0.9 2.4
v -1.2 0.9 2.3
v -1.2 2 2.4
v -1.2 2 2.3
v -1.1 0.9 -1.8
v -1.1 0.9 -2
v -1.1 1.3 -1.8
v -1.1 1.3 -1.9
v -1.1 1.5 -1.8
v -1.1 1.5 -1.9
v -1.1 1.9 -1.8
v -1.1 1.9 -2
v -0.5 0.1 -1.9
v -0.5 0.1 -2
v -0.5 2 -1.9
v -0.5 2 -2
v -0.5 2.1 -1.9
v -0.5 2.1 -2
v -0.4 0.9 2.4
v -0.4 0.9 2.3
v -0.4 2 2.4
v -0.4 2 2.3
v 0.1 0.4 -1.8
v 0.1 0.4 -1.9
v 0.1 0.7 -1.8
v 0.1 0.7 -1.9
v 0.1 0.8 -1.8
v 0.1 0.8 -1.9
v 0.1 1.1 -1.8
v 0.1 1.1 -1.9
v 0.1 1.2 -1.8
v 0.1 1.2 -1.9
v 0.1 1.5 -1.8
v 0.1 1.5 -1.9
v 0.2 0.8 -1.9
v 0.2 0.8 -2
v 0.2 0.9 -1.9
v 0.2 0.9 -2
v 0.3 0.8 2.3
v 0.3 0.8 1.9
v 0.3 0.9 2.4
v 0.3 0.9 2.3
v 0.3 0.9 2
v 0.3 2 2.4
v 0.3 2 2.3
v 0.3 2 2
v 0.3 2.1 2.3
v 0.3 2.1 1.9
v 0.4 0.2 -1.9
v 0.4 0.2 -2
v 0.4 1.6 -1.9
v 0.4 1.6 -2
v 0.4 1.7 -1.9
v 0.4 1.7 -2
v 0.4 1.9 -1.9
v 0.4 1.9 -2
v 1 0.1 2
v 1 0.1 1.9
v 1 0.8 -1.9
v 1 0.8 -2
v 1 1.9 2
v 1 1.9 1.9
v 1 2 -1.9
v 1 2 -2
v 1.2 0.8 2
v 1.2 0.8 1.9
v 1.2 0.9 2
v 1.2 0.9 1.9
v 1.4 0.9 -1.8
v 1.4 0.9 -1.9
v 1.4 1.3 -1.8
v 1.4 1.3 -1.9
v 1.4 1.5 -1.8
v 1.4 1.5 -1.9
v 1.4 1.9 -1.8
v 1.4 1.9 -1.9
v 1.7 0.4 1.9
v 1.7 0.4 1.8
v 1.7 0.5 1.9
v 1.7 0.5 1.8
v 1.9 0.1 2
v 1.9 0.1 1.9
v 1.9 0.9 -1.8
v 1.9 0.9 -2
v 1.9 1.3 -1.8
v 1.9 1.3 -1.9
v 1.9 1.5 2
v 1.9 1.5 1.9
v 1.9 1.5 -1.8
v 1.9 1.5 -1.9
v 1.9 1.6 2
v 1.9 1.6 1.9
v 1.9 1.8 2
v 1.9 1.8 1.9
v 1.9 1.9 -1.8
v 1.9 1.9 -2
v -1.9 0.9 -1.8
v -1.9 0.9 -2
v -1.9 1.3 -1.8
v -1.9 1.3 -1.9
v -1.9 1.5 -1.8
v -1.9 1.5 -1.9
v -1.9 1.9 -1.8
v -1.9 1.9 -2
v -1.8 0.8 2.3
v -1.8 0.8 1.9
v -1.8 0.9 2.4
v -1.8 0.9 2.3
v -1.8 0.9 2
v -1.8 2 2.4
v -1.8 2 2.3
v -1.8 2 2
v -1.8 2.1 2.3
v -1.8 2.1 1.9
v -1.4 0.9 -1.8
v -1.4 0.9 -1.9
v -1.4 1.3 -1.8
v -1.4 1.3 -1.9
v -1.4 1.5 -1.8
v -1.4 1.5 -1.9
v -1.4 1.9 -1.8
v -1.4 1.9 -1.9
v -1.1 0.9 2.4
v -1.1 0.9 2.3
v -1.1 2 2.4
v -1.1 2 2.3
v -1 0.8 -1.9
v -1 0.8 -2
v -1 2 -1.9
v -1 2 -2
v -0.4 0.2 -1.9
v -0.4 0.2 -2
v -0.4 1.6 -1.9
v -0.4 1.6 -2
v -0.4 1.7 -1.9
v -0.4 1.7 -2
v -0.4 1.9 -1.9
v -0.4 1.9 -2
v -0.3 0.9 2.4
v -0.3 0.9 2.3
v -0.3 2 2.4
v -0.3 2 2.3
v -0.0999999 0.4 -1.8
v -0.0999999 0.4 -1.9
v -0.0999999 0.7 -1.8
v -0.0999999 0.7 -1.9
v -0.0999999 0.8 -1.8
v -0.0999999 0.8 -1.9
v -0.0999999 1.1 -1.8
v -0.0999999 1.1 -1.9
v -0.0999999 1.2 -1.8
v -0.0999999 1.2 -1.9
v -0.0999999 1.5 -1.8
v -0.0999999 1.5 -1.9
v 0.3 0.8 -1.9
v 0.3 0.8 -2
v 0.3 0.9 -1.9
v 0.3 0.9 -2
v 0.4 0.1 2.4
v 0.4 0.1 1.9
v 0.4 0.8 2.4
v 0.4 0.8 1.9
v 0.4 0.9 2.3
v 0.4 0.9 2
v 0.4 2 2.3
v 0.4 2 2
v 0.4 2.1 2.4
v 0.4 2.1 1.9
v 0.4 2.3 2.4
v 0.4 2.3 2
v 0.4 2.3 1.9
v 0.5 0.1 -1.9
v 0.5 0.1 -2
v 0.5 2 -1.9
v 0.5 2 -2
v 0.5 2.1 -1.9
v 0.5 2.1 -2
v 1.1 0.1 2
v 1.1 0.1 1.9
v 1.1 0.9 -1.8
v 1.1 0.9 -2
v 1.1 1.3 -1.8
v 1.1 1.3 -1.9
v 1.1 1.5 2
v 1.1 1.5 1.9
v 1.1 1.5 -1.8
v 1.1 1.5 -1.9
v 1.1 1.6 2
v 1.1 1.6 1.9
v 1.1 1.8 2
v 1.1 1.8 1.9
v 1.1 1.9 -1.8
v 1.1 1.9 -2
v 1.3 0.4 1.9
v 1.3 0.4 1.8
v 1.3 0.5 1.9
v 1.3 0.5 1.8
v 1.3 0.8 2
v 1.3 0.8 1.9
v 1.3 0.9 2
v 1.3 0.9 1.9
v 1.6 0.9 -1.8
v 1.6 0.9 -1.9
v 1.6 1.3 -1.8
v 1.6 1.3 -1.9
v 1.6 1.5 -1.8
v 1.6 1.5 -1.9
v 1.6 1.9 -1.8
v 1.6 1.9 -1.9
v 2 0.1 2
v 2 0.1 1.9
v 2 0.8 -1.9
v 2 0.8 -2
v 2 1.9 2
v 2 1.9 1.9
v 2 2 -1.9
v 2 2 -2
v 2.5 0 2.5
v 2.5 0 1.9
v 2.5 0 -1.9
v 2.5 0 -2.5
v 2.5 0.1 2.5
v 2.5 0.1 1.9
v 2.5 0.1 -1.9
v 2.5 0.1 -2.5
v 2.5 2.3 2
v 2.5 2.3 1.9
v 2.5 2.3 -1.9
v 2.5 2.3 -2
v 2.5 2.4 2
v 2.5 2.4 1.9
v 2.5 2.4 -1.9
v 2.5 2.4 -2
v -2.5 0 2.5
v -2.5 0.1 2.5
v 2.5 0 2.5
v 2.5 0.1 2.5
v -1.9 0.1 2.4
v -1.9 0.8 2.4
v -1.9 2.1 2.4
v -1.9 2.3 2.4
v -1.8 0.9 2.4
v -1.8 2 2.4
v -1.2 0.9 2.4
v -1.2 2 2.4
v -1.1 0.9 2.4
v -1.1 2 2.4
v -0.4 0.9 2.4
v -0.4 2 2.4
v -0.3 0.9 2.4
v -0.3 2 2.4
v 0.3 0.9 2.4
v 0.3 2 2.4
v 0.4 0.1 2.4
v 0.4 0.8 2.4
v 0.4 2.1 2.4
v 0.4 2.3 2.4
v -2.5 2.3 2
v -2.5 2.4 2
v -1.9 0.9 2
v -1.9 2 2
v -1.9 2.3 2
v -1.8 0.9 2
v -1.8 2 2
v 0.3 0.9 2
v 0.3 2 2
v 0.4 0.9 2
v 0.4 2 2
v 0.4 2.3 2
v 1 0.1 2
v 1 1.9 2
v 1.1 0.1 2
v 1.1 1.5 2
v 1.1 1.6 2
v 1.1 1.8 2
v 1.2 0.8 2
v 1.2 0.9 2
v 1.3 0.8 2
v 1.3 0.9 2
v 1.9 0.1 2
v 1.9 1.5 2
v 1.9 1.6 2
v 1.9 1.8 2
v 2 0.1 2
v 2 1.9 2
v 2.5 2.3 2
v 2.5 2.4 2
v -2.5 0.1 1.9
v -2.5 2.3 1.9
v -1.9 0.1 1.9
v -1.9 0.8 1.9
v -1.9 2.1 1.9
v -1.9 2.3 1.9
v -1.8 0.8 1.9
v -1.8 2.1 1.9
v 0.3 0.8 1.9
v 0.3 2.1 1.9
v 0.4 0.1 1.9
v 0.4 0.8 1.9
v 0.4 2.1 1.9
v 0.4 2.3 1.9
v 1 0.1 1.9
v 1 1.9 1.9
v 1.1 0.1 1.9
v 1.1 1.5 1.9
v 1.1 1.6 1.9
v 1.1 1.8 1.9
v 1.2 0.8 1.9
v 1.2 0.9 1.9
v 1.3 0.4 1.9
v 1.3 0.5 1.9
v 1.3 0.8 1.9
v 1.3 0.9 1.9
v 1.7 0.4 1.9
v 1.7 0.5 1.9
v 1.9 0.1 1.9
v 1.9 1.5 1.9
v 1.9 1.6 1.9
v 1.9 1.8 1.9
v 2 0.1 1.9
v 2 1.9 1.9
v 2.5 0.1 1.9
v 2.5 2.3 1.9
v 1.3 0.4 1.8
v 1.3 0.5 1.8
v 1.7 0.4 1.8
v 1.7 0.5 1.8
v -1.9 0.9 2.3
v -1.9 2 2.3
v -1.8 0.8 2.3
v -1.8 0.9 2.3
v -1.8 2 2.3
v -1.8 2.1 2.3
v -1.2 0.9 2.3
v -1.2 2 2.3
v -1.1 0.9 2.3
v -1.1 2 2.3
v -0.4 0.9 2.3
v -0.4 2 2.3
v -0.3 0.9 2.3
v -0.3 2 2.3
v 0.3 0.8 2.3
v 0.3 0.9 2.3
v 0.3 2 2.3
v 0.3 2.1 2.3
v 0.4 0.9 2.3
v 0.4 2 2.3
v -1.9 0.9 -1.8
v -1.9 1.3 -1.8
v -1.9 1.5 -1.8
v -1.9 1.9 -1.8
v -1.6 0.9 -1.8
v -1.6 1.3 -1.8
v -1.6 1.5 -1.8
v -1.6 1.9 -1.8
v -1.4 0.9 -1.8
v -1.4 1.3 -1.8
v -1.4 1.5 -1.8
v -1.4 1.9 -1.8
v -1.1 0.9 -1.8
v -1.1 1.3 -1.8
v -1.1 1.5 -1.8
v -1.1 1.9 -1.8
v -0.0999999 0.4 -1.8
v -0.0999999 0.7 -1.8
v -0.0999999 0.8 -1.8
v -0.0999999 1.1 -1.8
v -0.0999999 1.2 -1.8
v -0.0999999 1.5 -1.8
v 0.1 0.4 -1.8
v 0.1 0.7 -1.8
v 0.1 0.8 -1.8
v 0.1 1.1 -1.8
v 0.1 1.2 -1.8
v 0.1 1.5 -1.8
v 1.1 0.9 -1.8
v 1.1 1.3 -1.8
v 1.1 1.5 -1.8
v 1.1 1.9 -1.8
v 1.4 0.9 -1.8
v 1.4 1.3 -1.8
v 1.4 1.5 -1.8
v 1.4 1.9 -1.8
v 1.6 0.9 -1.8
v 1.6 1.3 -1.8
v 1.6 1.5 -1.8
v 1.6 1.9 -1.8
v 1.9 0.9 -1.8
v 1.9 1.3 -1.8
v 1.9 1.5 -1.8
v 1.9 1.9 -1.8
v -2.5 0.1 -1.9
v -2.5 2.3 -1.9
v -2 0.8 -1.9
v -2 2 -1.9
v -1.9 1.3 -1.9
v -1.9 1.5 -1.9
v -1.6 0.9 -1.9
v -1.6 1.3 -1.9
v -1.6 1.5 -1.9
v -1.6 1.9 -1.9
v -1.4 0.9 -1.9
v -1.4 1.3 -1.9
v -1.4 1.5 -1.9
v -1.4 1.9 -1.9
v -1.1 1.3 -1.9
v -1.1 1.5 -1.9
v -1 0.8 -1.9
v -1 2 -1.9
v -0.5 0.1 -1.9
v -0.5 2 -1.9
v -0.5 2.1 -1.9
v -0.4 0.2 -1.9
v -0.4 1.6 -1.9
v -0.4 1.7 -1.9
v -0.4 1.9 -1.9
v -0.0999999 0.4 -1.9
v -0.0999999 0.7 -1.9
v -0.0999999 0.8 -1.9
v -0.0999999 1.1 -1.9
v -0.0999999 1.2 -1.9
v -0.0999999 1.5 -1.9
v 0.1 0.4 -1.9
v 0.1 0.7 -1.9
v 0.1 0.8 -1.9
v 0.1 1.1 -1.9
v 0.1 1.2 -1.9
v 0.1 1.5 -1.9
v 0.2 0.8 -1.9
v 0.2 0.9 -1.9
v 0.3 0.8 -1.9
v 0.3 0.9 -1.9
v 0.4 0.2 -1.9
v 0.4 1.6 -1.9
v 0.4 1.7 -1.9
v 0.4 1.9 -1.9
v 0.5 0.1 -1.9
v 0.5 2 -1.9
v 0.5 2.1 -1.9
v 1 0.8 -1.9
v 1 2 -1.9
v 1.1 1.3 -1.9
v 1.1 1.5 -1.9
v 1.4 0.9 -1.9
v 1.4 1.3 -1.9
v 1.4 1.5 -1.9
v 1.4 1.9 -1.9
v 1.6 0.9 -1.9
v 1.6 1.3 -1.9
v 1.6 1.5 -1.9
v 1.6 1.9 -1.9
v 1.9 1.3 -1.9
v 1.9 1.5 -1.9
v 2 0.8 -1.9
v 2 2 -1.9
v 2.5 0.1 -1.9
v 2.5 2.3 -1.9
v -2.5 2.3 -2
v -2.5 2.4 -2
v -2 0.8 -2
v -2 2 -2
v -1.9 0.9 -2
v -1.9 1.9 -2
v -1.1 0.9 -2
v -1.1 1.9 -2
v -1 0.8 -2
v -1 2 -2
v -0.5 0.1 -2
v -0.5 2 -2
v -0.5 2.1 -2
v -0.4 0.2 -2
v -0.4 1.6 -2
v -0.4 1.7 -2
v -0.4 1.9 -2
v 0.2 0.8 -2
v 0.2 0.9 -2
v 0.3 0.8 -2
v 0.3 0.9 -2
v 0.4 0.2 -2
v 0.4 1.6 -2
v 0.4 1.7 -2
v 0.4 1.9 -2
v 0.5 0.1 -2
v 0.5 2 -2
v 0.5 2.1 -2
v 1 0.8 -2
v 1 2 -2
v 1.1 0.9 -2
v 1.1 1.9 -2
v 1.9 0.9 -2
v 1.9 1.9 -2
v 2 0.8 -2
v 2 2 -2
v 2.5 2.3 -2
v 2.5 2.4 -2
v -2.5 0 -2.5
v -2.5 0.1 -2.5
v 2.5 0 -2.5
v 2.5 0.1 -2.5
v -2.5 0 2.5
v 2.5 0 2.5
v -2.5 0 1.9
v 2.5 0 1.9
v -2.4 0 1.8
v 2.4 0 1.8
v -2.4 0 -1.8
v 2.4 0 -1.8
v -2.5 0 -1.9
v 2.5 0 -1.9
v -2.5 0 -2.5
v 2.5 0 -2.5
v 1.3 0.5 1.9
v 1.7 0.5 1.9
v 1.3 0.5 1.8
v 1.7 0.5 1.8
v -0.0999999 0.7 -1.8
v 0.1 0.7 -1.8
v -0.0999999 0.7 -1.9
v 0.1 0.7 -1.9
v 1.2 0.8 2
v 1.3 0.8 2
v 1.2 0.8 1.9
v 1.3 0.8 1.9
v -2 0.8 -1.9
v -1 0.8 -1.9
v 0.2 0.8 -1.9
v 0.3 0.8 -1.9
v 1 0.8 -1.9
v 2 0.8 -1.9
v -2 0.8 -2
v -1 0.8 -2
v 0.2 0.8 -2
v 0.3 0.8 -2
v 1 0.8 -2
v 2 0.8 -2
v -0.0999999 1.1 -1.8
v 0.1 1.1 -1.8
v -0.0999999 1.1 -1.9
v 0.1 1.1 -1.9
v -1.9 1.3 -1.8
v -1.6 1.3 -1.8
v -1.4 1.3 -1.8
v -1.1 1.3 -1.8
v 1.1 1.3 -1.8
v 1.4 1.3 -1.8
v 1.6 1.3 -1.8
v 1.9 1.3 -1.8
v -1.9 1.3 -1.9
v -1.6 1.3 -1.9
v -1.4 1.3 -1.9
v -1.1 1.3 -1.9
v 1.1 1.3 -1.9
v 1.4 1.3 -1.9
v 1.6 1.3 -1.9
v 1.9 1.3 -1.9
v 1.1 1.5 2
v 1.9 1.5 2
v 1.1 1.5 1.9
v 1.9 1.5 1.9
v -0.0999999 1.5 -1.8
v 0.1 1.5 -1.8
v -0.0999999 1.5 -1.9
v 0.1 1.5 -1.9
v -0.4 1.6 -1.9
v 0.4 1.6 -1.9
v -0.4 1.6 -2
v 0.4 1.6 -2
v 1.1 1.8 2
v 1.9 1.8 2
v 1.1 1.8 1.9
v 1.9 1.8 1.9
v -1.9 1.9 -1.8
v -1.6 1.9 -1.8
v -1.4 1.9 -1.8
v -1.1 1.9 -1.8
v 1.1 1.9 -1.8
v 1.4 1.9 -1.8
v 1.6 1.9 -1.8
v 1.9 1.9 -1.8
v -1.6 1.9 -1.9
v -1.4 1.9 -1.9
v -0.4 1.9 -1.9
v 0.4 1.9 -1.9
v 1.4 1.9 -1.9
v 1.6 1.9 -1.9
v -1.9 1.9 -2
v -1.1 1.9 -2
v -0.4 1.9 -2
v 0.4 1.9 -2
v 1.1 1.9 -2
v 1.9 1.9 -2
v -1.8 2 2.4
v -1.2 2 2.4
v -1.1 2 2.4
v -0.4 2 2.4
v -0.3 2 2.4
v 0.3 2 2.4
v -1.9 2 2.3
v -1.8 2 2.3
v -1.2 2 2.3
v -1.1 2 2.3
v -0.4 2 2.3
v -0.3 2 2.3
v 0.3 2 2.3
v 0.4 2 2.3
v -1.9 2 2
v -1.8 2 2
v 0.3 2 2
v 0.4 2 2
v -1.8 2.1 2.3
v 0.3 2.1 2.3
v -1.8 2.1 1.9
v 0.3 2.1 1.9
v -2.5 2.3 2
v -1.9 2.3 2
v 0.4 2.3 2
v 2.5 2.3 2
v -2.5 2.3 1.9
v -1.9 2.3 1.9
v 0.4 2.3 1.9
v 2.5 2.3 1.9
v -2.5 2.3 -1.9
v 2.5 2.3 -1.9
v -2.5 2.3 -2
v 2.5 2.3 -2
v -2.5 0.1 2.5
v 2.5 0.1 2.5
v -1.9 0.1 2.4
v 0.4 0.1 2.4
v 1 0.1 2
v 1.1 0.1 2
v 1.9 0.1 2
v 2 0.1 2
v -2.5 0.1 1.9
v -1.9 0.1 1.9
v 0.4 0.1 1.9
v 1 0.1 1.9
v 1.1 0.1 1.9
v 1.9 0.1 1.9
v 2 0.1 1.9
v 2.5 0.1 1.9
v -2.5 0.1 -1.9
v -0.5 0.1 -1.9
v 0.5 0.1 -1.9
v 2.5 0.1 -1.9
v -0.5 0.1 -2
v 0.5 0.1 -2
v -2.5 0.1 -2.5
v 2.5 0.1 -2.5
v -0.4 0.2 -1.9
v 0.4 0.2 -1.9
v -0.4 0.2 -2
v 0.4 0.2 -2
v 1.3 0.4 1.9
v 1.7 0.4 1.9
v 1.3 0.4 1.8
v 1.7 0.4 1.8
v -0.0999999 0.4 -1.8
v 0.1 0.4 -1.8
v -0.0999999 0.4 -1.9
v 0.1 0.4 -1.9
v -1.8 0.8 2.3
v 0.3 0.8 2.3
v -1.8 0.8 1.9
v 0.3 0.8 1.9
v -0.0999999 0.8 -1.8
v 0.1 0.8 -1.8
v -0.0999999 0.8 -1.9
v 0.1 0.8 -1.9
v -1.8 0.9 2.4
v -1.2 0.9 2.4
v -1.1 0.9 2.4
v -0.4 0.9 2.4
v -0.3 0.9 2.4
v 0.3 0.9 2.4
v -1.9 0.9 2.3
v -1.8 0.9 2.3
v -1.2 0.9 2.3
v -1.1 0.9 2.3
v -0.4 0.9 2.3
v -0.3 0.9 2.3
v 0.3 0.9 2.3
v 0.4 0.9 2.3
v -1.9 0.9 2
v -1.8 0.9 2
v 0.3 0.9 2
v 0.4 0.9 2
v 1.2 0.9 2
v 1.3 0.9 2
v 1.2 0.9 1.9
v 1.3 0.9 1.9
v -1.9 0.9 -1.8
v -1.6 0.9 -1.8
v -1.4 0.9 -1.8
v -1.1 0.9 -1.8
v 1.1 0.9 -1.8
v 1.4 0.9 -1.8
v 1.6 0.9 -1.8
v 1.9 0.9 -1.8
v -1.6 0.9 -1.9
v -1.4 0.9 -1.9
v 0.2 0.9 -1.9
v 0.3 0.9 -1.9
v 1.4 0.9 -1.9
v 1.6 0.9 -1.9
v -1.9 0.9 -2
v -1.1 0.9 -2
v 0.2 0.9 -2
v 0.3 0.9 -2
v 1.1 0.9 -2
v 1.9 0.9 -2
v -0.0999999 1.2 -1.8
v 0.1 1.2 -1.8
v -0.0999999 1.2 -1.9
v 0.1 1.2 -1.9
v -1.9 1.5 -1.8
v -1.6 1.5 -1.8
v -1.4 1.5 -1.8
v -1.1 1.5 -1.8
v 1.1 1.5 -1.8
v 1.4 1.5 -1.8
v 1.6 1.5 -1.8
v 1.9 1.5 -1.8
v -1.9 1.5 -1.9
v -1.6 1.5 -1.9
v -1.4 1.5 -1.9
v -1.1 1.5 -1.9
v 1.1 1.5 -1.9
v 1.4 1.5 -1.9
v 1.6 1.5 -1.9
v 1.9 1.5 -1.9
v 1.1 1.6 2
v 1.9 1.6 2
v 1.1 1.6 1.9
v 1.9 1.6 1.9
v -0.4 1.7 -1.9
v 0.4 1.7 -1.9
v -0.4 1.7 -2
v 0.4 1.7 -2
v 1 1.9 2
v 2 1.9 2
v 1 1.9 1.9
v 2 1.9 1.9
v -2 2 -1.9
v -1 2 -1.9
v 1 2 -1.9
v 2 2 -1.9
v -2 2 -2
v -1 2 -2
v 1 2 -2
v 2 2 -2
v -0.5 2.1 -1.9
v 0.5 2.1 -1.9
v -0.5 2.1 -2
v 0.5 2.1 -2
v -1.9 2.3 2.4
v 0.4 2.3 2.4
v -1.9 2.3 2
v 0.4 2.3 2
v -2.5 2.4 2
v 2.5 2.4 2
v -2.5 2.4 1.9
v 2.5 2.4 1.9
v -2.5 2.4 -1.9
v 2.5 2.4 -1.9
v -2.5 2.4 -2
v 2.5 2.4 -2

# faces
f 5/1/1 2/1/1 1/1/1
f 6/6/1 3/6/1 2/6/1
f 6/1/1 2/1/1 5/1/1
f 7/1/1 4/1/1 3/1/1
f 7/6/1 3/6/1 6/6/1
f 8/1/1 4/1/1 7/1/1
f 10/6/1 7/6/1 6/6/1
f 11/6/1 7/6/1 10/6/1
f 13/3/1 10/3/1 9/3/1
f 14/6/1 11/6/1 10/6/1
f 14/3/1 10/3/1 13/3/1
f 15/3/1 12/3/1 11/3/1
f 15/6/1 11/6/1 14/6/1
f 16/3/1 12/3/1 15/3/1
f 19/4/1 18/4/1 17/4/1
f 20/4/1 18/4/1 19/4/1
f 23/6/1 22/6/1 21/6/1
f 24/6/1 22/6/1 23/6/1
f 25/4/1 24/4/1 23/4/1
f 26/4/1 24/4/1 25/4/1
f 27/4/1 25/4/1 23/4/1
f 28/4/1 24/4/1 26/4/1
f 29/4/1 27/4/1 23/4/1
f 29/4/1 28/4/1 27/4/1
f 30/4/1 24/4/1 28/4/1
f 30/4/1 28/4/1 29/4/1
f 31/6/1 30/6/1 29/6/1
f 32/6/1 30/6/1 31/6/1
f 33/6/1 30/6/1 32/6/1
f 36/4/1 35/4/1 34/4/1
f 37/4/1 35/4/1 36/4/1
f 40/4/1 39/4/1 38/4/1
f 41/4/1 39/4/1 40/4/1
f 44/4/1 43/4/1 42/4/1
f 45/4/1 43/4/1 44/4/1
f 48/4/1 47/4/1 46/4/1
f 49/4/1 47/4/1 48/4/1
f 51/4/1 47/4/1 49/4/1
f 52/4/1 51/4/1 50/4/1
f 53/4/1 47/4/1 51/4/1
f 53/4/1 51/4/1 52/4/1
f 56/3/1 55/3/1 54/3/1
f 57/3/1 55/3/1 56/3/1
f 58/6/1 57/6/1 56/6/1
f 59/6/1 57/6/1 58/6/1
f 62/4/1 61/4/1 60/4/1
f 63/4/1 61/4/1 62/4/1
f 66/4/1 65/4/1 64/4/1
f 67/4/1 65/4/1 66/4/1
f 70/4/1 69/4/1 68/4/1
f 71/4/1 69/4/1 70/4/1
f 74/4/1 73/4/1 72/4/1
f 75/4/1 73/4/1 74/4/1
f 78/3/1 77/3/1 76/3/1
f 79/3/1 77/3/1 78/3/1
f 83/4/1 81/4/1 80/4/1
f 84/4/1 81/4/1 83/4/1
f 85/4/1 83/4/1 82/4/1
f 86/4/1 83/4/1 85/4/1
f 87/4/1 81/4/1 84/4/1
f 88/4/1 87/4/1 86/4/1
f 89/4/1 81/4/1 87/4/1
f 89/4/1 87/4/1 88/4/1
f 92/3/1 91/3/1 90/3/1
f 93/3/1 91/3/1 92/3/1
f 96/3/1 95/3/1 94/3/1
f 97/3/1 95/3/1 96/3/1
f 102/3/1 99/3/1 98/3/1
f 103/3/1 99/3/1 102/3/1
f 104/4/1 101/4/1 100/4/1
f 105/4/1 101/4/1 104/4/1
f 108/3/1 107/3/1 106/3/1
f 109/3/1 107/3/1 108/3/1
f 112/4/1 111/4/1 110/4/1
f 113/4/1 111/4/1 112/4/1
f 116/4/1 115/4/1 114/4/1
f 117/4/1 115/4/1 116/4/1
f 120/4/1 119/4/1 118/4/1
f 121/4/1 119/4/1 120/4/1
f 126/4/1 125/4/1 124/4/1
f 127/4/1 125/4/1 126/4/1
f 128/3/1 123/3/1 122/3/1
f 129/3/1 123/3/1 128/3/1
f 131/4/1 125/4/1 127/4/1
f 134/3/1 133/3/1 132/3/1
f 135/3/1 133/3/1 134/3/1
f 136/4/1 131/4/1 130/4/1
f 137/4/1 125/4/1 131/4/1
f 137/4/1 131/4/1 136/4/1
f 138/4/2 139/4/2 140/4/2
f 140/4/2 139/4/2 141/4/2
f 141/4/2 139/4/2 143/4/2
f 142/4/2 143/4/2 144/4/2
f 143/4/2 139/4/2 145/4/2
f 144/4/2 143/4/2 145/4/2
f 146/4/2 147/4/2 149/4/2
f 149/4/2 147/4/2 150/4/2
f 148/4/2 149/4/2 151/4/2
f 151/4/2 149/4/2 152/4/2
f 150/4/2 147/4/2 153/4/2
f 152/4/2 153/4/2 154/4/2
f 153/4/2 147/4/2 155/4/2
f 154/4/2 153/4/2 155/4/2
f 156/4/2 157/4/2 158/4/2
f 158/4/2 157/4/2 159/4/2
f 160/4/2 161/4/2 162/4/2
f 162/4/2 161/4/2 163/4/2
f 164/4/2 165/4/2 166/4/2
f 166/4/2 165/4/2 167/4/2
f 168/4/2 169/4/2 170/4/2
f 170/4/2 169/4/2 171/4/2
f 172/3/2 173/3/2 174/3/2
f 174/3/2 173/3/2 175/3/2
f 176/3/2 177/3/2 178/3/2
f 178/3/2 177/3/2 179/3/2
f 180/4/2 181/4/2 182/4/2
f 182/4/2 181/4/2 183/4/2
f 184/4/2 185/4/2 186/4/2
f 186/4/2 185/4/2 187/4/2
f 188/4/2 189/4/2 190/4/2
f 190/4/2 189/4/2 191/4/2
f 192/4/2 193/4/2 194/4/2
f 194/4/2 193/4/2 195/4/2
f 196/3/2 197/3/2 198/3/2
f 198/3/2 197/3/2 199/3/2
f 200/6/2 201/6/2 202/6/2
f 202/6/2 201/6/2 203/6/2
f 202/4/2 203/4/2 204/4/2
f 204/4/2 203/4/2 205/4/2
f 202/4/2 204/4/2 206/4/2
f 205/4/2 203/4/2 207/4/2
f 202/4/2 206/4/2 208/4/2
f 206/4/2 207/4/2 208/4/2
f 207/4/2 203/4/2 209/4/2
f 208/4/2 207/4/2 209/4/2
f 208/6/2 209/6/2 210/6/2
f 210/6/2 209/6/2 211/6/2
f 211/6/2 209/6/2 212/6/2
f 213/3/2 214/3/2 215/3/2
f 215/3/2 214/3/2 216/3/2
f 215/6/2 216/6/2 217/6/2
f 217/6/2 216/6/2 218/6/2
f 221/4/2 222/4/2 223/4/2
f 223/4/2 222/4/2 224/4/2
f 219/3/2 220/3/2 225/3/2
f 225/3/2 220/3/2 226/3/2
f 224/4/2 222/4/2 228/4/2
f 229/3/2 230/3/2 231/3/2
f 231/3/2 230/3/2 232/3/2
f 227/4/2 228/4/2 233/4/2
f 228/4/2 222/4/2 234/4/2
f 233/4/2 228/4/2 234/4/2
f 235/4/2 236/4/2 237/4/2
f 237/4/2 236/4/2 238/4/2
f 239/3/2 240/3/2 241/3/2
f 241/3/2 240/3/2 242/3/2
f 243/4/2 244/4/2 245/4/2
f 245/4/2 244/4/2 246/4/2
f 247/4/2 248/4/2 249/4/2
f 249/4/2 248/4/2 250/4/2
f 251/3/2 252/3/2 255/3/2
f 255/3/2 252/3/2 256/3/2
f 253/4/2 254/4/2 257/4/2
f 257/4/2 254/4/2 258/4/2
f 259/1/2 260/1/2 263/1/2
f 260/6/2 261/6/2 264/6/2
f 263/1/2 260/1/2 264/1/2
f 261/1/2 262/1/2 265/1/2
f 264/6/2 261/6/2 265/6/2
f 265/1/2 262/1/2 266/1/2
f 264/6/2 265/6/2 268/6/2
f 268/6/2 265/6/2 269/6/2
f 267/3/2 268/3/2 271/3/2
f 268/6/2 269/6/2 272/6/2
f 271/3/2 268/3/2 272/3/2
f 269/3/2 270/3/2 273/3/2
f 272/6/2 269/6/2 273/6/2
f 273/3/2 270/3/2 274/3/2
f 277/1/3 276/1/3 275/1/3
f 278/1/3 276/1/3 277/1/3
f 283/4/3 281/4/3 280/4/3
f 284/4/3 281/4/3 283/4/3
f 285/4/3 283/4/3 280/4/3
f 286/4/3 281/4/3 284/4/3
f 287/4/3 285/4/3 280/4/3
f 287/4/3 286/4/3 285/4/3
f 288/4/3 281/4/3 286/4/3
f 288/4/3 286/4/3 287/4/3
f 289/4/3 287/4/3 280/4/3
f 290/4/3 281/4/3 288/4/3
f 291/4/3 289/4/3 280/4/3
f 291/4/3 290/4/3 289/4/3
f 292/4/3 281/4/3 290/4/3
f 292/4/3 290/4/3 291/4/3
f 293/4/3 291/4/3 280/4/3
f 294/4/3 281/4/3 292/4/3
f 295/6/3 280/6/3 279/6/3
f 296/4/3 294/4/3 293/4/3
f 296/6/3 280/6/3 295/6/3
f 296/4/3 293/4/3 280/4/3
f 297/6/3 282/6/3 281/6/3
f 297/4/3 294/4/3 296/4/3
f 297/4/3 281/4/3 294/4/3
f 298/6/3 282/6/3 297/6/3
f 303/3/3 300/3/3 299/3/3
f 304/4/3 302/4/3 301/4/3
f 305/4/3 302/4/3 304/4/3
f 308/4/3 307/4/3 306/4/3
f 309/4/3 307/4/3 308/4/3
f 310/3/3 300/3/3 303/3/3
f 313/3/3 312/3/3 311/3/3
f 314/3/3 312/3/3 313/3/3
f 315/3/3 312/3/3 314/3/3
f 316/3/3 312/3/3 315/3/3
f 319/3/3 318/3/3 317/3/3
f 320/3/3 318/3/3 319/3/3
f 322/3/3 315/3/3 314/3/3
f 323/3/3 315/3/3 322/3/3
f 324/3/3 312/3/3 316/3/3
f 325/3/3 323/3/3 322/3/3
f 325/3/3 324/3/3 323/3/3
f 325/3/3 322/3/3 321/3/3
f 326/3/3 312/3/3 324/3/3
f 326/3/3 324/3/3 325/3/3
f 327/3/3 300/3/3 310/3/3
f 328/3/3 300/3/3 327/3/3
f 331/6/3 330/6/3 329/6/3
f 332/6/3 330/6/3 331/6/3
f 333/6/3 330/6/3 332/6/3
f 334/6/3 330/6/3 333/6/3
f 337/5/3 336/5/3 335/5/3
f 338/5/3 336/5/3 337/5/3
f 343/6/3 341/6/3 340/6/3
f 343/6/3 342/6/3 341/6/3
f 343/6/3 340/6/3 339/6/3
f 344/6/3 342/6/3 343/6/3
f 349/4/3 346/4/3 345/4/3
f 350/4/3 346/4/3 349/4/3
f 351/4/3 349/4/3 345/4/3
f 352/4/3 349/4/3 351/4/3
f 353/4/3 349/4/3 352/4/3
f 354/4/3 346/4/3 350/4/3
f 355/4/3 351/4/3 345/4/3
f 356/4/3 353/4/3 352/4/3
f 356/4/3 354/4/3 353/4/3
f 357/4/3 355/4/3 345/4/3
f 357/4/3 356/4/3 355/4/3
f 358/4/3 354/4/3 356/4/3
f 358/4/3 356/4/3 357/4/3
f 358/4/3 346/4/3 354/4/3
f 359/4/3 348/4/3 347/4/3
f 360/4/3 348/4/3 359/4/3
f 362/6/3 342/6/3 344/6/3
f 363/6/3 362/6/3 361/6/3
f 364/6/3 342/6/3 362/6/3
f 364/6/3 362/6/3 363/6/3
f 367/3/3 366/3/3 365/3/3
f 368/3/3 366/3/3 367/3/3
f 369/4/4 370/4/4 372/4/4
f 372/4/4 370/4/4 373/4/4
f 371/4/4 372/4/4 375/4/4
f 373/4/4 374/4/4 376/4/4
f 371/4/4 375/4/4 377/4/4
f 375/4/4 376/4/4 377/4/4
f 376/4/4 374/4/4 378/4/4
f 377/4/4 376/4/4 378/4/4
f 371/4/4 377/4/4 379/4/4
f 378/4/4 374/4/4 380/4/4
f 371/4/4 379/4/4 381/4/4
f 379/4/4 380/4/4 381/4/4
f 380/4/4 374/4/4 382/4/4
f 381/4/4 380/4/4 382/4/4
f 371/4/4 381/4/4 383/4/4
f 383/4/4 381/4/4 384/4/4
f 382/4/4 374/4/4 385/4/4
f 385/4/4 374/4/4 386/4/4
f 384/4/4 385/4/4 387/4/4
f 387/4/4 385/4/4 388/4/4
f 389/5/4 390/5/4 393/5/4
f 393/5/4 390/5/4 394/5/4
f 391/5/4 392/5/4 395/5/4
f 395/5/4 392/5/4 396/5/4
f 397/5/4 398/5/4 401/5/4
f 401/5/4 398/5/4 402/5/4
f 399/5/4 400/5/4 403/5/4
f 403/5/4 400/5/4 404/5/4
f 405/5/4 406/5/4 411/5/4
f 411/5/4 406/5/4 412/5/4
f 407/5/4 408/5/4 413/5/4
f 413/5/4 408/5/4 414/5/4
f 409/5/4 410/5/4 415/5/4
f 415/5/4 410/5/4 416/5/4
f 417/5/4 418/5/4 421/5/4
f 421/5/4 418/5/4 422/5/4
f 419/5/4 420/5/4 423/5/4
f 423/5/4 420/5/4 424/5/4
f 425/5/4 426/5/4 429/5/4
f 429/5/4 426/5/4 430/5/4
f 427/5/4 428/5/4 431/5/4
f 431/5/4 428/5/4 432/5/4
f 433/6/4 434/6/4 435/6/4
f 435/6/4 434/6/4 436/6/4
f 437/4/4 438/4/4 440/4/4
f 440/4/4 438/4/4 441/4/4
f 439/4/4 440/4/4 443/4/4
f 441/4/4 442/4/4 443/4/4
f 440/4/4 441/4/4 443/4/4
f 443/4/4 442/4/4 444/4/4
f 444/4/4 442/4/4 445/4/4
f 445/4/4 442/4/4 446/4/4
f 444/4/4 445/4/4 447/4/4
f 447/4/4 445/4/4 448/4/4
f 433/6/4 435/6/4 449/6/4
f 436/6/4 434/6/4 450/6/4
f 433/6/4 449/6/4 451/6/4
f 449/6/4 450/6/4 451/6/4
f 450/6/4 434/6/4 452/6/4
f 451/6/4 450/6/4 452/6/4
f 452/6/4 434/6/4 453/6/4
f 454/4/4 455/4/4 458/4/4
f 458/4/4 455/4/4 459/4/4
f 459/4/4 455/4/4 460/4/4
f 460/4/4 455/4/4 461/4/4
f 461/4/4 455/4/4 462/4/4
f 462/4/4 455/4/4 463/4/4
f 454/4/4 458/4/4 464/4/4
f 459/4/4 460/4/4 465/4/4
f 465/4/4 460/4/4 466/4/4
f 461/4/4 462/4/4 467/4/4
f 467/4/4 462/4/4 468/4/4
f 463/4/4 455/4/4 469/4/4
f 467/4/4 468/4/4 470/4/4
f 468/4/4 469/4/4 470/4/4
f 465/4/4 466/4/4 470/4/4
f 464/4/4 465/4/4 470/4/4
f 466/4/4 467/4/4 470/4/4
f 470/4/4 469/4/4 471/4/4
f 464/4/4 470/4/4 472/4/4
f 471/4/4 469/4/4 473/4/4
f 454/4/4 464/4/4 474/4/4
f 472/4/4 473/4/4 474/4/4
f 464/4/4 472/4/4 474/4/4
f 469/4/4 455/4/4 475/4/4
f 474/4/4 473/4/4 475/4/4
f 473/4/4 469/4/4 475/4/4
f 456/4/4 457/4/4 476/4/4
f 476/4/4 457/4/4 477/4/4
f 453/6/4 434/6/4 480/6/4
f 478/6/4 479/6/4 481/6/4
f 479/6/4 480/6/4 481/6/4
f 481/6/4 480/6/4 482/6/4
f 483/4/4 484/4/4 486/4/4
f 486/4/4 484/4/4 487/4/4
f 485/4/4 486/4/4 489/4/4
f 487/4/4 488/4/4 489/4/4
f 486/4/4 487/4/4 489/4/4
f 489/4/4 488/4/4 490/4/4
f 490/4/4 488/4/4 491/4/4
f 491/4/4 488/4/4 492/4/4
f 490/4/4 491/4/4 493/4/4
f 493/4/4 491/4/4 494/4/4
f 478/6/4 481/6/4 495/6/4
f 482/6/4 480/6/4 496/6/4
f 478/6/4 495/6/4 497/6/4
f 495/6/4 496/6/4 497/6/4
f 480/6/4 434/6/4 498/6/4
f 497/6/4 496/6/4 498/6/4
f 496/6/4 480/6/4 498/6/4
f 501/4/4 502/4/4 503/4/4
f 503/4/4 502/4/4 504/4/4
f 501/4/4 503/4/4 505/4/4
f 504/4/4 502/4/4 506/4/4
f 501/4/4 505/4/4 507/4/4
f 505/4/4 506/4/4 507/4/4
f 506/4/4 502/4/4 508/4/4
f 507/4/4 506/4/4 508/4/4
f 509/3/4 510/3/4 512/3/4
f 512/3/4 510/3/4 513/3/4
f 513/3/4 510/3/4 514/3/4
f 514/3/4 510/3/4 515/3/4
f 516/3/4 517/3/4 518/3/4
f 518/3/4 517/3/4 519/3/4
f 509/3/4 512/3/4 520/3/4
f 513/3/4 514/3/4 521/3/4
f 521/3/4 514/3/4 522/3/4
f 515/3/4 510/3/4 523/3/4
f 509/3/4 520/3/4 524/3/4
f 522/3/4 523/3/4 524/3/4
f 521/3/4 522/3/4 524/3/4
f 520/3/4 521/3/4 524/3/4
f 510/6/4 511/6/4 525/6/4
f 524/3/4 523/3/4 525/3/4
f 523/3/4 510/3/4 525/3/4
f 525/6/4 511/6/4 526/6/4
f 527/4/4 528/4/4 529/4/4
f 529/4/4 528/4/4 530/4/4
f 527/4/4 529/4/4 531/4/4
f 530/4/4 528/4/4 532/4/4
f 527/4/4 531/4/4 533/4/4
f 531/4/4 532/4/4 533/4/4
f 532/4/4 528/4/4 534/4/4
f 533/4/4 532/4/4 534/4/4
f 499/3/4 500/3/4 535/3/4
f 535/3/4 500/3/4 536/3/4
f 537/1/4 538/1/4 539/1/4
f 539/1/4 538/1/4 540/1/4
f 543/1/5 542/1/5 541/1/5
f 544/1/5 542/1/5 543/1/5
f 545/6/5 544/6/5 543/6/5
f 546/6/5 544/6/5 545/6/5
f 547/6/5 545/6/5 543/6/5
f 547/1/5 546/1/5 545/1/5
f 548/6/5 544/6/5 546/6/5
f 548/1/5 546/1/5 547/1/5
f 549/6/5 547/6/5 543/6/5
f 549/6/5 548/6/5 547/6/5
f 550/6/5 544/6/5 548/6/5
f 550/6/5 548/6/5 549/6/5
f 551/1/5 550/1/5 549/1/5
f 552/1/5 550/1/5 551/1/5
f 555/4/5 554/4/5 553/4/5
f 556/4/5 554/4/5 555/4/5
f 559/4/5 558/4/5 557/4/5
f 560/4/5 558/4/5 559/4/5
f 563/3/5 562/3/5 561/3/5
f 564/3/5 562/3/5 563/3/5
f 571/4/5 566/4/5 565/4/5
f 572/4/5 566/4/5 571/4/5
f 573/3/5 568/3/5 567/3/5
f 574/3/5 568/3/5 573/3/5
f 575/4/5 570/4/5 569/4/5
f 576/4/5 570/4/5 575/4/5
f 579/4/5 578/4/5 577/4/5
f 580/4/5 578/4/5 579/4/5
f 589/4/5 582/4/5 581/4/5
f 590/4/5 582/4/5 589/4/5
f 591/4/5 584/4/5 583/4/5
f 592/4/5 584/4/5 591/4/5
f 593/4/5 586/4/5 585/4/5
f 594/4/5 586/4/5 593/4/5
f 595/4/5 588/4/5 587/4/5
f 596/4/5 588/4/5 595/4/5
f 599/3/5 598/3/5 597/3/5
f 600/3/5 598/3/5 599/3/5
f 603/4/5 602/4/5 601/4/5
f 604/4/5 602/4/5 603/4/5
f 607/3/5 606/3/5 605/3/5
f 608/3/5 606/3/5 607/3/5
f 611/3/5 610/3/5 609/3/5
f 612/3/5 610/3/5 611/3/5
f 621/4/5 614/4/5 613/4/5
f 622/4/5 616/4/5 615/4/5
f 625/4/5 618/4/5 617/4/5
f 626/4/5 620/4/5 619/4/5
f 627/4/5 621/4/5 613/4/5
f 627/4/5 622/4/5 621/4/5
f 628/4/5 616/4/5 622/4/5
f 628/4/5 622/4/5 627/4/5
f 629/3/5 624/3/5 623/3/5
f 630/3/5 624/3/5 629/3/5
f 631/4/5 625/4/5 617/4/5
f 631/4/5 626/4/5 625/4/5
f 632/4/5 620/4/5 626/4/5
f 632/4/5 626/4/5 631/4/5
f 640/4/5 634/4/5 633/4/5
f 641/4/5 634/4/5 640/4/5
f 642/4/5 636/4/5 635/4/5
f 643/4/5 636/4/5 642/4/5
f 644/4/5 638/4/5 637/4/5
f 645/4/5 638/4/5 644/4/5
f 647/4/5 640/4/5 639/4/5
f 648/4/5 640/4/5 647/4/5
f 649/4/5 646/4/5 645/4/5
f 650/4/5 646/4/5 649/4/5
f 653/6/5 652/6/5 651/6/5
f 654/6/5 652/6/5 653/6/5
f 659/3/5 656/3/5 655/3/5
f 660/3/5 656/3/5 659/3/5
f 661/3/5 658/3/5 657/3/5
f 662/3/5 658/3/5 661/3/5
f 665/3/5 664/3/5 663/3/5
f 666/3/5 664/3/5 665/3/5
f 667/1/6 668/1/6 669/1/6
f 669/1/6 668/1/6 670/1/6
f 670/1/6 668/1/6 671/1/6
f 671/1/6 668/1/6 672/1/6
f 672/1/6 668/1/6 673/1/6
f 673/1/6 668/1/6 674/1/6
f 667/1/6 669/1/6 675/1/6
f 675/1/6 669/1/6 676/1/6
f 670/1/6 671/1/6 677/1/6
f 677/1/6 671/1/6 678/1/6
f 672/1/6 673/1/6 679/1/6
f 679/1/6 673/1/6 680/1/6
f 674/1/6 668/1/6 681/1/6
f 681/1/6 668/1/6 682/1/6
f 683/1/6 684/1/6 687/1/6
f 685/1/6 686/1/6 688/1/6
f 683/1/6 687/1/6 689/1/6
f 687/1/6 688/1/6 689/1/6
f 688/1/6 686/1/6 690/1/6
f 689/1/6 688/1/6 690/1/6
f 691/3/6 692/3/6 693/3/6
f 693/3/6 692/3/6 694/3/6
f 695/4/6 696/4/6 697/4/6
f 697/4/6 696/4/6 698/4/6
f 699/4/6 700/4/6 701/4/6
f 701/4/6 700/4/6 702/4/6
f 703/6/6 704/6/6 705/6/6
f 705/6/6 704/6/6 706/6/6
f 707/4/6 708/4/6 709/4/6
f 709/4/6 708/4/6 710/4/6
f 711/4/6 712/4/6 718/4/6
f 718/4/6 712/4/6 719/4/6
f 713/4/6 714/4/6 720/4/6
f 720/4/6 714/4/6 721/4/6
f 715/4/6 716/4/6 722/4/6
f 722/4/6 716/4/6 723/4/6
f 717/4/6 718/4/6 725/4/6
f 725/4/6 718/4/6 726/4/6
f 723/4/6 724/4/6 727/4/6
f 727/4/6 724/4/6 728/4/6
f 729/3/6 730/3/6 731/3/6
f 731/3/6 730/3/6 732/3/6
f 733/4/6 734/4/6 741/4/6
f 735/4/6 736/4/6 742/4/6
f 737/4/6 738/4/6 745/4/6
f 739/4/6 740/4/6 746/4/6
f 733/4/6 741/4/6 747/4/6
f 741/4/6 742/4/6 747/4/6
f 742/4/6 736/4/6 748/4/6
f 747/4/6 742/4/6 748/4/6
f 743/3/6 744/3/6 749/3/6
f 749/3/6 744/3/6 750/3/6
f 745/4/6 746/4/6 751/4/6
f 737/4/6 745/4/6 751/4/6
f 746/4/6 740/4/6 752/4/6
f 751/4/6 746/4/6 752/4/6
f 753/4/6 754/4/6 755/4/6
f 755/4/6 754/4/6 756/4/6
f 757/4/6 758/4/6 765/4/6
f 765/4/6 758/4/6 766/4/6
f 759/4/6 760/4/6 767/4/6
f 767/4/6 760/4/6 768/4/6
f 761/4/6 762/4/6 769/4/6
f 769/4/6 762/4/6 770/4/6
f 763/4/6 764/4/6 771/4/6
f 771/4/6 764/4/6 772/4/6
f 773/3/6 774/3/6 775/3/6
f 775/3/6 774/3/6 776/3/6
f 777/3/6 778/3/6 779/3/6
f 779/3/6 778/3/6 780/3/6
f 781/3/6 782/3/6 783/3/6
f 783/3/6 782/3/6 784/3/6
f 785/4/6 786/4/6 789/4/6
f 789/4/6 786/4/6 790/4/6
f 787/4/6 788/4/6 791/4/6
f 791/4/6 788/4/6 792/4/6
f 793/6/6 794/6/6 795/6/6
f 795/6/6 794/6/6 796/6/6
f 797/6/6 798/6/6 799/6/6
f 799/6/6 798/6/6 800/6/6
f 801/3/6 802/3/6 803/3/6
f 803/3/6 802/3/6 804/3/6
f 803/6/6 804/6/6 805/6/6
f 805/6/6 804/6/6 806/6/6
f 805/3/6 806/3/6 807/3/6
f 807/3/6 806/3/6 808/3/6
