# MagicaVoxel @ Ephtracy

# group
o 

# material
mtllib Purple_BlockHouseF1_03.mtl
usemtl palette

# normals
vn -1 0 0
vn 1 0 0
vn 0 0 1
vn 0 0 -1
vn 0 -1 0
vn 0 1 0

# texcoords
vt 0.00195313 0.5
vt 0.00976563 0.5
vt 0.0136719 0.5
vt 0.0253906 0.5
vt 0.0292969 0.5
vt 0.0566406 0.5

# verts
v -2.5 0 2.5
v -2.5 0 1.9
v -2.5 0 -1.9
v -2.5 0 -2.5
v -2.5 0.1 2.5
v -2.5 0.1 1.9
v -2.5 0.1 -1.9
v -2.5 0.1 -2.5
v -2.5 2.3 2
v -2.5 2.3 1.9
v -2.5 2.3 -1.9
v -2.5 2.3 -2
v -2.5 2.4 2
v -2.5 2.4 1.9
v -2.5 2.4 -1.9
v -2.5 2.4 -2
v -1.4 0.1 2
v -1.4 0.1 1.9
v -1.4 1.8 2.2
v -1.4 1.8 2
v -1.4 1.9 2.2
v -1.4 1.9 1.9
v -1.3 0.1 -1.9
v -1.3 0.1 -2
v -1.3 1.9 2.1
v -1.3 1.9 1.9
v -1.3 1.9 -2
v -1.3 1.9 -2.2
v -1.3 2 2.1
v -1.3 2 1.9
v -1.3 2 -2
v -1.3 2 -2.2
v -1.3 2.1 -1.9
v -1.3 2.1 -2
v -1.2 0.8 2
v -1.2 0.8 1.9
v -1.2 0.9 2
v -1.2 0.9 1.9
v -1.2 2 -2
v -1.2 2 -2.1
v -1.2 2.1 -2
v -1.2 2.1 -2.1
v -1 0.5 -1.8
v -1 0.5 -1.9
v -1 1.4 -1.8
v -1 1.4 -1.9
v -0.7 0.4 1.9
v -0.7 0.4 1.8
v -0.7 0.5 1.9
v -0.7 0.5 1.8
v -0.6 0.8 -1.9
v -0.6 0.8 -2
v -0.6 0.9 -1.9
v -0.6 0.9 -2
v -0.5 0.1 2
v -0.5 0.1 1.9
v -0.5 1.5 2
v -0.5 1.5 1.9
v -0.5 1.6 2
v -0.5 1.6 1.9
v -0.5 1.8 2
v -0.5 1.8 1.9
v -0.4 0.2 -1.9
v -0.4 0.2 -2
v -0.4 1.6 -1.9
v -0.4 1.6 -2
v -0.4 1.7 -1.9
v -0.4 1.7 -2
v -0.4 1.9 -1.9
v -0.4 1.9 -2
v -0.0999999 0.2 2
v -0.0999999 0.2 1.9
v -0.0999999 1.8 2
v -0.0999999 1.8 1.9
v 1.1 0.2 -1.8
v 1.1 0.2 -1.9
v 1.1 1.2 -1.8
v 1.1 1.2 -1.9
v 1.1 1.3 -1.8
v 1.1 1.3 -1.9
v 1.1 2 -1.8
v 1.1 2 -1.9
v 1.6 0.8 1.9
v 1.6 0.8 1.7
v 1.6 1.4 1.9
v 1.6 1.4 1.8
v 1.6 1.5 1.9
v 1.6 1.5 1.8
v 1.6 1.8 1.9
v 1.6 1.8 1.7
v -1.3 0.1 2
v -1.3 0.1 1.9
v -1.3 1.5 2
v -1.3 1.5 1.9
v -1.3 1.6 2
v -1.3 1.6 1.9
v -1.3 1.8 2
v -1.3 1.8 1.9
v -1.2 0.2 -1.9
v -1.2 0.2 -2
v -1.2 1.6 -1.9
v -1.2 1.6 -2
v -1.2 1.7 -1.9
v -1.2 1.7 -2
v -1.2 1.9 -1.9
v -1.2 1.9 -2
v -1.1 0.4 1.9
v -1.1 0.4 1.8
v -1.1 0.5 1.9
v -1.1 0.5 1.8
v -1.1 0.5 -1.8
v -1.1 0.5 -1.9
v -1.1 0.8 2
v -1.1 0.8 1.9
v -1.1 0.9 2
v -1.1 0.9 1.9
v -1.1 1.4 -1.8
v -1.1 1.4 -1.9
v -0.5 0.8 -1.9
v -0.5 0.8 -2
v -0.5 0.9 -1.9
v -0.5 0.9 -2
v -0.4 0.2 2
v -0.4 0.2 1.9
v -0.4 1.8 2
v -0.4 1.8 1.9
v -0.4 2 -2
v -0.4 2 -2.1
v -0.4 2.1 -2
v -0.4 2.1 -2.1
v -0.3 0.1 -1.9
v -0.3 0.1 -2
v -0.3 1.9 -2
v -0.3 1.9 -2.2
v -0.3 2 -2
v -0.3 2 -2.2
v -0.3 2.1 -1.9
v -0.3 2.1 -2
v -0.0999999 1.9 2.1
v -0.0999999 1.9 1.9
v -0.0999999 2 2.1
v -0.0999999 2 1.9
v 2.38419e-07 0.1 2
v 2.38419e-07 0.1 1.9
v 2.38419e-07 1.8 2.2
v 2.38419e-07 1.8 2
v 2.38419e-07 1.9 2.2
v 2.38419e-07 1.9 1.9
v 0.3 0.2 -1.8
v 0.3 0.2 -1.9
v 0.3 1.2 -1.8
v 0.3 1.2 -1.9
v 0.3 1.3 -1.8
v 0.3 1.3 -1.9
v 0.3 2 -1.8
v 0.3 2 -1.9
v 0.6 0.8 1.9
v 0.6 0.8 1.7
v 0.6 1.4 1.9
v 0.6 1.4 1.8
v 0.6 1.5 1.9
v 0.6 1.5 1.8
v 0.6 1.8 1.9
v 0.6 1.8 1.7
v 2.5 0 2.5
v 2.5 0 1.9
v 2.5 0 -1.9
v 2.5 0 -2.5
v 2.5 0.1 2.5
v 2.5 0.1 1.9
v 2.5 0.1 -1.9
v 2.5 0.1 -2.5
v 2.5 2.3 2
v 2.5 2.3 1.9
v 2.5 2.3 -1.9
v 2.5 2.3 -2
v 2.5 2.4 2
v 2.5 2.4 1.9
v 2.5 2.4 -1.9
v 2.5 2.4 -2
v -2.5 0 2.5
v -2.5 0.1 2.5
v 2.5 0 2.5
v 2.5 0.1 2.5
v -1.4 1.8 2.2
v -1.4 1.9 2.2
v 2.38419e-07 1.8 2.2
v 2.38419e-07 1.9 2.2
v -1.3 1.9 2.1
v -1.3 2 2.1
v -0.0999999 1.9 2.1
v -0.0999999 2 2.1
v -2.5 2.3 2
v -2.5 2.4 2
v -1.4 0.1 2
v -1.4 1.8 2
v -1.3 0.1 2
v -1.3 1.5 2
v -1.3 1.6 2
v -1.3 1.8 2
v -1.2 0.8 2
v -1.2 0.9 2
v -1.1 0.8 2
v -1.1 0.9 2
v -0.5 0.1 2
v -0.5 1.5 2
v -0.5 1.6 2
v -0.5 1.8 2
v -0.4 0.2 2
v -0.4 1.8 2
v -0.0999999 0.2 2
v -0.0999999 1.8 2
v 2.38419e-07 0.1 2
v 2.38419e-07 1.8 2
v 2.5 2.3 2
v 2.5 2.4 2
v -2.5 0.1 1.9
v -2.5 2.3 1.9
v -1.4 0.1 1.9
v -1.4 1.9 1.9
v -1.3 0.1 1.9
v -1.3 1.5 1.9
v -1.3 1.6 1.9
v -1.3 1.8 1.9
v -1.3 1.9 1.9
v -1.3 2 1.9
v -1.2 0.8 1.9
v -1.2 0.9 1.9
v -1.1 0.4 1.9
v -1.1 0.5 1.9
v -1.1 0.8 1.9
v -1.1 0.9 1.9
v -0.7 0.4 1.9
v -0.7 0.5 1.9
v -0.5 0.1 1.9
v -0.5 1.5 1.9
v -0.5 1.6 1.9
v -0.5 1.8 1.9
v -0.4 0.2 1.9
v -0.4 1.8 1.9
v -0.0999999 0.2 1.9
v -0.0999999 1.8 1.9
v -0.0999999 1.9 1.9
v -0.0999999 2 1.9
v 2.38419e-07 0.1 1.9
v 2.38419e-07 1.9 1.9
v 0.5 0.7 1.9
v 0.5 1.9 1.9
v 0.6 0.8 1.9
v 0.6 1.4 1.9
v 0.6 1.5 1.9
v 0.6 1.8 1.9
v 1.6 0.8 1.9
v 1.6 1.4 1.9
v 1.6 1.5 1.9
v 1.6 1.8 1.9
v 1.7 0.7 1.9
v 1.7 1.9 1.9
v 2.5 0.1 1.9
v 2.5 2.3 1.9
v -1.1 0.4 1.8
v -1.1 0.5 1.8
v -0.7 0.4 1.8
v -0.7 0.5 1.8
v 0.6 0.8 1.7
v 0.6 1.8 1.7
v 1.6 0.8 1.7
v 1.6 1.8 1.7
v 0.6 1.4 1.8
v 0.6 1.5 1.8
v 1.6 1.4 1.8
v 1.6 1.5 1.8
v -1.1 0.5 -1.8
v -1.1 1.4 -1.8
v -1 0.5 -1.8
v -1 1.4 -1.8
v 0.3 0.2 -1.8
v 0.3 1.2 -1.8
v 0.3 1.3 -1.8
v 0.3 2 -1.8
v 1.1 0.2 -1.8
v 1.1 1.2 -1.8
v 1.1 1.3 -1.8
v 1.1 2 -1.8
v -2.5 0.1 -1.9
v -2.5 2.3 -1.9
v -1.3 0.1 -1.9
v -1.3 2.1 -1.9
v -1.2 0.2 -1.9
v -1.2 1.6 -1.9
v -1.2 1.7 -1.9
v -1.2 1.9 -1.9
v -1.1 0.5 -1.9
v -1.1 1.4 -1.9
v -1 0.5 -1.9
v -1 1.4 -1.9
v -0.6 0.8 -1.9
v -0.6 0.9 -1.9
v -0.5 0.8 -1.9
v -0.5 0.9 -1.9
v -0.4 0.2 -1.9
v -0.4 1.6 -1.9
v -0.4 1.7 -1.9
v -0.4 1.9 -1.9
v -0.3 0.1 -1.9
v -0.3 2.1 -1.9
v 0.2 0.1 -1.9
v 0.2 2.1 -1.9
v 0.3 0.2 -1.9
v 0.3 1.2 -1.9
v 0.3 1.3 -1.9
v 0.3 2 -1.9
v 1.1 0.2 -1.9
v 1.1 1.2 -1.9
v 1.1 1.3 -1.9
v 1.1 2 -1.9
v 1.2 0.1 -1.9
v 1.2 2.1 -1.9
v 2.5 0.1 -1.9
v 2.5 2.3 -1.9
v -2.5 2.3 -2
v -2.5 2.4 -2
v -1.3 0.1 -2
v -1.3 1.9 -2
v -1.3 2 -2
v -1.3 2.1 -2
v -1.2 0.2 -2
v -1.2 1.6 -2
v -1.2 1.7 -2
v -1.2 1.9 -2
v -1.2 2 -2
v -1.2 2.1 -2
v -0.6 0.8 -2
v -0.6 0.9 -2
v -0.5 0.8 -2
v -0.5 0.9 -2
v -0.4 0.2 -2
v -0.4 1.6 -2
v -0.4 1.7 -2
v -0.4 1.9 -2
v -0.4 2 -2
v -0.4 2.1 -2
v -0.3 0.1 -2
v -0.3 1.9 -2
v -0.3 2 -2
v -0.3 2.1 -2
v 2.5 2.3 -2
v 2.5 2.4 -2
v -1.2 2 -2.1
v -1.2 2.1 -2.1
v -0.4 2 -2.1
v -0.4 2.1 -2.1
v -1.3 1.9 -2.2
v -1.3 2 -2.2
v -0.3 1.9 -2.2
v -0.3 2 -2.2
v -2.5 0 -2.5
v -2.5 0.1 -2.5
v 2.5 0 -2.5
v 2.5 0.1 -2.5
v -2.5 0 2.5
v 2.5 0 2.5
v -2.5 0 1.9
v 2.5 0 1.9
v -2.4 0 1.8
v 0.9 0 1.8
v 2.1 0 1.8
v 2.4 0 1.8
v 0.9 0 1.6
v 2.1 0 1.6
v -2 0 -1.7
v -1.4 0 -1.7
v -2.4 0 -1.8
v -2 0 -1.8
v -1.4 0 -1.8
v 2.4 0 -1.8
v -2.5 0 -1.9
v 2.5 0 -1.9
v -2.5 0 -2.5
v 2.5 0 -2.5
v -1.1 0.5 1.9
v -0.7 0.5 1.9
v -1.1 0.5 1.8
v -0.7 0.5 1.8
v -1.2 0.8 2
v -1.1 0.8 2
v -1.2 0.8 1.9
v -1.1 0.8 1.9
v -0.6 0.8 -1.9
v -0.5 0.8 -1.9
v -0.6 0.8 -2
v -0.5 0.8 -2
v 0.3 1.2 -1.8
v 1.1 1.2 -1.8
v 0.3 1.2 -1.9
v 1.1 1.2 -1.9
v 0.6 1.4 1.9
v 1.6 1.4 1.9
v 0.6 1.4 1.8
v 1.6 1.4 1.8
v -1.1 1.4 -1.8
v -1 1.4 -1.8
v -1.1 1.4 -1.9
v -1 1.4 -1.9
v -1.3 1.5 2
v -0.5 1.5 2
v -1.3 1.5 1.9
v -0.5 1.5 1.9
v -1.2 1.6 -1.9
v -0.4 1.6 -1.9
v -1.2 1.6 -2
v -0.4 1.6 -2
v -1.4 1.8 2.2
v 2.38419e-07 1.8 2.2
v -1.4 1.8 2
v -1.3 1.8 2
v -0.5 1.8 2
v -0.4 1.8 2
v -0.0999999 1.8 2
v 2.38419e-07 1.8 2
v -1.3 1.8 1.9
v -0.5 1.8 1.9
v -0.4 1.8 1.9
v -0.0999999 1.8 1.9
v 0.6 1.8 1.9
v 1.6 1.8 1.9
v 0.6 1.8 1.7
v 1.6 1.8 1.7
v -1.2 1.9 -1.9
v -0.4 1.9 -1.9
v -1.3 1.9 -2
v -1.2 1.9 -2
v -0.4 1.9 -2
v -0.3 1.9 -2
v -1.3 1.9 -2.2
v -0.3 1.9 -2.2
v 0.3 2 -1.8
v 1.1 2 -1.8
v 0.3 2 -1.9
v 1.1 2 -1.9
v -2.5 2.3 2
v 2.5 2.3 2
v -2.5 2.3 1.9
v 2.5 2.3 1.9
v -2.5 2.3 -1.9
v 2.5 2.3 -1.9
v -2.5 2.3 -2
v 2.5 2.3 -2
v -2.5 0.1 2.5
v 2.5 0.1 2.5
v -1.4 0.1 2
v -1.3 0.1 2
v -0.5 0.1 2
v 2.38419e-07 0.1 2
v -2.5 0.1 1.9
v -1.4 0.1 1.9
v -1.3 0.1 1.9
v -0.5 0.1 1.9
v 2.38419e-07 0.1 1.9
v 2.5 0.1 1.9
v -2.5 0.1 -1.9
v -1.3 0.1 -1.9
v -0.3 0.1 -1.9
v 0.2 0.1 -1.9
v 1.2 0.1 -1.9
v 2.5 0.1 -1.9
v -1.3 0.1 -2
v -0.3 0.1 -2
v -2.5 0.1 -2.5
v 2.5 0.1 -2.5
v -0.4 0.2 2
v -0.0999999 0.2 2
v -0.4 0.2 1.9
v -0.0999999 0.2 1.9
v 0.3 0.2 -1.8
v 1.1 0.2 -1.8
v -1.2 0.2 -1.9
v -0.4 0.2 -1.9
v 0.3 0.2 -1.9
v 1.1 0.2 -1.9
v -1.2 0.2 -2
v -0.4 0.2 -2
v -1.1 0.4 1.9
v -0.7 0.4 1.9
v -1.1 0.4 1.8
v -0.7 0.4 1.8
v -1.1 0.5 -1.8
v -1 0.5 -1.8
v -1.1 0.5 -1.9
v -1 0.5 -1.9
v 0.6 0.8 1.9
v 1.6 0.8 1.9
v 0.6 0.8 1.7
v 1.6 0.8 1.7
v -1.2 0.9 2
v -1.1 0.9 2
v -1.2 0.9 1.9
v -1.1 0.9 1.9
v -0.6 0.9 -1.9
v -0.5 0.9 -1.9
v -0.6 0.9 -2
v -0.5 0.9 -2
v 0.3 1.3 -1.8
v 1.1 1.3 -1.8
v 0.3 1.3 -1.9
v 1.1 1.3 -1.9
v 0.6 1.5 1.9
v 1.6 1.5 1.9
v 0.6 1.5 1.8
v 1.6 1.5 1.8
v -1.3 1.6 2
v -0.5 1.6 2
v -1.3 1.6 1.9
v -0.5 1.6 1.9
v -1.2 1.7 -1.9
v -0.4 1.7 -1.9
v -1.2 1.7 -2
v -0.4 1.7 -2
v -1.4 1.9 2.2
v 2.38419e-07 1.9 2.2
v -1.3 1.9 2.1
v -0.0999999 1.9 2.1
v -1.4 1.9 1.9
v -1.3 1.9 1.9
v -0.0999999 1.9 1.9
v 2.38419e-07 1.9 1.9
v -1.3 2 2.1
v -0.0999999 2 2.1
v -1.3 2 1.9
v -0.0999999 2 1.9
v -1.3 2 -2
v -1.2 2 -2
v -0.4 2 -2
v -0.3 2 -2
v -1.2 2 -2.1
v -0.4 2 -2.1
v -1.3 2 -2.2
v -0.3 2 -2.2
v -1.3 2.1 -1.9
v -0.3 2.1 -1.9
v -1.3 2.1 -2
v -1.2 2.1 -2
v -0.4 2.1 -2
v -0.3 2.1 -2
v -1.2 2.1 -2.1
v -0.4 2.1 -2.1
v -2.5 2.4 2
v 2.5 2.4 2
v -2.5 2.4 1.9
v 2.5 2.4 1.9
v -2.5 2.4 -1.9
v 2.5 2.4 -1.9
v -2.5 2.4 -2
v 2.5 2.4 -2

# faces
f 5/1/1 2/1/1 1/1/1
f 6/6/1 3/6/1 2/6/1
f 6/1/1 2/1/1 5/1/1
f 7/1/1 4/1/1 3/1/1
f 7/6/1 3/6/1 6/6/1
f 8/1/1 4/1/1 7/1/1
f 10/6/1 7/6/1 6/6/1
f 11/6/1 7/6/1 10/6/1
f 13/3/1 10/3/1 9/3/1
f 14/6/1 11/6/1 10/6/1
f 14/3/1 10/3/1 13/3/1
f 15/3/1 12/3/1 11/3/1
f 15/6/1 11/6/1 14/6/1
f 16/3/1 12/3/1 15/3/1
f 20/3/1 18/3/1 17/3/1
f 21/3/1 20/3/1 19/3/1
f 22/3/1 18/3/1 20/3/1
f 22/3/1 20/3/1 21/3/1
f 27/3/1 24/3/1 23/3/1
f 29/3/1 26/3/1 25/3/1
f 30/3/1 26/3/1 29/3/1
f 31/3/1 28/3/1 27/3/1
f 31/3/1 27/3/1 23/3/1
f 32/3/1 28/3/1 31/3/1
f 33/3/1 31/3/1 23/3/1
f 34/3/1 31/3/1 33/3/1
f 37/3/1 36/3/1 35/3/1
f 38/3/1 36/3/1 37/3/1
f 41/3/1 40/3/1 39/3/1
f 42/3/1 40/3/1 41/3/1
f 45/4/1 44/4/1 43/4/1
f 46/4/1 44/4/1 45/4/1
f 49/4/1 48/4/1 47/4/1
f 50/4/1 48/4/1 49/4/1
f 53/3/1 52/3/1 51/3/1
f 54/3/1 52/3/1 53/3/1
f 57/3/1 56/3/1 55/3/1
f 58/3/1 56/3/1 57/3/1
f 61/3/1 60/3/1 59/3/1
f 62/3/1 60/3/1 61/3/1
f 65/3/1 64/3/1 63/3/1
f 66/3/1 64/3/1 65/3/1
f 69/3/1 68/3/1 67/3/1
f 70/3/1 68/3/1 69/3/1
f 73/3/1 72/3/1 71/3/1
f 74/3/1 72/3/1 73/3/1
f 77/4/1 76/4/1 75/4/1
f 78/4/1 76/4/1 77/4/1
f 81/4/1 80/4/1 79/4/1
f 82/4/1 80/4/1 81/4/1
f 85/4/1 84/4/1 83/4/1
f 86/4/1 84/4/1 85/4/1
f 88/4/1 84/4/1 86/4/1
f 89/4/1 88/4/1 87/4/1
f 90/4/1 84/4/1 88/4/1
f 90/4/1 88/4/1 89/4/1
f 91/3/2 92/3/2 93/3/2
f 93/3/2 92/3/2 94/3/2
f 95/3/2 96/3/2 97/3/2
f 97/3/2 96/3/2 98/3/2
f 99/3/2 100/3/2 101/3/2
f 101/3/2 100/3/2 102/3/2
f 103/3/2 104/3/2 105/3/2
f 105/3/2 104/3/2 106/3/2
f 107/4/2 108/4/2 109/4/2
f 109/4/2 108/4/2 110/4/2
f 113/3/2 114/3/2 115/3/2
f 115/3/2 114/3/2 116/3/2
f 111/4/2 112/4/2 117/4/2
f 117/4/2 112/4/2 118/4/2
f 119/3/2 120/3/2 121/3/2
f 121/3/2 120/3/2 122/3/2
f 123/3/2 124/3/2 125/3/2
f 125/3/2 124/3/2 126/3/2
f 127/3/2 128/3/2 129/3/2
f 129/3/2 128/3/2 130/3/2
f 131/3/2 132/3/2 133/3/2
f 131/3/2 133/3/2 135/3/2
f 133/3/2 134/3/2 135/3/2
f 135/3/2 134/3/2 136/3/2
f 131/3/2 135/3/2 137/3/2
f 137/3/2 135/3/2 138/3/2
f 139/3/2 140/3/2 141/3/2
f 141/3/2 140/3/2 142/3/2
f 143/3/2 144/3/2 146/3/2
f 145/3/2 146/3/2 147/3/2
f 146/3/2 144/3/2 148/3/2
f 147/3/2 146/3/2 148/3/2
f 149/4/2 150/4/2 151/4/2
f 151/4/2 150/4/2 152/4/2
f 153/4/2 154/4/2 155/4/2
f 155/4/2 154/4/2 156/4/2
f 157/4/2 158/4/2 159/4/2
f 159/4/2 158/4/2 160/4/2
f 160/4/2 158/4/2 162/4/2
f 161/4/2 162/4/2 163/4/2
f 162/4/2 158/4/2 164/4/2
f 163/4/2 162/4/2 164/4/2
f 165/1/2 166/1/2 169/1/2
f 166/6/2 167/6/2 170/6/2
f 169/1/2 166/1/2 170/1/2
f 167/1/2 168/1/2 171/1/2
f 170/6/2 167/6/2 171/6/2
f 171/1/2 168/1/2 172/1/2
f 170/6/2 171/6/2 174/6/2
f 174/6/2 171/6/2 175/6/2
f 173/3/2 174/3/2 177/3/2
f 174/6/2 175/6/2 178/6/2
f 177/3/2 174/3/2 178/3/2
f 175/3/2 176/3/2 179/3/2
f 178/6/2 175/6/2 179/6/2
f 179/3/2 176/3/2 180/3/2
f 183/1/3 182/1/3 181/1/3
f 184/1/3 182/1/3 183/1/3
f 187/3/3 186/3/3 185/3/3
f 188/3/3 186/3/3 187/3/3
f 191/3/3 190/3/3 189/3/3
f 192/3/3 190/3/3 191/3/3
f 197/3/3 196/3/3 195/3/3
f 198/3/3 196/3/3 197/3/3
f 199/3/3 196/3/3 198/3/3
f 200/3/3 196/3/3 199/3/3
f 203/3/3 202/3/3 201/3/3
f 204/3/3 202/3/3 203/3/3
f 206/3/3 199/3/3 198/3/3
f 207/3/3 199/3/3 206/3/3
f 209/3/3 206/3/3 205/3/3
f 209/3/3 208/3/3 207/3/3
f 209/3/3 207/3/3 206/3/3
f 210/3/3 208/3/3 209/3/3
f 211/3/3 209/3/3 205/3/3
f 213/3/3 211/3/3 205/3/3
f 213/3/3 212/3/3 211/3/3
f 214/3/3 212/3/3 213/3/3
f 215/3/3 194/3/3 193/3/3
f 216/3/3 194/3/3 215/3/3
f 219/6/3 218/6/3 217/6/3
f 220/6/3 218/6/3 219/6/3
f 225/6/3 218/6/3 220/6/3
f 226/6/3 218/6/3 225/6/3
f 227/4/3 222/4/3 221/4/3
f 228/4/3 222/4/3 227/4/3
f 229/4/3 227/4/3 221/4/3
f 230/4/3 227/4/3 229/4/3
f 231/4/3 227/4/3 230/4/3
f 232/4/3 222/4/3 228/4/3
f 233/4/3 229/4/3 221/4/3
f 234/4/3 231/4/3 230/4/3
f 234/4/3 232/4/3 231/4/3
f 235/4/3 233/4/3 221/4/3
f 235/4/3 234/4/3 233/4/3
f 236/4/3 232/4/3 234/4/3
f 236/4/3 234/4/3 235/4/3
f 236/4/3 222/4/3 232/4/3
f 237/4/3 224/4/3 223/4/3
f 238/4/3 224/4/3 237/4/3
f 241/5/3 240/5/3 239/5/3
f 242/5/3 240/5/3 241/5/3
f 244/6/3 218/6/3 226/6/3
f 246/6/3 244/6/3 243/6/3
f 247/6/3 246/6/3 245/6/3
f 248/6/3 244/6/3 246/6/3
f 248/6/3 246/6/3 247/6/3
f 249/4/3 248/4/3 247/4/3
f 250/4/3 248/4/3 249/4/3
f 251/4/3 248/4/3 250/4/3
f 252/4/3 248/4/3 251/4/3
f 253/4/3 249/4/3 247/4/3
f 254/4/3 251/4/3 250/4/3
f 255/4/3 251/4/3 254/4/3
f 256/4/3 248/4/3 252/4/3
f 257/6/3 247/6/3 245/6/3
f 257/4/3 256/4/3 255/4/3
f 257/4/3 255/4/3 254/4/3
f 257/4/3 253/4/3 247/4/3
f 257/4/3 254/4/3 253/4/3
f 258/4/3 248/4/3 256/4/3
f 258/4/3 256/4/3 257/4/3
f 258/6/3 244/6/3 248/6/3
f 259/6/3 257/6/3 245/6/3
f 259/6/3 258/6/3 257/6/3
f 260/6/3 218/6/3 244/6/3
f 260/6/3 258/6/3 259/6/3
f 260/6/3 244/6/3 258/6/3
f 263/3/3 262/3/3 261/3/3
f 264/3/3 262/3/3 263/3/3
f 267/5/3 266/5/3 265/5/3
f 268/5/3 266/5/3 267/5/3
f 269/4/4 270/4/4 271/4/4
f 271/4/4 270/4/4 272/4/4
f 273/1/4 274/1/4 275/1/4
f 275/1/4 274/1/4 276/1/4
f 277/5/4 278/5/4 281/5/4
f 281/5/4 278/5/4 282/5/4
f 279/5/4 280/5/4 283/5/4
f 283/5/4 280/5/4 284/5/4
f 285/6/4 286/6/4 287/6/4
f 287/6/4 286/6/4 288/6/4
f 289/4/4 290/4/4 293/4/4
f 293/4/4 290/4/4 294/4/4
f 289/4/4 293/4/4 295/4/4
f 294/4/4 290/4/4 296/4/4
f 295/4/4 296/4/4 297/4/4
f 297/4/4 296/4/4 298/4/4
f 295/4/4 297/4/4 299/4/4
f 298/4/4 296/4/4 300/4/4
f 289/4/4 295/4/4 301/4/4
f 299/4/4 300/4/4 301/4/4
f 295/4/4 299/4/4 301/4/4
f 300/4/4 296/4/4 302/4/4
f 301/4/4 300/4/4 302/4/4
f 296/4/4 290/4/4 302/4/4
f 291/4/4 292/4/4 303/4/4
f 303/4/4 292/4/4 304/4/4
f 288/6/4 286/6/4 306/6/4
f 305/6/4 306/6/4 307/6/4
f 306/6/4 286/6/4 308/6/4
f 307/6/4 306/6/4 308/6/4
f 307/4/4 308/4/4 309/4/4
f 309/4/4 308/4/4 310/4/4
f 310/4/4 308/4/4 311/4/4
f 311/4/4 308/4/4 312/4/4
f 307/4/4 309/4/4 313/4/4
f 310/4/4 311/4/4 314/4/4
f 314/4/4 311/4/4 315/4/4
f 312/4/4 308/4/4 316/4/4
f 314/4/4 315/4/4 317/4/4
f 315/4/4 316/4/4 317/4/4
f 307/4/4 313/4/4 317/4/4
f 313/4/4 314/4/4 317/4/4
f 308/6/4 286/6/4 318/6/4
f 317/4/4 316/4/4 318/4/4
f 316/4/4 308/4/4 318/4/4
f 317/6/4 318/6/4 319/6/4
f 318/6/4 286/6/4 320/6/4
f 319/6/4 318/6/4 320/6/4
f 323/3/4 324/3/4 327/3/4
f 327/3/4 324/3/4 328/3/4
f 328/3/4 324/3/4 329/3/4
f 329/3/4 324/3/4 330/3/4
f 325/3/4 326/3/4 331/3/4
f 331/3/4 326/3/4 332/3/4
f 333/3/4 334/3/4 335/3/4
f 335/3/4 334/3/4 336/3/4
f 323/3/4 327/3/4 337/3/4
f 328/3/4 329/3/4 338/3/4
f 338/3/4 329/3/4 339/3/4
f 323/3/4 337/3/4 343/3/4
f 337/3/4 338/3/4 343/3/4
f 339/3/4 340/3/4 343/3/4
f 338/3/4 339/3/4 343/3/4
f 343/3/4 340/3/4 344/3/4
f 341/3/4 342/3/4 345/3/4
f 345/3/4 342/3/4 346/3/4
f 321/3/4 322/3/4 347/3/4
f 347/3/4 322/3/4 348/3/4
f 349/3/4 350/3/4 351/3/4
f 351/3/4 350/3/4 352/3/4
f 353/3/4 354/3/4 355/3/4
f 355/3/4 354/3/4 356/3/4
f 357/1/4 358/1/4 359/1/4
f 359/1/4 358/1/4 360/1/4
f 363/1/5 362/1/5 361/1/5
f 364/1/5 362/1/5 363/1/5
f 365/6/5 364/6/5 363/6/5
f 366/6/5 364/6/5 365/6/5
f 367/6/5 364/6/5 366/6/5
f 368/6/5 364/6/5 367/6/5
f 369/1/5 366/1/5 365/1/5
f 369/6/5 367/6/5 366/6/5
f 370/1/5 368/1/5 367/1/5
f 370/6/5 367/6/5 369/6/5
f 371/1/5 369/1/5 365/1/5
f 371/1/5 370/1/5 369/1/5
f 372/1/5 370/1/5 371/1/5
f 373/6/5 365/6/5 363/6/5
f 373/1/5 371/1/5 365/1/5
f 374/6/5 372/6/5 371/6/5
f 374/1/5 371/1/5 373/1/5
f 375/1/5 370/1/5 372/1/5
f 375/6/5 372/6/5 374/6/5
f 376/6/5 364/6/5 368/6/5
f 376/1/5 370/1/5 375/1/5
f 376/1/5 368/1/5 370/1/5
f 377/6/5 374/6/5 373/6/5
f 377/6/5 375/6/5 374/6/5
f 377/6/5 376/6/5 375/6/5
f 377/6/5 373/6/5 363/6/5
f 378/6/5 364/6/5 376/6/5
f 378/6/5 376/6/5 377/6/5
f 379/1/5 378/1/5 377/1/5
f 380/1/5 378/1/5 379/1/5
f 383/4/5 382/4/5 381/4/5
f 384/4/5 382/4/5 383/4/5
f 387/3/5 386/3/5 385/3/5
f 388/3/5 386/3/5 387/3/5
f 391/3/5 390/3/5 389/3/5
f 392/3/5 390/3/5 391/3/5
f 395/4/5 394/4/5 393/4/5
f 396/4/5 394/4/5 395/4/5
f 399/4/5 398/4/5 397/4/5
f 400/4/5 398/4/5 399/4/5
f 403/4/5 402/4/5 401/4/5
f 404/4/5 402/4/5 403/4/5
f 407/3/5 406/3/5 405/3/5
f 408/3/5 406/3/5 407/3/5
f 411/3/5 410/3/5 409/3/5
f 412/3/5 410/3/5 411/3/5
f 415/3/5 414/3/5 413/3/5
f 416/3/5 414/3/5 415/3/5
f 417/3/5 414/3/5 416/3/5
f 418/3/5 414/3/5 417/3/5
f 419/3/5 414/3/5 418/3/5
f 420/3/5 414/3/5 419/3/5
f 421/3/5 417/3/5 416/3/5
f 422/3/5 417/3/5 421/3/5
f 423/3/5 419/3/5 418/3/5
f 424/3/5 419/3/5 423/3/5
f 427/4/5 426/4/5 425/4/5
f 428/4/5 426/4/5 427/4/5
f 432/3/5 430/3/5 429/3/5
f 433/3/5 430/3/5 432/3/5
f 435/3/5 432/3/5 431/3/5
f 435/3/5 434/3/5 433/3/5
f 435/3/5 433/3/5 432/3/5
f 436/3/5 434/3/5 435/3/5
f 439/4/5 438/4/5 437/4/5
f 440/4/5 438/4/5 439/4/5
f 443/3/5 442/3/5 441/3/5
f 444/3/5 442/3/5 443/3/5
f 447/3/5 446/3/5 445/3/5
f 448/3/5 446/3/5 447/3/5
f 449/1/6 450/1/6 451/1/6
f 451/1/6 450/1/6 452/1/6
f 452/1/6 450/1/6 453/1/6
f 453/1/6 450/1/6 454/1/6
f 449/1/6 451/1/6 455/1/6
f 455/1/6 451/1/6 456/1/6
f 452/1/6 453/1/6 457/1/6
f 457/1/6 453/1/6 458/1/6
f 454/1/6 450/1/6 459/1/6
f 459/1/6 450/1/6 460/1/6
f 461/1/6 462/1/6 467/1/6
f 465/1/6 466/1/6 468/1/6
f 463/1/6 464/1/6 468/1/6
f 464/1/6 465/1/6 468/1/6
f 461/1/6 467/1/6 469/1/6
f 467/1/6 468/1/6 469/1/6
f 468/1/6 466/1/6 470/1/6
f 469/1/6 468/1/6 470/1/6
f 471/3/6 472/3/6 473/3/6
f 473/3/6 472/3/6 474/3/6
f 475/4/6 476/4/6 479/4/6
f 479/4/6 476/4/6 480/4/6
f 477/3/6 478/3/6 481/3/6
f 481/3/6 478/3/6 482/3/6
f 483/4/6 484/4/6 485/4/6
f 485/4/6 484/4/6 486/4/6
f 487/4/6 488/4/6 489/4/6
f 489/4/6 488/4/6 490/4/6
f 491/4/6 492/4/6 493/4/6
f 493/4/6 492/4/6 494/4/6
f 495/3/6 496/3/6 497/3/6
f 497/3/6 496/3/6 498/3/6
f 499/3/6 500/3/6 501/3/6
f 501/3/6 500/3/6 502/3/6
f 503/4/6 504/4/6 505/4/6
f 505/4/6 504/4/6 506/4/6
f 507/4/6 508/4/6 509/4/6
f 509/4/6 508/4/6 510/4/6
f 511/3/6 512/3/6 513/3/6
f 513/3/6 512/3/6 514/3/6
f 515/3/6 516/3/6 517/3/6
f 517/3/6 516/3/6 518/3/6
f 519/3/6 520/3/6 521/3/6
f 521/3/6 520/3/6 522/3/6
f 519/3/6 521/3/6 523/3/6
f 523/3/6 521/3/6 524/3/6
f 522/3/6 520/3/6 525/3/6
f 525/3/6 520/3/6 526/3/6
f 527/3/6 528/3/6 529/3/6
f 529/3/6 528/3/6 530/3/6
f 531/3/6 532/3/6 535/3/6
f 533/3/6 534/3/6 536/3/6
f 531/3/6 535/3/6 537/3/6
f 535/3/6 536/3/6 537/3/6
f 536/3/6 534/3/6 538/3/6
f 537/3/6 536/3/6 538/3/6
f 539/3/6 540/3/6 541/3/6
f 541/3/6 540/3/6 542/3/6
f 542/3/6 540/3/6 543/3/6
f 543/3/6 540/3/6 544/3/6
f 542/3/6 543/3/6 545/3/6
f 545/3/6 543/3/6 546/3/6
f 547/3/6 548/3/6 549/3/6
f 549/3/6 548/3/6 550/3/6
f 549/6/6 550/6/6 551/6/6
f 551/6/6 550/6/6 552/6/6
f 551/3/6 552/3/6 553/3/6
f 553/3/6 552/3/6 554/3/6
