# MagicaVoxel @ Ephtracy

# group
o 

# material
mtllib Blue_BlockHouseRoof_03.mtl
usemtl palette

# normals
vn 1 0 0
vn -1 0 0
vn 0 0 -1
vn 0 0 1
vn 0 -1 0
vn 0 1 0

# texcoords
vt 0.00585938 0.5
vt 0.0253906 0.5
vt 0.0644531 0.5
vt 0.0683594 0.5

# verts
v 2.5 0 -2.2
v 2.5 0 -1.9
v 2.5 0 1.9
v 2.5 0 2.2
v 2.5 0.1 -2.2
v 2.5 0.1 -1.9
v 2.5 0.1 -1.6
v 2.5 0.1 1.7
v 2.5 0.1 1.9
v 2.5 0.1 2.2
v 2.5 0.2 -1.9
v 2.5 0.2 -1.6
v 2.5 0.2 -1.3
v 2.5 0.2 1.4
v 2.5 0.2 1.7
v 2.5 0.2 1.9
v 2.5 0.3 -1.6
v 2.5 0.3 -1.3
v 2.5 0.3 -1
v 2.5 0.3 1.1
v 2.5 0.3 1.4
v 2.5 0.3 1.7
v 2.5 0.4 -1.3
v 2.5 0.4 -1
v 2.5 0.4 -0.7
v 2.5 0.4 0.8
v 2.5 0.4 1.1
v 2.5 0.4 1.4
v 2.5 0.5 -1
v 2.5 0.5 -0.7
v 2.5 0.5 -0.4
v 2.5 0.5 0.5
v 2.5 0.5 0.8
v 2.5 0.5 1.1
v 2.5 0.6 -0.7
v 2.5 0.6 -0.4
v 2.5 0.6 -0.0999999
v 2.5 0.6 0.2
v 2.5 0.6 0.5
v 2.5 0.6 0.8
v 2.5 0.7 -0.4
v 2.5 0.7 -0.0999999
v 2.5 0.7 0.2
v 2.5 0.7 0.5
v 2.5 0.8 -0.0999999
v 2.5 0.8 0.2
v 2.1 0.9 0.9
v 2.1 0.9 1
v 2.1 1 0.9
v 2.1 1 1
v 2.1 1.1 0.9
v 2.1 1.1 1
v 2.1 1.2 0.9
v 2.1 1.2 1
v 1.8 0.5 0.9
v 1.8 0.5 1
v 1.8 0.9 0.9
v 1.8 0.9 1
v 1.8 1 0.9
v 1.8 1 1
v 1.8 1.1 0.9
v 1.8 1.1 1
v 1.8 1.2 0.9
v 1.8 1.2 1
v 1.8 1.4 0.9
v 1.8 1.4 1
v 1.7 0.5 0.9
v 1.7 0.5 1
v 1.7 1 0.9
v 1.7 1 1
v 1.7 1.1 0.9
v 1.7 1.1 1
v 1.7 1.2 0.9
v 1.7 1.2 1
v 1.7 1.3 0.9
v 1.7 1.3 1
v 1.7 1.4 0.9
v 1.7 1.4 1
v 1.4 1 0.9
v 1.4 1 1
v 1.4 1.1 0.9
v 1.4 1.1 1
v 1.4 1.2 0.9
v 1.4 1.2 1
v 1.4 1.3 0.9
v 1.4 1.3 1
v -2.5 0 -2.2
v -2.5 0 -1.9
v -2.5 0 1.9
v -2.5 0 2.2
v -2.5 0.1 -2.2
v -2.5 0.1 -1.9
v -2.5 0.1 -1.6
v -2.5 0.1 1.7
v -2.5 0.1 1.9
v -2.5 0.1 2.2
v -2.5 0.2 -1.9
v -2.5 0.2 -1.6
v -2.5 0.2 -1.3
v -2.5 0.2 1.4
v -2.5 0.2 1.7
v -2.5 0.2 1.9
v -2.5 0.3 -1.6
v -2.5 0.3 -1.3
v -2.5 0.3 -1
v -2.5 0.3 1.1
v -2.5 0.3 1.4
v -2.5 0.3 1.7
v -2.5 0.4 -1.3
v -2.5 0.4 -1
v -2.5 0.4 -0.7
v -2.5 0.4 0.8
v -2.5 0.4 1.1
v -2.5 0.4 1.4
v -2.5 0.5 -1
v -2.5 0.5 -0.7
v -2.5 0.5 -0.4
v -2.5 0.5 0.5
v -2.5 0.5 0.8
v -2.5 0.5 1.1
v -2.5 0.6 -0.7
v -2.5 0.6 -0.4
v -2.5 0.6 -0.0999999
v -2.5 0.6 0.2
v -2.5 0.6 0.5
v -2.5 0.6 0.8
v -2.5 0.7 -0.4
v -2.5 0.7 -0.0999999
v -2.5 0.7 0.2
v -2.5 0.7 0.5
v -2.5 0.8 -0.0999999
v -2.5 0.8 0.2
v 2.5 0 -2.2
v 2.5 0.1 -2.2
v -2.5 0 -2.2
v -2.5 0.1 -2.2
v 2.5 0.1 -1.9
v 2.5 0.2 -1.9
v 2.4 0.1 -1.9
v 2.4 0.2 -1.9
v -2.4 0.1 -1.9
v -2.4 0.2 -1.9
v -2.5 0.1 -1.9
v -2.5 0.2 -1.9
v 2.5 0.2 -1.6
v 2.5 0.3 -1.6
v 2.4 0.2 -1.6
v 2.4 0.3 -1.6
v -2.4 0.2 -1.6
v -2.4 0.3 -1.6
v -2.5 0.2 -1.6
v -2.5 0.3 -1.6
v 2.5 0.3 -1.3
v 2.5 0.4 -1.3
v 2.4 0.3 -1.3
v 2.4 0.4 -1.3
v -2.4 0.3 -1.3
v -2.4 0.4 -1.3
v -2.5 0.3 -1.3
v -2.5 0.4 -1.3
v 2.5 0.4 -1
v 2.5 0.5 -1
v 2.4 0.4 -1
v 2.4 0.5 -1
v -2.4 0.4 -1
v -2.4 0.5 -1
v -2.5 0.4 -1
v -2.5 0.5 -1
v 2.5 0.5 -0.7
v 2.5 0.6 -0.7
v 2.4 0.5 -0.7
v 2.4 0.6 -0.7
v -2.4 0.5 -0.7
v -2.4 0.6 -0.7
v -2.5 0.5 -0.7
v -2.5 0.6 -0.7
v 2.5 0.6 -0.4
v 2.5 0.7 -0.4
v 2.4 0.6 -0.4
v 2.4 0.7 -0.4
v -2.4 0.6 -0.4
v -2.4 0.7 -0.4
v -2.5 0.6 -0.4
v -2.5 0.7 -0.4
v 2.5 0.7 -0.0999999
v 2.5 0.8 -0.0999999
v 2.4 0.7 -0.0999999
v 2.4 0.8 -0.0999999
v -2.4 0.7 -0.0999999
v -2.4 0.8 -0.0999999
v -2.5 0.7 -0.0999999
v -2.5 0.8 -0.0999999
v 2.1 0.9 0.9
v 2.1 1 0.9
v 2.1 1.1 0.9
v 2.1 1.2 0.9
v 1.8 0.5 0.9
v 1.8 0.9 0.9
v 1.8 1 0.9
v 1.8 1.1 0.9
v 1.8 1.2 0.9
v 1.8 1.4 0.9
v 1.7 0.5 0.9
v 1.7 1 0.9
v 1.7 1.1 0.9
v 1.7 1.2 0.9
v 1.7 1.3 0.9
v 1.7 1.4 0.9
v 1.4 1 0.9
v 1.4 1.1 0.9
v 1.4 1.2 0.9
v 1.4 1.3 0.9
v 2.5 0.7 0.2
v 2.5 0.8 0.2
v 2.4 0.7 0.2
v 2.4 0.8 0.2
v -2.4 0.7 0.2
v -2.4 0.8 0.2
v -2.5 0.7 0.2
v -2.5 0.8 0.2
v 2.5 0.6 0.5
v 2.5 0.7 0.5
v 2.4 0.6 0.5
v 2.4 0.7 0.5
v -2.4 0.6 0.5
v -2.4 0.7 0.5
v -2.5 0.6 0.5
v -2.5 0.7 0.5
v 2.5 0.5 0.8
v 2.5 0.6 0.8
v 2.4 0.5 0.8
v 2.4 0.6 0.8
v -2.4 0.5 0.8
v -2.4 0.6 0.8
v -2.5 0.5 0.8
v -2.5 0.6 0.8
v 2.1 0.9 1
v 2.1 1 1
v 2.1 1.1 1
v 2.1 1.2 1
v 1.8 0.5 1
v 1.8 0.9 1
v 1.8 1 1
v 1.8 1.1 1
v 1.8 1.2 1
v 1.8 1.4 1
v 1.7 0.5 1
v 1.7 1 1
v 1.7 1.1 1
v 1.7 1.2 1
v 1.7 1.3 1
v 1.7 1.4 1
v 1.4 1 1
v 1.4 1.1 1
v 1.4 1.2 1
v 1.4 1.3 1
v 2.5 0.4 1.1
v 2.5 0.5 1.1
v 2.4 0.4 1.1
v 2.4 0.5 1.1
v -2.4 0.4 1.1
v -2.4 0.5 1.1
v -2.5 0.4 1.1
v -2.5 0.5 1.1
v 2.5 0.3 1.4
v 2.5 0.4 1.4
v 2.4 0.3 1.4
v 2.4 0.4 1.4
v -2.4 0.3 1.4
v -2.4 0.4 1.4
v -2.5 0.3 1.4
v -2.5 0.4 1.4
v 2.5 0.2 1.7
v 2.5 0.3 1.7
v 2.4 0.2 1.7
v 2.4 0.3 1.7
v -2.4 0.2 1.7
v -2.4 0.3 1.7
v -2.5 0.2 1.7
v -2.5 0.3 1.7
v 2.5 0.1 1.9
v 2.5 0.2 1.9
v 2.4 0.1 1.9
v 2.4 0.2 1.9
v -2.4 0.1 1.9
v -2.4 0.2 1.9
v -2.5 0.1 1.9
v -2.5 0.2 1.9
v 2.5 0 2.2
v 2.5 0.1 2.2
v -2.5 0 2.2
v -2.5 0.1 2.2
v 2.5 0 -2.2
v -2.5 0 -2.2
v 2.4 0 -2.1
v -2.4 0 -2.1
v 2.5 0 -1.9
v 2.4 0 -1.9
v -2.4 0 -1.9
v -2.5 0 -1.9
v 2.5 0 1.9
v 2.4 0 1.9
v -2.4 0 1.9
v -2.5 0 1.9
v 2.4 0 2.1
v -2.4 0 2.1
v 2.5 0 2.2
v -2.5 0 2.2
v 2.1 0.9 0.9
v 1.8 0.9 0.9
v 2.1 0.9 1
v 1.8 0.9 1
v 1.7 1 0.9
v 1.4 1 0.9
v 1.7 1 1
v 1.4 1 1
v 2.1 1.1 0.9
v 1.8 1.1 0.9
v 2.1 1.1 1
v 1.8 1.1 1
v 1.7 1.2 0.9
v 1.4 1.2 0.9
v 1.7 1.2 1
v 1.4 1.2 1
v 2.5 0.1 -2.2
v -2.5 0.1 -2.2
v 2.4 0.1 -2.1
v -2.4 0.1 -2.1
v 2.5 0.1 -1.9
v 2.4 0.1 -1.9
v -2.4 0.1 -1.9
v -2.5 0.1 -1.9
v 2.5 0.1 1.9
v 2.4 0.1 1.9
v -2.4 0.1 1.9
v -2.5 0.1 1.9
v 2.4 0.1 2.1
v -2.4 0.1 2.1
v 2.5 0.1 2.2
v -2.5 0.1 2.2
v 2.5 0.2 -1.9
v 2.4 0.2 -1.9
v -2.4 0.2 -1.9
v -2.5 0.2 -1.9
v 2.5 0.2 -1.6
v 2.4 0.2 -1.6
v -2.4 0.2 -1.6
v -2.5 0.2 -1.6
v 2.5 0.2 1.7
v 2.4 0.2 1.7
v -2.4 0.2 1.7
v -2.5 0.2 1.7
v 2.5 0.2 1.9
v 2.4 0.2 1.9
v -2.4 0.2 1.9
v -2.5 0.2 1.9
v 2.5 0.3 -1.6
v 2.4 0.3 -1.6
v -2.4 0.3 -1.6
v -2.5 0.3 -1.6
v 2.5 0.3 -1.3
v 2.4 0.3 -1.3
v -2.4 0.3 -1.3
v -2.5 0.3 -1.3
v 2.5 0.3 1.4
v 2.4 0.3 1.4
v -2.4 0.3 1.4
v -2.5 0.3 1.4
v 2.5 0.3 1.7
v 2.4 0.3 1.7
v -2.4 0.3 1.7
v -2.5 0.3 1.7
v 2.5 0.4 -1.3
v 2.4 0.4 -1.3
v -2.4 0.4 -1.3
v -2.5 0.4 -1.3
v 2.5 0.4 -1
v 2.4 0.4 -1
v -2.4 0.4 -1
v -2.5 0.4 -1
v 2.5 0.4 1.1
v 2.4 0.4 1.1
v -2.4 0.4 1.1
v -2.5 0.4 1.1
v 2.5 0.4 1.4
v 2.4 0.4 1.4
v -2.4 0.4 1.4
v -2.5 0.4 1.4
v 2.5 0.5 -1
v 2.4 0.5 -1
v -2.4 0.5 -1
v -2.5 0.5 -1
v 2.5 0.5 -0.7
v 2.4 0.5 -0.7
v -2.4 0.5 -0.7
v -2.5 0.5 -0.7
v 2.5 0.5 0.8
v 2.4 0.5 0.8
v -2.4 0.5 0.8
v -2.5 0.5 0.8
v 1.8 0.5 0.9
v 1.7 0.5 0.9
v 1.8 0.5 1
v 1.7 0.5 1
v 2.5 0.5 1.1
v 2.4 0.5 1.1
v -2.4 0.5 1.1
v -2.5 0.5 1.1
v 2.5 0.6 -0.7
v 2.4 0.6 -0.7
v -2.4 0.6 -0.7
v -2.5 0.6 -0.7
v 2.5 0.6 -0.4
v 2.4 0.6 -0.4
v -2.4 0.6 -0.4
v -2.5 0.6 -0.4
v 2.5 0.6 0.5
v 2.4 0.6 0.5
v -2.4 0.6 0.5
v -2.5 0.6 0.5
v 2.5 0.6 0.8
v 2.4 0.6 0.8
v -2.4 0.6 0.8
v -2.5 0.6 0.8
v 2.5 0.7 -0.4
v 2.4 0.7 -0.4
v -2.4 0.7 -0.4
v -2.5 0.7 -0.4
v 2.5 0.7 -0.0999999
v 2.4 0.7 -0.0999999
v -2.4 0.7 -0.0999999
v -2.5 0.7 -0.0999999
v 2.5 0.7 0.2
v 2.4 0.7 0.2
v -2.4 0.7 0.2
v -2.5 0.7 0.2
v 2.5 0.7 0.5
v 2.4 0.7 0.5
v -2.4 0.7 0.5
v -2.5 0.7 0.5
v 2.5 0.8 -0.0999999
v 2.4 0.8 -0.0999999
v -2.4 0.8 -0.0999999
v -2.5 0.8 -0.0999999
v 2.5 0.8 0.2
v 2.4 0.8 0.2
v -2.4 0.8 0.2
v -2.5 0.8 0.2
v 2.1 1 0.9
v 1.8 1 0.9
v 2.1 1 1
v 1.8 1 1
v 1.7 1.1 0.9
v 1.4 1.1 0.9
v 1.7 1.1 1
v 1.4 1.1 1
v 2.1 1.2 0.9
v 1.8 1.2 0.9
v 2.1 1.2 1
v 1.8 1.2 1
v 1.7 1.3 0.9
v 1.4 1.3 0.9
v 1.7 1.3 1
v 1.4 1.3 1
v 1.8 1.4 0.9
v 1.7 1.4 0.9
v 1.8 1.4 1
v 1.7 1.4 1

# faces
f 5/1/1 2/1/1 1/1/1
f 6/3/1 3/3/1 2/3/1
f 6/1/1 2/1/1 5/1/1
f 7/3/1 3/3/1 6/3/1
f 8/3/1 3/3/1 7/3/1
f 9/1/1 4/1/1 3/1/1
f 9/3/1 3/3/1 8/3/1
f 10/1/1 4/1/1 9/1/1
f 11/1/1 7/1/1 6/1/1
f 12/3/1 8/3/1 7/3/1
f 12/1/1 7/1/1 11/1/1
f 13/3/1 8/3/1 12/3/1
f 14/3/1 8/3/1 13/3/1
f 15/1/1 9/1/1 8/1/1
f 15/3/1 8/3/1 14/3/1
f 16/1/1 9/1/1 15/1/1
f 17/1/1 13/1/1 12/1/1
f 18/3/1 14/3/1 13/3/1
f 18/1/1 13/1/1 17/1/1
f 19/3/1 14/3/1 18/3/1
f 20/3/1 14/3/1 19/3/1
f 21/1/1 15/1/1 14/1/1
f 21/3/1 14/3/1 20/3/1
f 22/1/1 15/1/1 21/1/1
f 23/1/1 19/1/1 18/1/1
f 24/3/1 20/3/1 19/3/1
f 24/1/1 19/1/1 23/1/1
f 25/3/1 20/3/1 24/3/1
f 26/3/1 20/3/1 25/3/1
f 27/1/1 21/1/1 20/1/1
f 27/3/1 20/3/1 26/3/1
f 28/1/1 21/1/1 27/1/1
f 29/1/1 25/1/1 24/1/1
f 30/3/1 26/3/1 25/3/1
f 30/1/1 25/1/1 29/1/1
f 31/3/1 26/3/1 30/3/1
f 32/3/1 26/3/1 31/3/1
f 33/1/1 27/1/1 26/1/1
f 33/3/1 26/3/1 32/3/1
f 34/1/1 27/1/1 33/1/1
f 35/1/1 31/1/1 30/1/1
f 36/3/1 32/3/1 31/3/1
f 36/1/1 31/1/1 35/1/1
f 37/3/1 32/3/1 36/3/1
f 38/3/1 32/3/1 37/3/1
f 39/1/1 33/1/1 32/1/1
f 39/3/1 32/3/1 38/3/1
f 40/1/1 33/1/1 39/1/1
f 41/1/1 37/1/1 36/1/1
f 42/3/1 38/3/1 37/3/1
f 42/1/1 37/1/1 41/1/1
f 43/1/1 39/1/1 38/1/1
f 43/3/1 38/3/1 42/3/1
f 44/1/1 39/1/1 43/1/1
f 45/1/1 43/1/1 42/1/1
f 46/1/1 43/1/1 45/1/1
f 49/2/1 48/2/1 47/2/1
f 50/2/1 48/2/1 49/2/1
f 53/2/1 52/2/1 51/2/1
f 54/2/1 52/2/1 53/2/1
f 57/2/1 56/2/1 55/2/1
f 58/2/1 56/2/1 57/2/1
f 61/2/1 60/2/1 59/2/1
f 62/2/1 60/2/1 61/2/1
f 65/2/1 64/2/1 63/2/1
f 66/2/1 64/2/1 65/2/1
f 67/2/2 68/2/2 69/2/2
f 69/2/2 68/2/2 70/2/2
f 71/2/2 72/2/2 73/2/2
f 73/2/2 72/2/2 74/2/2
f 75/2/2 76/2/2 77/2/2
f 77/2/2 76/2/2 78/2/2
f 79/2/2 80/2/2 81/2/2
f 81/2/2 80/2/2 82/2/2
f 83/2/2 84/2/2 85/2/2
f 85/2/2 84/2/2 86/2/2
f 87/1/2 88/1/2 91/1/2
f 88/3/2 89/3/2 92/3/2
f 91/1/2 88/1/2 92/1/2
f 92/3/2 89/3/2 93/3/2
f 93/3/2 89/3/2 94/3/2
f 89/1/2 90/1/2 95/1/2
f 94/3/2 89/3/2 95/3/2
f 95/1/2 90/1/2 96/1/2
f 92/1/2 93/1/2 97/1/2
f 93/3/2 94/3/2 98/3/2
f 97/1/2 93/1/2 98/1/2
f 98/3/2 94/3/2 99/3/2
f 99/3/2 94/3/2 100/3/2
f 94/1/2 95/1/2 101/1/2
f 100/3/2 94/3/2 101/3/2
f 101/1/2 95/1/2 102/1/2
f 98/1/2 99/1/2 103/1/2
f 99/3/2 100/3/2 104/3/2
f 103/1/2 99/1/2 104/1/2
f 104/3/2 100/3/2 105/3/2
f 105/3/2 100/3/2 106/3/2
f 100/1/2 101/1/2 107/1/2
f 106/3/2 100/3/2 107/3/2
f 107/1/2 101/1/2 108/1/2
f 104/1/2 105/1/2 109/1/2
f 105/3/2 106/3/2 110/3/2
f 109/1/2 105/1/2 110/1/2
f 110/3/2 106/3/2 111/3/2
f 111/3/2 106/3/2 112/3/2
f 106/1/2 107/1/2 113/1/2
f 112/3/2 106/3/2 113/3/2
f 113/1/2 107/1/2 114/1/2
f 110/1/2 111/1/2 115/1/2
f 111/3/2 112/3/2 116/3/2
f 115/1/2 111/1/2 116/1/2
f 116/3/2 112/3/2 117/3/2
f 117/3/2 112/3/2 118/3/2
f 112/1/2 113/1/2 119/1/2
f 118/3/2 112/3/2 119/3/2
f 119/1/2 113/1/2 120/1/2
f 116/1/2 117/1/2 121/1/2
f 117/3/2 118/3/2 122/3/2
f 121/1/2 117/1/2 122/1/2
f 122/3/2 118/3/2 123/3/2
f 123/3/2 118/3/2 124/3/2
f 118/1/2 119/1/2 125/1/2
f 124/3/2 118/3/2 125/3/2
f 125/1/2 119/1/2 126/1/2
f 122/1/2 123/1/2 127/1/2
f 123/3/2 124/3/2 128/3/2
f 127/1/2 123/1/2 128/1/2
f 124/1/2 125/1/2 129/1/2
f 128/3/2 124/3/2 129/3/2
f 129/1/2 125/1/2 130/1/2
f 128/1/2 129/1/2 131/1/2
f 131/1/2 129/1/2 132/1/2
f 135/1/3 134/1/3 133/1/3
f 136/1/3 134/1/3 135/1/3
f 139/1/3 138/1/3 137/1/3
f 140/1/3 138/1/3 139/1/3
f 141/4/3 140/4/3 139/4/3
f 142/4/3 140/4/3 141/4/3
f 143/1/3 142/1/3 141/1/3
f 144/1/3 142/1/3 143/1/3
f 147/1/3 146/1/3 145/1/3
f 148/1/3 146/1/3 147/1/3
f 149/4/3 148/4/3 147/4/3
f 150/4/3 148/4/3 149/4/3
f 151/1/3 150/1/3 149/1/3
f 152/1/3 150/1/3 151/1/3
f 155/1/3 154/1/3 153/1/3
f 156/1/3 154/1/3 155/1/3
f 157/4/3 156/4/3 155/4/3
f 158/4/3 156/4/3 157/4/3
f 159/1/3 158/1/3 157/1/3
f 160/1/3 158/1/3 159/1/3
f 163/1/3 162/1/3 161/1/3
f 164/1/3 162/1/3 163/1/3
f 165/4/3 164/4/3 163/4/3
f 166/4/3 164/4/3 165/4/3
f 167/1/3 166/1/3 165/1/3
f 168/1/3 166/1/3 167/1/3
f 171/1/3 170/1/3 169/1/3
f 172/1/3 170/1/3 171/1/3
f 173/4/3 172/4/3 171/4/3
f 174/4/3 172/4/3 173/4/3
f 175/1/3 174/1/3 173/1/3
f 176/1/3 174/1/3 175/1/3
f 179/1/3 178/1/3 177/1/3
f 180/1/3 178/1/3 179/1/3
f 181/4/3 180/4/3 179/4/3
f 182/4/3 180/4/3 181/4/3
f 183/1/3 182/1/3 181/1/3
f 184/1/3 182/1/3 183/1/3
f 187/1/3 186/1/3 185/1/3
f 188/1/3 186/1/3 187/1/3
f 189/4/3 188/4/3 187/4/3
f 190/4/3 188/4/3 189/4/3
f 191/1/3 190/1/3 189/1/3
f 192/1/3 190/1/3 191/1/3
f 198/2/3 194/2/3 193/2/3
f 199/2/3 194/2/3 198/2/3
f 200/2/3 196/2/3 195/2/3
f 201/2/3 196/2/3 200/2/3
f 203/2/3 199/2/3 198/2/3
f 203/2/3 202/2/3 201/2/3
f 203/2/3 201/2/3 200/2/3
f 203/2/3 200/2/3 199/2/3
f 203/2/3 198/2/3 197/2/3
f 204/2/3 202/2/3 203/2/3
f 205/2/3 202/2/3 204/2/3
f 206/2/3 202/2/3 205/2/3
f 207/2/3 202/2/3 206/2/3
f 208/2/3 202/2/3 207/2/3
f 209/2/3 205/2/3 204/2/3
f 210/2/3 205/2/3 209/2/3
f 211/2/3 207/2/3 206/2/3
f 212/2/3 207/2/3 211/2/3
f 213/1/4 214/1/4 215/1/4
f 215/1/4 214/1/4 216/1/4
f 215/4/4 216/4/4 217/4/4
f 217/4/4 216/4/4 218/4/4
f 217/1/4 218/1/4 219/1/4
f 219/1/4 218/1/4 220/1/4
f 221/1/4 222/1/4 223/1/4
f 223/1/4 222/1/4 224/1/4
f 223/4/4 224/4/4 225/4/4
f 225/4/4 224/4/4 226/4/4
f 225/1/4 226/1/4 227/1/4
f 227/1/4 226/1/4 228/1/4
f 229/1/4 230/1/4 231/1/4
f 231/1/4 230/1/4 232/1/4
f 231/4/4 232/4/4 233/4/4
f 233/4/4 232/4/4 234/4/4
f 233/1/4 234/1/4 235/1/4
f 235/1/4 234/1/4 236/1/4
f 237/2/4 238/2/4 242/2/4
f 242/2/4 238/2/4 243/2/4
f 239/2/4 240/2/4 244/2/4
f 244/2/4 240/2/4 245/2/4
f 242/2/4 243/2/4 247/2/4
f 245/2/4 246/2/4 247/2/4
f 244/2/4 245/2/4 247/2/4
f 243/2/4 244/2/4 247/2/4
f 241/2/4 242/2/4 247/2/4
f 247/2/4 246/2/4 248/2/4
f 248/2/4 246/2/4 249/2/4
f 249/2/4 246/2/4 250/2/4
f 250/2/4 246/2/4 251/2/4
f 251/2/4 246/2/4 252/2/4
f 248/2/4 249/2/4 253/2/4
f 253/2/4 249/2/4 254/2/4
f 250/2/4 251/2/4 255/2/4
f 255/2/4 251/2/4 256/2/4
f 257/1/4 258/1/4 259/1/4
f 259/1/4 258/1/4 260/1/4
f 259/4/4 260/4/4 261/4/4
f 261/4/4 260/4/4 262/4/4
f 261/1/4 262/1/4 263/1/4
f 263/1/4 262/1/4 264/1/4
f 265/1/4 266/1/4 267/1/4
f 267/1/4 266/1/4 268/1/4
f 267/4/4 268/4/4 269/4/4
f 269/4/4 268/4/4 270/4/4
f 269/1/4 270/1/4 271/1/4
f 271/1/4 270/1/4 272/1/4
f 273/1/4 274/1/4 275/1/4
f 275/1/4 274/1/4 276/1/4
f 275/4/4 276/4/4 277/4/4
f 277/4/4 276/4/4 278/4/4
f 277/1/4 278/1/4 279/1/4
f 279/1/4 278/1/4 280/1/4
f 281/1/4 282/1/4 283/1/4
f 283/1/4 282/1/4 284/1/4
f 283/4/4 284/4/4 285/4/4
f 285/4/4 284/4/4 286/4/4
f 285/1/4 286/1/4 287/1/4
f 287/1/4 286/1/4 288/1/4
f 289/1/4 290/1/4 291/1/4
f 291/1/4 290/1/4 292/1/4
f 295/1/5 294/1/5 293/1/5
f 296/1/5 294/1/5 295/1/5
f 297/1/5 295/1/5 293/1/5
f 298/4/5 296/4/5 295/4/5
f 298/1/5 295/1/5 297/1/5
f 299/1/5 294/1/5 296/1/5
f 299/4/5 296/4/5 298/4/5
f 300/1/5 294/1/5 299/1/5
f 301/3/5 298/3/5 297/3/5
f 302/4/5 299/4/5 298/4/5
f 302/3/5 298/3/5 301/3/5
f 303/3/5 300/3/5 299/3/5
f 303/4/5 299/4/5 302/4/5
f 304/3/5 300/3/5 303/3/5
f 305/1/5 302/1/5 301/1/5
f 305/4/5 303/4/5 302/4/5
f 306/1/5 304/1/5 303/1/5
f 306/4/5 303/4/5 305/4/5
f 307/1/5 305/1/5 301/1/5
f 307/1/5 306/1/5 305/1/5
f 308/1/5 304/1/5 306/1/5
f 308/1/5 306/1/5 307/1/5
f 311/2/5 310/2/5 309/2/5
f 312/2/5 310/2/5 311/2/5
f 315/2/5 314/2/5 313/2/5
f 316/2/5 314/2/5 315/2/5
f 319/2/5 318/2/5 317/2/5
f 320/2/5 318/2/5 319/2/5
f 323/2/5 322/2/5 321/2/5
f 324/2/5 322/2/5 323/2/5
f 325/1/6 326/1/6 327/1/6
f 327/1/6 326/1/6 328/1/6
f 325/1/6 327/1/6 329/1/6
f 327/4/6 328/4/6 330/4/6
f 329/1/6 327/1/6 330/1/6
f 328/1/6 326/1/6 331/1/6
f 330/4/6 328/4/6 331/4/6
f 331/1/6 326/1/6 332/1/6
f 333/1/6 334/1/6 337/1/6
f 334/4/6 335/4/6 337/4/6
f 335/1/6 336/1/6 338/1/6
f 337/4/6 335/4/6 338/4/6
f 333/1/6 337/1/6 339/1/6
f 337/1/6 338/1/6 339/1/6
f 338/1/6 336/1/6 340/1/6
f 339/1/6 338/1/6 340/1/6
f 341/1/6 342/1/6 345/1/6
f 342/4/6 343/4/6 346/4/6
f 345/1/6 342/1/6 346/1/6
f 343/1/6 344/1/6 347/1/6
f 346/4/6 343/4/6 347/4/6
f 347/1/6 344/1/6 348/1/6
f 349/1/6 350/1/6 353/1/6
f 350/4/6 351/4/6 354/4/6
f 353/1/6 350/1/6 354/1/6
f 351/1/6 352/1/6 355/1/6
f 354/4/6 351/4/6 355/4/6
f 355/1/6 352/1/6 356/1/6
f 357/1/6 358/1/6 361/1/6
f 358/4/6 359/4/6 362/4/6
f 361/1/6 358/1/6 362/1/6
f 359/1/6 360/1/6 363/1/6
f 362/4/6 359/4/6 363/4/6
f 363/1/6 360/1/6 364/1/6
f 365/1/6 366/1/6 369/1/6
f 366/4/6 367/4/6 370/4/6
f 369/1/6 366/1/6 370/1/6
f 367/1/6 368/1/6 371/1/6
f 370/4/6 367/4/6 371/4/6
f 371/1/6 368/1/6 372/1/6
f 373/1/6 374/1/6 377/1/6
f 374/4/6 375/4/6 378/4/6
f 377/1/6 374/1/6 378/1/6
f 375/1/6 376/1/6 379/1/6
f 378/4/6 375/4/6 379/4/6
f 379/1/6 376/1/6 380/1/6
f 381/1/6 382/1/6 385/1/6
f 382/4/6 383/4/6 386/4/6
f 385/1/6 382/1/6 386/1/6
f 383/1/6 384/1/6 387/1/6
f 386/4/6 383/4/6 387/4/6
f 387/1/6 384/1/6 388/1/6
f 389/1/6 390/1/6 393/1/6
f 390/4/6 391/4/6 394/4/6
f 393/1/6 390/1/6 394/1/6
f 391/1/6 392/1/6 395/1/6
f 394/4/6 391/4/6 395/4/6
f 395/1/6 392/1/6 396/1/6
f 398/4/6 399/4/6 401/4/6
f 401/4/6 399/4/6 402/4/6
f 398/4/6 401/4/6 403/4/6
f 402/4/6 399/4/6 404/4/6
f 397/1/6 398/1/6 405/1/6
f 403/4/6 404/4/6 406/4/6
f 405/1/6 398/1/6 406/1/6
f 398/4/6 403/4/6 406/4/6
f 399/1/6 400/1/6 407/1/6
f 406/4/6 404/4/6 407/4/6
f 404/4/6 399/4/6 407/4/6
f 407/1/6 400/1/6 408/1/6
f 409/1/6 410/1/6 413/1/6
f 410/4/6 411/4/6 414/4/6
f 413/1/6 410/1/6 414/1/6
f 411/1/6 412/1/6 415/1/6
f 414/4/6 411/4/6 415/4/6
f 415/1/6 412/1/6 416/1/6
f 417/1/6 418/1/6 421/1/6
f 418/4/6 419/4/6 422/4/6
f 421/1/6 418/1/6 422/1/6
f 419/1/6 420/1/6 423/1/6
f 422/4/6 419/4/6 423/4/6
f 423/1/6 420/1/6 424/1/6
f 425/1/6 426/1/6 429/1/6
f 426/4/6 427/4/6 430/4/6
f 429/1/6 426/1/6 430/1/6
f 427/1/6 428/1/6 431/1/6
f 430/4/6 427/4/6 431/4/6
f 431/1/6 428/1/6 432/1/6
f 433/1/6 434/1/6 437/1/6
f 434/4/6 435/4/6 438/4/6
f 437/1/6 434/1/6 438/1/6
f 435/1/6 436/1/6 439/1/6
f 438/4/6 435/4/6 439/4/6
f 439/1/6 436/1/6 440/1/6
f 441/1/6 442/1/6 445/1/6
f 442/4/6 443/4/6 446/4/6
f 445/1/6 442/1/6 446/1/6
f 443/1/6 444/1/6 447/1/6
f 446/4/6 443/4/6 447/4/6
f 447/1/6 444/1/6 448/1/6
f 449/2/6 450/2/6 451/2/6
f 451/2/6 450/2/6 452/2/6
f 453/2/6 454/2/6 455/2/6
f 455/2/6 454/2/6 456/2/6
f 457/2/6 458/2/6 459/2/6
f 459/2/6 458/2/6 460/2/6
f 461/2/6 462/2/6 463/2/6
f 463/2/6 462/2/6 464/2/6
f 465/2/6 466/2/6 467/2/6
f 467/2/6 466/2/6 468/2/6
