# MagicaVoxel @ Ephtracy

# group
o 

# material
mtllib ApartmentF1.mtl
usemtl palette

# normals
vn -1 0 0
vn 1 0 0
vn 0 0 1
vn 0 0 -1
vn 0 -1 0
vn 0 1 0

# texcoords
vt 0.00195313 0.5
vt 0.00976563 0.5
vt 0.0136719 0.5

# verts
v -10 0 4.9
v -10 0 3.2
v -10 0 3.1
v -10 0 1.1
v -10 0 1
v -10 0 -1
v -10 0 -1.1
v -10 0 -3.1
v -10 0 -3.2
v -10 0 -4.9
v -10 0.9 4.6
v -10 0.9 3.5
v -10 0.9 2.7
v -10 0.9 1.5
v -10 0.9 0.6
v -10 0.9 -0.6
v -10 0.9 -1.5
v -10 0.9 -2.7
v -10 0.9 -3.5
v -10 0.9 -4.6
v -10 1 4.5
v -10 1 3.6
v -10 1 2.6
v -10 1 1.6
v -10 1 0.5
v -10 1 -0.5
v -10 1 -1.6
v -10 1 -2.6
v -10 1 -3.6
v -10 1 -4.5
v -10 1.9 4.5
v -10 1.9 3.6
v -10 1.9 2.6
v -10 1.9 1.6
v -10 1.9 0.5
v -10 1.9 -0.5
v -10 1.9 -1.6
v -10 1.9 -2.6
v -10 1.9 -3.6
v -10 1.9 -4.5
v -10 2 4.6
v -10 2 3.5
v -10 2 2.7
v -10 2 1.5
v -10 2 0.6
v -10 2 -0.6
v -10 2 -1.5
v -10 2 -2.7
v -10 2 -3.5
v -10 2 -4.6
v -10 3 4.9
v -10 3 3.2
v -10 3 3.1
v -10 3 1.1
v -10 3 1
v -10 3 -1
v -10 3 -1.1
v -10 3 -3.1
v -10 3 -3.2
v -10 3 -4.9
v -9.9 0 5
v -9.9 0 4.9
v -9.9 0 3.2
v -9.9 0 3.1
v -9.9 0 1.1
v -9.9 0 1
v -9.9 0 -1
v -9.9 0 -1.1
v -9.9 0 -3.1
v -9.9 0 -3.2
v -9.9 0 -4.9
v -9.9 0 -5
v -9.9 3 5
v -9.9 3 4.9
v -9.9 3 3.2
v -9.9 3 3.1
v -9.9 3 1.1
v -9.9 3 1
v -9.9 3 -1
v -9.9 3 -1.1
v -9.9 3 -3.1
v -9.9 3 -3.2
v -9.9 3 -4.9
v -9.9 3 -5
v -9.8 1 4.5
v -9.8 1 3.6
v -9.8 1 2.6
v -9.8 1 1.6
v -9.8 1 0.5
v -9.8 1 -0.5
v -9.8 1 -1.6
v -9.8 1 -2.6
v -9.8 1 -3.6
v -9.8 1 -4.5
v -9.8 1.9 4.5
v -9.8 1.9 3.6
v -9.8 1.9 2.6
v -9.8 1.9 1.6
v -9.8 1.9 0.5
v -9.8 1.9 -0.5
v -9.8 1.9 -1.6
v -9.8 1.9 -2.6
v -9.8 1.9 -3.6
v -9.8 1.9 -4.5
v -8.5 1 5
v -8.5 1 4.8
v -8.5 1 -4.8
v -8.5 1 -5
v -8.5 1.9 5
v -8.5 1.9 4.8
v -8.5 1.9 -4.8
v -8.5 1.9 -5
v -7.9 0 5
v -7.9 0 4.9
v -7.9 0 -4.9
v -7.9 0 -5
v -7.9 3 5
v -7.9 3 4.9
v -7.9 3 -4.9
v -7.9 3 -5
v -6.5 1 5
v -6.5 1 4.8
v -6.5 1 -4.8
v -6.5 1 -5
v -6.5 1.9 5
v -6.5 1.9 4.8
v -6.5 1.9 -4.8
v -6.5 1.9 -5
v -5.9 0 5
v -5.9 0 4.9
v -5.9 0 -4.9
v -5.9 0 -5
v -5.9 3 5
v -5.9 3 4.9
v -5.9 3 -4.9
v -5.9 3 -5
v -4.5 1 5
v -4.5 1 4.8
v -4.5 1 -4.8
v -4.5 1 -5
v -4.5 1.9 5
v -4.5 1.9 4.8
v -4.5 1.9 -4.8
v -4.5 1.9 -5
v -3.9 0 5
v -3.9 0 4.9
v -3.9 0 -4.9
v -3.9 0 -5
v -3.9 3 5
v -3.9 3 4.9
v -3.9 3 -4.9
v -3.9 3 -5
v -2.5 1 5
v -2.5 1 4.8
v -2.5 1 -4.8
v -2.5 1 -5
v -2.5 1.9 5
v -2.5 1.9 4.8
v -2.5 1.9 -4.8
v -2.5 1.9 -5
v -0.6 2 4.5
v -0.6 2 3.9
v -0.6 2 -3.9
v -0.6 2 -4.5
v -0.6 2.1 4.5
v -0.6 2.1 3.9
v -0.6 2.1 -3.9
v -0.6 2.1 -4.5
v 0.599999 0 3.9
v 0.599999 0 3.8
v 0.599999 0 3.4
v 0.599999 0 -3.4
v 0.599999 0 -3.8
v 0.599999 0 -3.9
v 0.599999 2 3.9
v 0.599999 2 3.8
v 0.599999 2 3.7
v 0.599999 2 3.4
v 0.599999 2 -3.4
v 0.599999 2 -3.7
v 0.599999 2 -3.8
v 0.599999 2 -3.9
v 1.9 0 4.9
v 1.9 0 3.9
v 1.9 0 -3.9
v 1.9 0 -4.9
v 1.9 3 4.9
v 1.9 3 3.9
v 1.9 3 -3.9
v 1.9 3 -4.9
v 2 0 5
v 2 0 4.9
v 2 0 -4.9
v 2 0 -5
v 2 3 5
v 2 3 4.9
v 2 3 -4.9
v 2 3 -5
v 3.4 1 5
v 3.4 1 4.8
v 3.4 1 -4.8
v 3.4 1 -5
v 3.4 1.9 5
v 3.4 1.9 4.8
v 3.4 1.9 -4.8
v 3.4 1.9 -5
v 4 0 5
v 4 0 4.9
v 4 0 -4.9
v 4 0 -5
v 4 3 5
v 4 3 4.9
v 4 3 -4.9
v 4 3 -5
v 5.4 1 5
v 5.4 1 4.8
v 5.4 1 -4.8
v 5.4 1 -5
v 5.4 1.9 5
v 5.4 1.9 4.8
v 5.4 1.9 -4.8
v 5.4 1.9 -5
v 6 0 5
v 6 0 4.9
v 6 0 -4.9
v 6 0 -5
v 6 3 5
v 6 3 4.9
v 6 3 -4.9
v 6 3 -5
v 7.4 1 5
v 7.4 1 4.8
v 7.4 1 -4.8
v 7.4 1 -5
v 7.4 1.9 5
v 7.4 1.9 4.8
v 7.4 1.9 -4.8
v 7.4 1.9 -5
v 8 0 5
v 8 0 4.9
v 8 0 -4.9
v 8 0 -5
v 8 3 5
v 8 3 4.9
v 8 3 -4.9
v 8 3 -5
v 9.4 1 5
v 9.4 1 4.8
v 9.4 1 -4.8
v 9.4 1 -5
v 9.4 1.9 5
v 9.4 1.9 4.8
v 9.4 1.9 -4.8
v 9.4 1.9 -5
v -9.4 1 5
v -9.4 1 4.8
v -9.4 1 -4.8
v -9.4 1 -5
v -9.4 1.9 5
v -9.4 1.9 4.8
v -9.4 1.9 -4.8
v -9.4 1.9 -5
v -8 0 5
v -8 0 4.9
v -8 0 -4.9
v -8 0 -5
v -8 3 5
v -8 3 4.9
v -8 3 -4.9
v -8 3 -5
v -7.4 1 5
v -7.4 1 4.8
v -7.4 1 -4.8
v -7.4 1 -5
v -7.4 1.9 5
v -7.4 1.9 4.8
v -7.4 1.9 -4.8
v -7.4 1.9 -5
v -6 0 5
v -6 0 4.9
v -6 0 -4.9
v -6 0 -5
v -6 3 5
v -6 3 4.9
v -6 3 -4.9
v -6 3 -5
v -5.4 1 5
v -5.4 1 4.8
v -5.4 1 -4.8
v -5.4 1 -5
v -5.4 1.9 5
v -5.4 1.9 4.8
v -5.4 1.9 -4.8
v -5.4 1.9 -5
v -4 0 5
v -4 0 4.9
v -4 0 -4.9
v -4 0 -5
v -4 3 5
v -4 3 4.9
v -4 3 -4.9
v -4 3 -5
v -3.4 1 5
v -3.4 1 4.8
v -3.4 1 -4.8
v -3.4 1 -5
v -3.4 1.9 5
v -3.4 1.9 4.8
v -3.4 1.9 -4.8
v -3.4 1.9 -5
v -2 0 5
v -2 0 4.9
v -2 0 -4.9
v -2 0 -5
v -2 3 5
v -2 3 4.9
v -2 3 -4.9
v -2 3 -5
v -1.9 0 4.9
v -1.9 0 3.9
v -1.9 0 -3.9
v -1.9 0 -4.9
v -1.9 3 4.9
v -1.9 3 3.9
v -1.9 3 -3.9
v -1.9 3 -4.9
v -0.6 0 3.9
v -0.6 0 3.8
v -0.6 0 3.4
v -0.6 0 -3.4
v -0.6 0 -3.8
v -0.6 0 -3.9
v -0.6 2 3.9
v -0.6 2 3.8
v -0.6 2 3.7
v -0.6 2 3.4
v -0.6 2 -3.4
v -0.6 2 -3.7
v -0.6 2 -3.8
v -0.6 2 -3.9
v 0.599999 2 4.5
v 0.599999 2 3.9
v 0.599999 2 -3.9
v 0.599999 2 -4.5
v 0.599999 2.1 4.5
v 0.599999 2.1 3.9
v 0.599999 2.1 -3.9
v 0.599999 2.1 -4.5
v 2.5 1 5
v 2.5 1 4.8
v 2.5 1 -4.8
v 2.5 1 -5
v 2.5 1.9 5
v 2.5 1.9 4.8
v 2.5 1.9 -4.8
v 2.5 1.9 -5
v 3.9 0 5
v 3.9 0 4.9
v 3.9 0 -4.9
v 3.9 0 -5
v 3.9 3 5
v 3.9 3 4.9
v 3.9 3 -4.9
v 3.9 3 -5
v 4.5 1 5
v 4.5 1 4.8
v 4.5 1 -4.8
v 4.5 1 -5
v 4.5 1.9 5
v 4.5 1.9 4.8
v 4.5 1.9 -4.8
v 4.5 1.9 -5
v 5.9 0 5
v 5.9 0 4.9
v 5.9 0 -4.9
v 5.9 0 -5
v 5.9 3 5
v 5.9 3 4.9
v 5.9 3 -4.9
v 5.9 3 -5
v 6.5 1 5
v 6.5 1 4.8
v 6.5 1 -4.8
v 6.5 1 -5
v 6.5 1.9 5
v 6.5 1.9 4.8
v 6.5 1.9 -4.8
v 6.5 1.9 -5
v 7.9 0 5
v 7.9 0 4.9
v 7.9 0 -4.9
v 7.9 0 -5
v 7.9 3 5
v 7.9 3 4.9
v 7.9 3 -4.9
v 7.9 3 -5
v 8.5 1 5
v 8.5 1 4.8
v 8.5 1 -4.8
v 8.5 1 -5
v 8.5 1.9 5
v 8.5 1.9 4.8
v 8.5 1.9 -4.8
v 8.5 1.9 -5
v 9.8 1 4.5
v 9.8 1 3.6
v 9.8 1 2.6
v 9.8 1 1.6
v 9.8 1 0.5
v 9.8 1 -0.5
v 9.8 1 -1.6
v 9.8 1 -2.6
v 9.8 1 -3.6
v 9.8 1 -4.5
v 9.8 1.9 4.5
v 9.8 1.9 3.6
v 9.8 1.9 2.6
v 9.8 1.9 1.6
v 9.8 1.9 0.5
v 9.8 1.9 -0.5
v 9.8 1.9 -1.6
v 9.8 1.9 -2.6
v 9.8 1.9 -3.6
v 9.8 1.9 -4.5
v 9.9 0 5
v 9.9 0 4.9
v 9.9 0 3.2
v 9.9 0 3.1
v 9.9 0 1.1
v 9.9 0 1
v 9.9 0 -1
v 9.9 0 -1.1
v 9.9 0 -3.1
v 9.9 0 -3.2
v 9.9 0 -4.9
v 9.9 0 -5
v 9.9 3 5
v 9.9 3 4.9
v 9.9 3 3.2
v 9.9 3 3.1
v 9.9 3 1.1
v 9.9 3 1
v 9.9 3 -1
v 9.9 3 -1.1
v 9.9 3 -3.1
v 9.9 3 -3.2
v 9.9 3 -4.9
v 9.9 3 -5
v 10 0 4.9
v 10 0 3.2
v 10 0 3.1
v 10 0 1.1
v 10 0 1
v 10 0 -1
v 10 0 -1.1
v 10 0 -3.1
v 10 0 -3.2
v 10 0 -4.9
v 10 0.9 4.6
v 10 0.9 3.5
v 10 0.9 2.7
v 10 0.9 1.5
v 10 0.9 0.6
v 10 0.9 -0.6
v 10 0.9 -1.5
v 10 0.9 -2.7
v 10 0.9 -3.5
v 10 0.9 -4.6
v 10 1 4.5
v 10 1 3.6
v 10 1 2.6
v 10 1 1.6
v 10 1 0.5
v 10 1 -0.5
v 10 1 -1.6
v 10 1 -2.6
v 10 1 -3.6
v 10 1 -4.5
v 10 1.9 4.5
v 10 1.9 3.6
v 10 1.9 2.6
v 10 1.9 1.6
v 10 1.9 0.5
v 10 1.9 -0.5
v 10 1.9 -1.6
v 10 1.9 -2.6
v 10 1.9 -3.6
v 10 1.9 -4.5
v 10 2 4.6
v 10 2 3.5
v 10 2 2.7
v 10 2 1.5
v 10 2 0.6
v 10 2 -0.6
v 10 2 -1.5
v 10 2 -2.7
v 10 2 -3.5
v 10 2 -4.6
v 10 3 4.9
v 10 3 3.2
v 10 3 3.1
v 10 3 1.1
v 10 3 1
v 10 3 -1
v 10 3 -1.1
v 10 3 -3.1
v 10 3 -3.2
v 10 3 -4.9
v -9.9 0 5
v -9.9 3 5
v -9.5 0.9 5
v -9.5 2 5
v -9.4 1 5
v -9.4 1.9 5
v -8.5 1 5
v -8.5 1.9 5
v -8.4 0.9 5
v -8.4 2 5
v -8 0 5
v -8 3 5
v -7.9 0 5
v -7.9 3 5
v -7.5 0.9 5
v -7.5 2 5
v -7.4 1 5
v -7.4 1.9 5
v -6.5 1 5
v -6.5 1.9 5
v -6.4 0.9 5
v -6.4 2 5
v -6 0 5
v -6 3 5
v -5.9 0 5
v -5.9 3 5
v -5.5 0.9 5
v -5.5 2 5
v -5.4 1 5
v -5.4 1.9 5
v -4.5 1 5
v -4.5 1.9 5
v -4.4 0.9 5
v -4.4 2 5
v -4 0 5
v -4 3 5
v -3.9 0 5
v -3.9 3 5
v -3.5 0.9 5
v -3.5 2 5
v -3.4 1 5
v -3.4 1.9 5
v -2.5 1 5
v -2.5 1.9 5
v -2.4 0.9 5
v -2.4 2 5
v -2 0 5
v -2 3 5
v 2 0 5
v 2 3 5
v 2.4 0.9 5
v 2.4 2 5
v 2.5 1 5
v 2.5 1.9 5
v 3.4 1 5
v 3.4 1.9 5
v 3.5 0.9 5
v 3.5 2 5
v 3.9 0 5
v 3.9 3 5
v 4 0 5
v 4 3 5
v 4.4 0.9 5
v 4.4 2 5
v 4.5 1 5
v 4.5 1.9 5
v 5.4 1 5
v 5.4 1.9 5
v 5.5 0.9 5
v 5.5 2 5
v 5.9 0 5
v 5.9 3 5
v 6 0 5
v 6 3 5
v 6.4 0.9 5
v 6.4 2 5
v 6.5 1 5
v 6.5 1.9 5
v 7.4 1 5
v 7.4 1.9 5
v 7.5 0.9 5
v 7.5 2 5
v 7.9 0 5
v 7.9 3 5
v 8 0 5
v 8 3 5
v 8.4 0.9 5
v 8.4 2 5
v 8.5 1 5
v 8.5 1.9 5
v 9.4 1 5
v 9.4 1.9 5
v 9.5 0.9 5
v 9.5 2 5
v 9.9 0 5
v 9.9 3 5
v -10 0 4.9
v -10 3 4.9
v -9.9 0 4.9
v -9.9 3 4.9
v -8 0 4.9
v -8 3 4.9
v -7.9 0 4.9
v -7.9 3 4.9
v -6 0 4.9
v -6 3 4.9
v -5.9 0 4.9
v -5.9 3 4.9
v -4 0 4.9
v -4 3 4.9
v -3.9 0 4.9
v -3.9 3 4.9
v -2 0 4.9
v -2 3 4.9
v -1.9 0 4.9
v -1.9 3 4.9
v 1.9 0 4.9
v 1.9 3 4.9
v 2 0 4.9
v 2 3 4.9
v 3.9 0 4.9
v 3.9 3 4.9
v 4 0 4.9
v 4 3 4.9
v 5.9 0 4.9
v 5.9 3 4.9
v 6 0 4.9
v 6 3 4.9
v 7.9 0 4.9
v 7.9 3 4.9
v 8 0 4.9
v 8 3 4.9
v 9.9 0 4.9
v 9.9 3 4.9
v 10 0 4.9
v 10 3 4.9
v -9.4 1 4.8
v -9.4 1.9 4.8
v -8.5 1 4.8
v -8.5 1.9 4.8
v -7.4 1 4.8
v -7.4 1.9 4.8
v -6.5 1 4.8
v -6.5 1.9 4.8
v -5.4 1 4.8
v -5.4 1.9 4.8
v -4.5 1 4.8
v -4.5 1.9 4.8
v -3.4 1 4.8
v -3.4 1.9 4.8
v -2.5 1 4.8
v -2.5 1.9 4.8
v 2.5 1 4.8
v 2.5 1.9 4.8
v 3.4 1 4.8
v 3.4 1.9 4.8
v 4.5 1 4.8
v 4.5 1.9 4.8
v 5.4 1 4.8
v 5.4 1.9 4.8
v 6.5 1 4.8
v 6.5 1.9 4.8
v 7.4 1 4.8
v 7.4 1.9 4.8
v 8.5 1 4.8
v 8.5 1.9 4.8
v 9.4 1 4.8
v 9.4 1.9 4.8
v -0.6 2 4.5
v -0.6 2.1 4.5
v 0.599999 2 4.5
v 0.599999 2.1 4.5
v -1.9 0 3.9
v -1.9 3 3.9
v -0.6 0 3.9
v -0.6 2 3.9
v -0.6 2.1 3.9
v 0.599999 0 3.9
v 0.599999 2 3.9
v 0.599999 2.1 3.9
v 1.9 0 3.9
v 1.9 3 3.9
v -10 1 3.6
v -10 1.9 3.6
v -9.8 1 3.6
v -9.8 1.9 3.6
v 9.8 1 3.6
v 9.8 1.9 3.6
v 10 1 3.6
v 10 1.9 3.6
v -0.6 0 3.4
v -0.6 2 3.4
v 0.599999 0 3.4
v 0.599999 2 3.4
v -10 0 3.1
v -10 3 3.1
v -9.9 0 3.1
v -9.9 3 3.1
v 9.9 0 3.1
v 9.9 3 3.1
v 10 0 3.1
v 10 3 3.1
v -10 1 1.6
v -10 1.9 1.6
v -9.8 1 1.6
v -9.8 1.9 1.6
v 9.8 1 1.6
v 9.8 1.9 1.6
v 10 1 1.6
v 10 1.9 1.6
v -10 0 1
v -10 3 1
v -9.9 0 1
v -9.9 3 1
v 9.9 0 1
v 9.9 3 1
v 10 0 1
v 10 3 1
v -10 1 -0.5
v -10 1.9 -0.5
v -9.8 1 -0.5
v -9.8 1.9 -0.5
v 9.8 1 -0.5
v 9.8 1.9 -0.5
v 10 1 -0.5
v 10 1.9 -0.5
v -10 0 -1.1
v -10 3 -1.1
v -9.9 0 -1.1
v -9.9 3 -1.1
v 9.9 0 -1.1
v 9.9 3 -1.1
v 10 0 -1.1
v 10 3 -1.1
v -10 1 -2.6
v -10 1.9 -2.6
v -9.8 1 -2.6
v -9.8 1.9 -2.6
v 9.8 1 -2.6
v 9.8 1.9 -2.6
v 10 1 -2.6
v 10 1.9 -2.6
v -10 0 -3.2
v -10 3 -3.2
v -9.9 0 -3.2
v -9.9 3 -3.2
v 9.9 0 -3.2
v 9.9 3 -3.2
v 10 0 -3.2
v 10 3 -3.2
v -10 1 -4.5
v -10 1.9 -4.5
v -9.8 1 -4.5
v -9.8 1.9 -4.5
v 9.8 1 -4.5
v 9.8 1.9 -4.5
v 10 1 -4.5
v 10 1.9 -4.5
v -10 1 4.5
v -10 1.9 4.5
v -9.8 1 4.5
v -9.8 1.9 4.5
v 9.8 1 4.5
v 9.8 1.9 4.5
v 10 1 4.5
v 10 1.9 4.5
v -10 0 3.2
v -10 3 3.2
v -9.9 0 3.2
v -9.9 3 3.2
v 9.9 0 3.2
v 9.9 3 3.2
v 10 0 3.2
v 10 3 3.2
v -10 1 2.6
v -10 1.9 2.6
v -9.8 1 2.6
v -9.8 1.9 2.6
v 9.8 1 2.6
v 9.8 1.9 2.6
v 10 1 2.6
v 10 1.9 2.6
v -10 0 1.1
v -10 3 1.1
v -9.9 0 1.1
v -9.9 3 1.1
v 9.9 0 1.1
v 9.9 3 1.1
v 10 0 1.1
v 10 3 1.1
v -10 1 0.5
v -10 1.9 0.5
v -9.8 1 0.5
v -9.8 1.9 0.5
v 9.8 1 0.5
v 9.8 1.9 0.5
v 10 1 0.5
v 10 1.9 0.5
v -10 0 -1
v -10 3 -1
v -9.9 0 -1
v -9.9 3 -1
v 9.9 0 -1
v 9.9 3 -1
v 10 0 -1
v 10 3 -1
v -10 1 -1.6
v -10 1.9 -1.6
v -9.8 1 -1.6
v -9.8 1.9 -1.6
v 9.8 1 -1.6
v 9.8 1.9 -1.6
v 10 1 -1.6
v 10 1.9 -1.6
v -10 0 -3.1
v -10 3 -3.1
v -9.9 0 -3.1
v -9.9 3 -3.1
v 9.9 0 -3.1
v 9.9 3 -3.1
v 10 0 -3.1
v 10 3 -3.1
v -0.6 0 -3.4
v -0.6 2 -3.4
v 0.599999 0 -3.4
v 0.599999 2 -3.4
v -10 1 -3.6
v -10 1.9 -3.6
v -9.8 1 -3.6
v -9.8 1.9 -3.6
v 9.8 1 -3.6
v 9.8 1.9 -3.6
v 10 1 -3.6
v 10 1.9 -3.6
v -1.9 0 -3.9
v -1.9 3 -3.9
v -0.6 0 -3.9
v -0.6 2 -3.9
v -0.6 2.1 -3.9
v 0.599999 0 -3.9
v 0.599999 2 -3.9
v 0.599999 2.1 -3.9
v 1.9 0 -3.9
v 1.9 3 -3.9
v -0.6 2 -4.5
v -0.6 2.1 -4.5
v 0.599999 2 -4.5
v 0.599999 2.1 -4.5
v -9.4 1 -4.8
v -9.4 1.9 -4.8
v -8.5 1 -4.8
v -8.5 1.9 -4.8
v -7.4 1 -4.8
v -7.4 1.9 -4.8
v -6.5 1 -4.8
v -6.5 1.9 -4.8
v -5.4 1 -4.8
v -5.4 1.9 -4.8
v -4.5 1 -4.8
v -4.5 1.9 -4.8
v -3.4 1 -4.8
v -3.4 1.9 -4.8
v -2.5 1 -4.8
v -2.5 1.9 -4.8
v 2.5 1 -4.8
v 2.5 1.9 -4.8
v 3.4 1 -4.8
v 3.4 1.9 -4.8
v 4.5 1 -4.8
v 4.5 1.9 -4.8
v 5.4 1 -4.8
v 5.4 1.9 -4.8
v 6.5 1 -4.8
v 6.5 1.9 -4.8
v 7.4 1 -4.8
v 7.4 1.9 -4.8
v 8.5 1 -4.8
v 8.5 1.9 -4.8
v 9.4 1 -4.8
v 9.4 1.9 -4.8
v -10 0 -4.9
v -10 3 -4.9
v -9.9 0 -4.9
v -9.9 3 -4.9
v -8 0 -4.9
v -8 3 -4.9
v -7.9 0 -4.9
v -7.9 3 -4.9
v -6 0 -4.9
v -6 3 -4.9
v -5.9 0 -4.9
v -5.9 3 -4.9
v -4 0 -4.9
v -4 3 -4.9
v -3.9 0 -4.9
v -3.9 3 -4.9
v -2 0 -4.9
v -2 3 -4.9
v -1.9 0 -4.9
v -1.9 3 -4.9
v 1.9 0 -4.9
v 1.9 3 -4.9
v 2 0 -4.9
v 2 3 -4.9
v 3.9 0 -4.9
v 3.9 3 -4.9
v 4 0 -4.9
v 4 3 -4.9
v 5.9 0 -4.9
v 5.9 3 -4.9
v 6 0 -4.9
v 6 3 -4.9
v 7.9 0 -4.9
v 7.9 3 -4.9
v 8 0 -4.9
v 8 3 -4.9
v 9.9 0 -4.9
v 9.9 3 -4.9
v 10 0 -4.9
v 10 3 -4.9
v -9.9 0 -5
v -9.9 3 -5
v -9.5 0.9 -5
v -9.5 2 -5
v -9.4 1 -5
v -9.4 1.9 -5
v -8.5 1 -5
v -8.5 1.9 -5
v -8.4 0.9 -5
v -8.4 2 -5
v -8 0 -5
v -8 3 -5
v -7.9 0 -5
v -7.9 3 -5
v -7.5 0.9 -5
v -7.5 2 -5
v -7.4 1 -5
v -7.4 1.9 -5
v -6.5 1 -5
v -6.5 1.9 -5
v -6.4 0.9 -5
v -6.4 2 -5
v -6 0 -5
v -6 3 -5
v -5.9 0 -5
v -5.9 3 -5
v -5.5 0.9 -5
v -5.5 2 -5
v -5.4 1 -5
v -5.4 1.9 -5
v -4.5 1 -5
v -4.5 1.9 -5
v -4.4 0.9 -5
v -4.4 2 -5
v -4 0 -5
v -4 3 -5
v -3.9 0 -5
v -3.9 3 -5
v -3.5 0.9 -5
v -3.5 2 -5
v -3.4 1 -5
v -3.4 1.9 -5
v -2.5 1 -5
v -2.5 1.9 -5
v -2.4 0.9 -5
v -2.4 2 -5
v -2 0 -5
v -2 3 -5
v 2 0 -5
v 2 3 -5
v 2.4 0.9 -5
v 2.4 2 -5
v 2.5 1 -5
v 2.5 1.9 -5
v 3.4 1 -5
v 3.4 1.9 -5
v 3.5 0.9 -5
v 3.5 2 -5
v 3.9 0 -5
v 3.9 3 -5
v 4 0 -5
v 4 3 -5
v 4.4 0.9 -5
v 4.4 2 -5
v 4.5 1 -5
v 4.5 1.9 -5
v 5.4 1 -5
v 5.4 1.9 -5
v 5.5 0.9 -5
v 5.5 2 -5
v 5.9 0 -5
v 5.9 3 -5
v 6 0 -5
v 6 3 -5
v 6.4 0.9 -5
v 6.4 2 -5
v 6.5 1 -5
v 6.5 1.9 -5
v 7.4 1 -5
v 7.4 1.9 -5
v 7.5 0.9 -5
v 7.5 2 -5
v 7.9 0 -5
v 7.9 3 -5
v 8 0 -5
v 8 3 -5
v 8.4 0.9 -5
v 8.4 2 -5
v 8.5 1 -5
v 8.5 1.9 -5
v 9.4 1 -5
v 9.4 1.9 -5
v 9.5 0.9 -5
v 9.5 2 -5
v 9.9 0 -5
v 9.9 3 -5
v -9.9 0 5
v -8 0 5
v -7.9 0 5
v -6 0 5
v -5.9 0 5
v -4 0 5
v -3.9 0 5
v -2 0 5
v 2 0 5
v 3.9 0 5
v 4 0 5
v 5.9 0 5
v 6 0 5
v 7.9 0 5
v 8 0 5
v 9.9 0 5
v -10 0 4.9
v -9.9 0 4.9
v -8 0 4.9
v -7.9 0 4.9
v -6 0 4.9
v -5.9 0 4.9
v -4 0 4.9
v -3.9 0 4.9
v -2 0 4.9
v -1.9 0 4.9
v 1.9 0 4.9
v 2 0 4.9
v 3.9 0 4.9
v 4 0 4.9
v 5.9 0 4.9
v 6 0 4.9
v 7.9 0 4.9
v 8 0 4.9
v 9.9 0 4.9
v 10 0 4.9
v -1.9 0 3.9
v -0.6 0 3.9
v 0.599999 0 3.9
v 1.9 0 3.9
v -0.7 0 3.8
v -0.6 0 3.8
v 0.599999 0 3.8
v 0.7 0 3.8
v -0.7 0 3.4
v -0.6 0 3.4
v 0.599999 0 3.4
v 0.7 0 3.4
v -0.6 0 3.3
v 0.599999 0 3.3
v -10 0 3.2
v -9.9 0 3.2
v 9.9 0 3.2
v 10 0 3.2
v -10 0 3.1
v -9.9 0 3.1
v 9.9 0 3.1
v 10 0 3.1
v -10 0 1.1
v -9.9 0 1.1
v 9.9 0 1.1
v 10 0 1.1
v -10 0 1
v -9.9 0 1
v 9.9 0 1
v 10 0 1
v -10 0 -1
v -9.9 0 -1
v 9.9 0 -1
v 10 0 -1
v -10 0 -1.1
v -9.9 0 -1.1
v 9.9 0 -1.1
v 10 0 -1.1
v -10 0 -3.1
v -9.9 0 -3.1
v 9.9 0 -3.1
v 10 0 -3.1
v -10 0 -3.2
v -9.9 0 -3.2
v 9.9 0 -3.2
v 10 0 -3.2
v -0.6 0 -3.3
v 0.599999 0 -3.3
v -0.7 0 -3.4
v -0.6 0 -3.4
v 0.599999 0 -3.4
v 0.7 0 -3.4
v -0.7 0 -3.8
v -0.6 0 -3.8
v 0.599999 0 -3.8
v 0.7 0 -3.8
v -1.9 0 -3.9
v -0.6 0 -3.9
v 0.599999 0 -3.9
v 1.9 0 -3.9
v -10 0 -4.9
v -9.9 0 -4.9
v -8 0 -4.9
v -7.9 0 -4.9
v -6 0 -4.9
v -5.9 0 -4.9
v -4 0 -4.9
v -3.9 0 -4.9
v -2 0 -4.9
v -1.9 0 -4.9
v 1.9 0 -4.9
v 2 0 -4.9
v 3.9 0 -4.9
v 4 0 -4.9
v 5.9 0 -4.9
v 6 0 -4.9
v 7.9 0 -4.9
v 8 0 -4.9
v 9.9 0 -4.9
v 10 0 -4.9
v -9.9 0 -5
v -8 0 -5
v -7.9 0 -5
v -6 0 -5
v -5.9 0 -5
v -4 0 -5
v -3.9 0 -5
v -2 0 -5
v 2 0 -5
v 3.9 0 -5
v 4 0 -5
v 5.9 0 -5
v 6 0 -5
v 7.9 0 -5
v 8 0 -5
v 9.9 0 -5
v -9.4 1.9 5
v -8.5 1.9 5
v -7.4 1.9 5
v -6.5 1.9 5
v -5.4 1.9 5
v -4.5 1.9 5
v -3.4 1.9 5
v -2.5 1.9 5
v 2.5 1.9 5
v 3.4 1.9 5
v 4.5 1.9 5
v 5.4 1.9 5
v 6.5 1.9 5
v 7.4 1.9 5
v 8.5 1.9 5
v 9.4 1.9 5
v -9.4 1.9 4.8
v -8.5 1.9 4.8
v -7.4 1.9 4.8
v -6.5 1.9 4.8
v -5.4 1.9 4.8
v -4.5 1.9 4.8
v -3.4 1.9 4.8
v -2.5 1.9 4.8
v 2.5 1.9 4.8
v 3.4 1.9 4.8
v 4.5 1.9 4.8
v 5.4 1.9 4.8
v 6.5 1.9 4.8
v 7.4 1.9 4.8
v 8.5 1.9 4.8
v 9.4 1.9 4.8
v -10 1.9 4.5
v -9.8 1.9 4.5
v 9.8 1.9 4.5
v 10 1.9 4.5
v -10 1.9 3.6
v -9.8 1.9 3.6
v 9.8 1.9 3.6
v 10 1.9 3.6
v -10 1.9 2.6
v -9.8 1.9 2.6
v 9.8 1.9 2.6
v 10 1.9 2.6
v -10 1.9 1.6
v -9.8 1.9 1.6
v 9.8 1.9 1.6
v 10 1.9 1.6
v -10 1.9 0.5
v -9.8 1.9 0.5
v 9.8 1.9 0.5
v 10 1.9 0.5
v -10 1.9 -0.5
v -9.8 1.9 -0.5
v 9.8 1.9 -0.5
v 10 1.9 -0.5
v -10 1.9 -1.6
v -9.8 1.9 -1.6
v 9.8 1.9 -1.6
v 10 1.9 -1.6
v -10 1.9 -2.6
v -9.8 1.9 -2.6
v 9.8 1.9 -2.6
v 10 1.9 -2.6
v -10 1.9 -3.6
v -9.8 1.9 -3.6
v 9.8 1.9 -3.6
v 10 1.9 -3.6
v -10 1.9 -4.5
v -9.8 1.9 -4.5
v 9.8 1.9 -4.5
v 10 1.9 -4.5
v -9.4 1.9 -4.8
v -8.5 1.9 -4.8
v -7.4 1.9 -4.8
v -6.5 1.9 -4.8
v -5.4 1.9 -4.8
v -4.5 1.9 -4.8
v -3.4 1.9 -4.8
v -2.5 1.9 -4.8
v 2.5 1.9 -4.8
v 3.4 1.9 -4.8
v 4.5 1.9 -4.8
v 5.4 1.9 -4.8
v 6.5 1.9 -4.8
v 7.4 1.9 -4.8
v 8.5 1.9 -4.8
v 9.4 1.9 -4.8
v -9.4 1.9 -5
v -8.5 1.9 -5
v -7.4 1.9 -5
v -6.5 1.9 -5
v -5.4 1.9 -5
v -4.5 1.9 -5
v -3.4 1.9 -5
v -2.5 1.9 -5
v 2.5 1.9 -5
v 3.4 1.9 -5
v 4.5 1.9 -5
v 5.4 1.9 -5
v 6.5 1.9 -5
v 7.4 1.9 -5
v 8.5 1.9 -5
v 9.4 1.9 -5
v -0.6 2 4.5
v 0.599999 2 4.5
v -0.6 2 3.9
v 0.599999 2 3.9
v -0.6 2 3.8
v 0.599999 2 3.8
v -0.6 2 3.7
v 0.599999 2 3.7
v -0.6 2 3.4
v 0.599999 2 3.4
v -0.6 2 -3.4
v 0.599999 2 -3.4
v -0.6 2 -3.7
v 0.599999 2 -3.7
v -0.6 2 -3.8
v 0.599999 2 -3.8
v -0.6 2 -3.9
v 0.599999 2 -3.9
v -0.6 2 -4.5
v 0.599999 2 -4.5
v -9.4 1 5
v -8.5 1 5
v -7.4 1 5
v -6.5 1 5
v -5.4 1 5
v -4.5 1 5
v -3.4 1 5
v -2.5 1 5
v 2.5 1 5
v 3.4 1 5
v 4.5 1 5
v 5.4 1 5
v 6.5 1 5
v 7.4 1 5
v 8.5 1 5
v 9.4 1 5
v -9.4 1 4.8
v -8.5 1 4.8
v -7.4 1 4.8
v -6.5 1 4.8
v -5.4 1 4.8
v -4.5 1 4.8
v -3.4 1 4.8
v -2.5 1 4.8
v 2.5 1 4.8
v 3.4 1 4.8
v 4.5 1 4.8
v 5.4 1 4.8
v 6.5 1 4.8
v 7.4 1 4.8
v 8.5 1 4.8
v 9.4 1 4.8
v -10 1 4.5
v -9.8 1 4.5
v 9.8 1 4.5
v 10 1 4.5
v -10 1 3.6
v -9.8 1 3.6
v 9.8 1 3.6
v 10 1 3.6
v -10 1 2.6
v -9.8 1 2.6
v 9.8 1 2.6
v 10 1 2.6
v -10 1 1.6
v -9.8 1 1.6
v 9.8 1 1.6
v 10 1 1.6
v -10 1 0.5
v -9.8 1 0.5
v 9.8 1 0.5
v 10 1 0.5
v -10 1 -0.5
v -9.8 1 -0.5
v 9.8 1 -0.5
v 10 1 -0.5
v -10 1 -1.6
v -9.8 1 -1.6
v 9.8 1 -1.6
v 10 1 -1.6
v -10 1 -2.6
v -9.8 1 -2.6
v 9.8 1 -2.6
v 10 1 -2.6
v -10 1 -3.6
v -9.8 1 -3.6
v 9.8 1 -3.6
v 10 1 -3.6
v -10 1 -4.5
v -9.8 1 -4.5
v 9.8 1 -4.5
v 10 1 -4.5
v -9.4 1 -4.8
v -8.5 1 -4.8
v -7.4 1 -4.8
v -6.5 1 -4.8
v -5.4 1 -4.8
v -4.5 1 -4.8
v -3.4 1 -4.8
v -2.5 1 -4.8
v 2.5 1 -4.8
v 3.4 1 -4.8
v 4.5 1 -4.8
v 5.4 1 -4.8
v 6.5 1 -4.8
v 7.4 1 -4.8
v 8.5 1 -4.8
v 9.4 1 -4.8
v -9.4 1 -5
v -8.5 1 -5
v -7.4 1 -5
v -6.5 1 -5
v -5.4 1 -5
v -4.5 1 -5
v -3.4 1 -5
v -2.5 1 -5
v 2.5 1 -5
v 3.4 1 -5
v 4.5 1 -5
v 5.4 1 -5
v 6.5 1 -5
v 7.4 1 -5
v 8.5 1 -5
v 9.4 1 -5
v -0.6 2.1 4.5
v 0.599999 2.1 4.5
v -0.6 2.1 3.9
v 0.599999 2.1 3.9
v -0.6 2.1 -3.9
v 0.599999 2.1 -3.9
v -0.6 2.1 -4.5
v 0.599999 2.1 -4.5
v -9.9 3 5
v -8 3 5
v -7.9 3 5
v -6 3 5
v -5.9 3 5
v -4 3 5
v -3.9 3 5
v -2 3 5
v 2 3 5
v 3.9 3 5
v 4 3 5
v 5.9 3 5
v 6 3 5
v 7.9 3 5
v 8 3 5
v 9.9 3 5
v -10 3 4.9
v -9.9 3 4.9
v -8 3 4.9
v -7.9 3 4.9
v -6 3 4.9
v -5.9 3 4.9
v -4 3 4.9
v -3.9 3 4.9
v -2 3 4.9
v -1.9 3 4.9
v 1.9 3 4.9
v 2 3 4.9
v 3.9 3 4.9
v 4 3 4.9
v 5.9 3 4.9
v 6 3 4.9
v 7.9 3 4.9
v 8 3 4.9
v 9.9 3 4.9
v 10 3 4.9
v -1.9 3 3.9
v 1.9 3 3.9
v -10 3 3.2
v -9.9 3 3.2
v 9.9 3 3.2
v 10 3 3.2
v -10 3 3.1
v -9.9 3 3.1
v 9.9 3 3.1
v 10 3 3.1
v -10 3 1.1
v -9.9 3 1.1
v 9.9 3 1.1
v 10 3 1.1
v -10 3 1
v -9.9 3 1
v 9.9 3 1
v 10 3 1
v -10 3 -1
v -9.9 3 -1
v 9.9 3 -1
v 10 3 -1
v -10 3 -1.1
v -9.9 3 -1.1
v 9.9 3 -1.1
v 10 3 -1.1
v -10 3 -3.1
v -9.9 3 -3.1
v 9.9 3 -3.1
v 10 3 -3.1
v -10 3 -3.2
v -9.9 3 -3.2
v 9.9 3 -3.2
v 10 3 -3.2
v -1.9 3 -3.9
v 1.9 3 -3.9
v -10 3 -4.9
v -9.9 3 -4.9
v -8 3 -4.9
v -7.9 3 -4.9
v -6 3 -4.9
v -5.9 3 -4.9
v -4 3 -4.9
v -3.9 3 -4.9
v -2 3 -4.9
v -1.9 3 -4.9
v 1.9 3 -4.9
v 2 3 -4.9
v 3.9 3 -4.9
v 4 3 -4.9
v 5.9 3 -4.9
v 6 3 -4.9
v 7.9 3 -4.9
v 8 3 -4.9
v 9.9 3 -4.9
v 10 3 -4.9
v -9.9 3 -5
v -8 3 -5
v -7.9 3 -5
v -6 3 -5
v -5.9 3 -5
v -4 3 -5
v -3.9 3 -5
v -2 3 -5
v 2 3 -5
v 3.9 3 -5
v 4 3 -5
v 5.9 3 -5
v 6 3 -5
v 7.9 3 -5
v 8 3 -5
v 9.9 3 -5

# faces
f 11/1/1 2/1/1 1/1/1
f 12/1/1 2/1/1 11/1/1
f 13/1/1 4/1/1 3/1/1
f 14/1/1 4/1/1 13/1/1
f 15/1/1 6/1/1 5/1/1
f 16/1/1 6/1/1 15/1/1
f 17/1/1 8/1/1 7/1/1
f 18/1/1 8/1/1 17/1/1
f 19/1/1 10/1/1 9/1/1
f 20/1/1 10/1/1 19/1/1
f 21/2/1 12/2/1 11/2/1
f 22/2/1 12/2/1 21/2/1
f 23/2/1 14/2/1 13/2/1
f 24/2/1 14/2/1 23/2/1
f 25/2/1 16/2/1 15/2/1
f 26/2/1 16/2/1 25/2/1
f 27/2/1 18/2/1 17/2/1
f 28/2/1 18/2/1 27/2/1
f 29/2/1 20/2/1 19/2/1
f 30/2/1 20/2/1 29/2/1
f 31/2/1 21/2/1 11/2/1
f 32/2/1 12/2/1 22/2/1
f 33/2/1 23/2/1 13/2/1
f 34/2/1 14/2/1 24/2/1
f 35/2/1 25/2/1 15/2/1
f 36/2/1 16/2/1 26/2/1
f 37/2/1 27/2/1 17/2/1
f 38/2/1 18/2/1 28/2/1
f 39/2/1 29/2/1 19/2/1
f 40/2/1 20/2/1 30/2/1
f 41/1/1 11/1/1 1/1/1
f 41/2/1 31/2/1 11/2/1
f 41/2/1 32/2/1 31/2/1
f 42/1/1 2/1/1 12/1/1
f 42/2/1 32/2/1 41/2/1
f 42/2/1 12/2/1 32/2/1
f 43/1/1 13/1/1 3/1/1
f 43/2/1 33/2/1 13/2/1
f 43/2/1 34/2/1 33/2/1
f 44/1/1 4/1/1 14/1/1
f 44/2/1 34/2/1 43/2/1
f 44/2/1 14/2/1 34/2/1
f 45/1/1 15/1/1 5/1/1
f 45/2/1 35/2/1 15/2/1
f 45/2/1 36/2/1 35/2/1
f 46/1/1 6/1/1 16/1/1
f 46/2/1 36/2/1 45/2/1
f 46/2/1 16/2/1 36/2/1
f 47/1/1 17/1/1 7/1/1
f 47/2/1 37/2/1 17/2/1
f 47/2/1 38/2/1 37/2/1
f 48/1/1 8/1/1 18/1/1
f 48/2/1 38/2/1 47/2/1
f 48/2/1 18/2/1 38/2/1
f 49/2/1 40/2/1 39/2/1
f 49/1/1 19/1/1 9/1/1
f 49/2/1 39/2/1 19/2/1
f 50/1/1 10/1/1 20/1/1
f 50/2/1 40/2/1 49/2/1
f 50/2/1 20/2/1 40/2/1
f 51/1/1 41/1/1 1/1/1
f 51/1/1 42/1/1 41/1/1
f 52/1/1 2/1/1 42/1/1
f 52/1/1 42/1/1 51/1/1
f 53/1/1 43/1/1 3/1/1
f 53/1/1 44/1/1 43/1/1
f 54/1/1 4/1/1 44/1/1
f 54/1/1 44/1/1 53/1/1
f 55/1/1 45/1/1 5/1/1
f 55/1/1 46/1/1 45/1/1
f 56/1/1 6/1/1 46/1/1
f 56/1/1 46/1/1 55/1/1
f 57/1/1 47/1/1 7/1/1
f 57/1/1 48/1/1 47/1/1
f 58/1/1 8/1/1 48/1/1
f 58/1/1 48/1/1 57/1/1
f 59/1/1 49/1/1 9/1/1
f 59/1/1 50/1/1 49/1/1
f 60/1/1 10/1/1 50/1/1
f 60/1/1 50/1/1 59/1/1
f 73/1/1 62/1/1 61/1/1
f 74/1/1 62/1/1 73/1/1
f 75/1/1 64/1/1 63/1/1
f 76/1/1 64/1/1 75/1/1
f 77/1/1 66/1/1 65/1/1
f 78/1/1 66/1/1 77/1/1
f 79/1/1 68/1/1 67/1/1
f 80/1/1 68/1/1 79/1/1
f 81/1/1 70/1/1 69/1/1
f 82/1/1 70/1/1 81/1/1
f 83/1/1 72/1/1 71/1/1
f 84/1/1 72/1/1 83/1/1
f 95/3/1 86/3/1 85/3/1
f 96/3/1 86/3/1 95/3/1
f 97/3/1 88/3/1 87/3/1
f 98/3/1 88/3/1 97/3/1
f 99/3/1 90/3/1 89/3/1
f 100/3/1 90/3/1 99/3/1
f 101/3/1 92/3/1 91/3/1
f 102/3/1 92/3/1 101/3/1
f 103/3/1 94/3/1 93/3/1
f 104/3/1 94/3/1 103/3/1
f 109/2/1 106/2/1 105/2/1
f 110/2/1 106/2/1 109/2/1
f 111/2/1 108/2/1 107/2/1
f 112/2/1 108/2/1 111/2/1
f 117/1/1 114/1/1 113/1/1
f 118/1/1 114/1/1 117/1/1
f 119/1/1 116/1/1 115/1/1
f 120/1/1 116/1/1 119/1/1
f 125/2/1 122/2/1 121/2/1
f 126/2/1 122/2/1 125/2/1
f 127/2/1 124/2/1 123/2/1
f 128/2/1 124/2/1 127/2/1
f 133/1/1 130/1/1 129/1/1
f 134/1/1 130/1/1 133/1/1
f 135/1/1 132/1/1 131/1/1
f 136/1/1 132/1/1 135/1/1
f 141/2/1 138/2/1 137/2/1
f 142/2/1 138/2/1 141/2/1
f 143/2/1 140/2/1 139/2/1
f 144/2/1 140/2/1 143/2/1
f 149/1/1 146/1/1 145/1/1
f 150/1/1 146/1/1 149/1/1
f 151/1/1 148/1/1 147/1/1
f 152/1/1 148/1/1 151/1/1
f 157/2/1 154/2/1 153/2/1
f 158/2/1 154/2/1 157/2/1
f 159/2/1 156/2/1 155/2/1
f 160/2/1 156/2/1 159/2/1
f 165/1/1 162/1/1 161/1/1
f 166/1/1 162/1/1 165/1/1
f 167/1/1 164/1/1 163/1/1
f 168/1/1 164/1/1 167/1/1
f 175/1/1 170/1/1 169/1/1
f 176/2/1 171/2/1 170/2/1
f 176/1/1 170/1/1 175/1/1
f 177/2/1 171/2/1 176/2/1
f 178/2/1 171/2/1 177/2/1
f 179/2/1 173/2/1 172/2/1
f 180/2/1 173/2/1 179/2/1
f 181/1/1 174/1/1 173/1/1
f 181/2/1 173/2/1 180/2/1
f 182/1/1 174/1/1 181/1/1
f 187/1/1 184/1/1 183/1/1
f 188/1/1 184/1/1 187/1/1
f 189/1/1 186/1/1 185/1/1
f 190/1/1 186/1/1 189/1/1
f 195/1/1 192/1/1 191/1/1
f 196/1/1 192/1/1 195/1/1
f 197/1/1 194/1/1 193/1/1
f 198/1/1 194/1/1 197/1/1
f 203/2/1 200/2/1 199/2/1
f 204/2/1 200/2/1 203/2/1
f 205/2/1 202/2/1 201/2/1
f 206/2/1 202/2/1 205/2/1
f 211/1/1 208/1/1 207/1/1
f 212/1/1 208/1/1 211/1/1
f 213/1/1 210/1/1 209/1/1
f 214/1/1 210/1/1 213/1/1
f 219/2/1 216/2/1 215/2/1
f 220/2/1 216/2/1 219/2/1
f 221/2/1 218/2/1 217/2/1
f 222/2/1 218/2/1 221/2/1
f 227/1/1 224/1/1 223/1/1
f 228/1/1 224/1/1 227/1/1
f 229/1/1 226/1/1 225/1/1
f 230/1/1 226/1/1 229/1/1
f 235/2/1 232/2/1 231/2/1
f 236/2/1 232/2/1 235/2/1
f 237/2/1 234/2/1 233/2/1
f 238/2/1 234/2/1 237/2/1
f 243/1/1 240/1/1 239/1/1
f 244/1/1 240/1/1 243/1/1
f 245/1/1 242/1/1 241/1/1
f 246/1/1 242/1/1 245/1/1
f 251/2/1 248/2/1 247/2/1
f 252/2/1 248/2/1 251/2/1
f 253/2/1 250/2/1 249/2/1
f 254/2/1 250/2/1 253/2/1
f 255/2/2 256/2/2 259/2/2
f 259/2/2 256/2/2 260/2/2
f 257/2/2 258/2/2 261/2/2
f 261/2/2 258/2/2 262/2/2
f 263/1/2 264/1/2 267/1/2
f 267/1/2 264/1/2 268/1/2
f 265/1/2 266/1/2 269/1/2
f 269/1/2 266/1/2 270/1/2
f 271/2/2 272/2/2 275/2/2
f 275/2/2 272/2/2 276/2/2
f 273/2/2 274/2/2 277/2/2
f 277/2/2 274/2/2 278/2/2
f 279/1/2 280/1/2 283/1/2
f 283/1/2 280/1/2 284/1/2
f 281/1/2 282/1/2 285/1/2
f 285/1/2 282/1/2 286/1/2
f 287/2/2 288/2/2 291/2/2
f 291/2/2 288/2/2 292/2/2
f 289/2/2 290/2/2 293/2/2
f 293/2/2 290/2/2 294/2/2
f 295/1/2 296/1/2 299/1/2
f 299/1/2 296/1/2 300/1/2
f 297/1/2 298/1/2 301/1/2
f 301/1/2 298/1/2 302/1/2
f 303/2/2 304/2/2 307/2/2
f 307/2/2 304/2/2 308/2/2
f 305/2/2 306/2/2 309/2/2
f 309/2/2 306/2/2 310/2/2
f 311/1/2 312/1/2 315/1/2
f 315/1/2 312/1/2 316/1/2
f 313/1/2 314/1/2 317/1/2
f 317/1/2 314/1/2 318/1/2
f 319/1/2 320/1/2 323/1/2
f 323/1/2 320/1/2 324/1/2
f 321/1/2 322/1/2 325/1/2
f 325/1/2 322/1/2 326/1/2
f 327/1/2 328/1/2 333/1/2
f 328/2/2 329/2/2 334/2/2
f 333/1/2 328/1/2 334/1/2
f 334/2/2 329/2/2 335/2/2
f 335/2/2 329/2/2 336/2/2
f 330/2/2 331/2/2 337/2/2
f 337/2/2 331/2/2 338/2/2
f 331/1/2 332/1/2 339/1/2
f 338/2/2 331/2/2 339/2/2
f 339/1/2 332/1/2 340/1/2
f 341/1/2 342/1/2 345/1/2
f 345/1/2 342/1/2 346/1/2
f 343/1/2 344/1/2 347/1/2
f 347/1/2 344/1/2 348/1/2
f 349/2/2 350/2/2 353/2/2
f 353/2/2 350/2/2 354/2/2
f 351/2/2 352/2/2 355/2/2
f 355/2/2 352/2/2 356/2/2
f 357/1/2 358/1/2 361/1/2
f 361/1/2 358/1/2 362/1/2
f 359/1/2 360/1/2 363/1/2
f 363/1/2 360/1/2 364/1/2
f 365/2/2 366/2/2 369/2/2
f 369/2/2 366/2/2 370/2/2
f 367/2/2 368/2/2 371/2/2
f 371/2/2 368/2/2 372/2/2
f 373/1/2 374/1/2 377/1/2
f 377/1/2 374/1/2 378/1/2
f 375/1/2 376/1/2 379/1/2
f 379/1/2 376/1/2 380/1/2
f 381/2/2 382/2/2 385/2/2
f 385/2/2 382/2/2 386/2/2
f 383/2/2 384/2/2 387/2/2
f 387/2/2 384/2/2 388/2/2
f 389/1/2 390/1/2 393/1/2
f 393/1/2 390/1/2 394/1/2
f 391/1/2 392/1/2 395/1/2
f 395/1/2 392/1/2 396/1/2
f 397/2/2 398/2/2 401/2/2
f 401/2/2 398/2/2 402/2/2
f 399/2/2 400/2/2 403/2/2
f 403/2/2 400/2/2 404/2/2
f 405/3/2 406/3/2 415/3/2
f 415/3/2 406/3/2 416/3/2
f 407/3/2 408/3/2 417/3/2
f 417/3/2 408/3/2 418/3/2
f 409/3/2 410/3/2 419/3/2
f 419/3/2 410/3/2 420/3/2
f 411/3/2 412/3/2 421/3/2
f 421/3/2 412/3/2 422/3/2
f 413/3/2 414/3/2 423/3/2
f 423/3/2 414/3/2 424/3/2
f 425/1/2 426/1/2 437/1/2
f 437/1/2 426/1/2 438/1/2
f 427/1/2 428/1/2 439/1/2
f 439/1/2 428/1/2 440/1/2
f 429/1/2 430/1/2 441/1/2
f 441/1/2 430/1/2 442/1/2
f 431/1/2 432/1/2 443/1/2
f 443/1/2 432/1/2 444/1/2
f 433/1/2 434/1/2 445/1/2
f 445/1/2 434/1/2 446/1/2
f 435/1/2 436/1/2 447/1/2
f 447/1/2 436/1/2 448/1/2
f 449/1/2 450/1/2 459/1/2
f 459/1/2 450/1/2 460/1/2
f 451/1/2 452/1/2 461/1/2
f 461/1/2 452/1/2 462/1/2
f 453/1/2 454/1/2 463/1/2
f 463/1/2 454/1/2 464/1/2
f 455/1/2 456/1/2 465/1/2
f 465/1/2 456/1/2 466/1/2
f 457/1/2 458/1/2 467/1/2
f 467/1/2 458/1/2 468/1/2
f 459/2/2 460/2/2 469/2/2
f 469/2/2 460/2/2 470/2/2
f 461/2/2 462/2/2 471/2/2
f 471/2/2 462/2/2 472/2/2
f 463/2/2 464/2/2 473/2/2
f 473/2/2 464/2/2 474/2/2
f 465/2/2 466/2/2 475/2/2
f 475/2/2 466/2/2 476/2/2
f 467/2/2 468/2/2 477/2/2
f 477/2/2 468/2/2 478/2/2
f 459/2/2 469/2/2 479/2/2
f 470/2/2 460/2/2 480/2/2
f 461/2/2 471/2/2 481/2/2
f 472/2/2 462/2/2 482/2/2
f 463/2/2 473/2/2 483/2/2
f 474/2/2 464/2/2 484/2/2
f 465/2/2 475/2/2 485/2/2
f 476/2/2 466/2/2 486/2/2
f 467/2/2 477/2/2 487/2/2
f 478/2/2 468/2/2 488/2/2
f 449/1/2 459/1/2 489/1/2
f 459/2/2 479/2/2 489/2/2
f 479/2/2 480/2/2 489/2/2
f 460/1/2 450/1/2 490/1/2
f 489/2/2 480/2/2 490/2/2
f 480/2/2 460/2/2 490/2/2
f 451/1/2 461/1/2 491/1/2
f 461/2/2 481/2/2 491/2/2
f 481/2/2 482/2/2 491/2/2
f 462/1/2 452/1/2 492/1/2
f 491/2/2 482/2/2 492/2/2
f 482/2/2 462/2/2 492/2/2
f 453/1/2 463/1/2 493/1/2
f 463/2/2 483/2/2 493/2/2
f 483/2/2 484/2/2 493/2/2
f 464/1/2 454/1/2 494/1/2
f 493/2/2 484/2/2 494/2/2
f 484/2/2 464/2/2 494/2/2
f 455/1/2 465/1/2 495/1/2
f 465/2/2 485/2/2 495/2/2
f 485/2/2 486/2/2 495/2/2
f 466/1/2 456/1/2 496/1/2
f 495/2/2 486/2/2 496/2/2
f 486/2/2 466/2/2 496/2/2
f 487/2/2 488/2/2 497/2/2
f 457/1/2 467/1/2 497/1/2
f 467/2/2 487/2/2 497/2/2
f 468/1/2 458/1/2 498/1/2
f 497/2/2 488/2/2 498/2/2
f 488/2/2 468/2/2 498/2/2
f 449/1/2 489/1/2 499/1/2
f 489/1/2 490/1/2 499/1/2
f 490/1/2 450/1/2 500/1/2
f 499/1/2 490/1/2 500/1/2
f 451/1/2 491/1/2 501/1/2
f 491/1/2 492/1/2 501/1/2
f 492/1/2 452/1/2 502/1/2
f 501/1/2 492/1/2 502/1/2
f 453/1/2 493/1/2 503/1/2
f 493/1/2 494/1/2 503/1/2
f 494/1/2 454/1/2 504/1/2
f 503/1/2 494/1/2 504/1/2
f 455/1/2 495/1/2 505/1/2
f 495/1/2 496/1/2 505/1/2
f 496/1/2 456/1/2 506/1/2
f 505/1/2 496/1/2 506/1/2
f 457/1/2 497/1/2 507/1/2
f 497/1/2 498/1/2 507/1/2
f 498/1/2 458/1/2 508/1/2
f 507/1/2 498/1/2 508/1/2
f 511/1/3 510/1/3 509/1/3
f 512/1/3 510/1/3 511/1/3
f 513/2/3 512/2/3 511/2/3
f 514/2/3 512/2/3 513/2/3
f 515/2/3 513/2/3 511/2/3
f 516/2/3 512/2/3 514/2/3
f 517/1/3 511/1/3 509/1/3
f 517/2/3 516/2/3 515/2/3
f 517/2/3 515/2/3 511/2/3
f 518/2/3 512/2/3 516/2/3
f 518/2/3 516/2/3 517/2/3
f 518/1/3 510/1/3 512/1/3
f 519/1/3 517/1/3 509/1/3
f 519/1/3 518/1/3 517/1/3
f 520/1/3 510/1/3 518/1/3
f 520/1/3 518/1/3 519/1/3
f 523/1/3 522/1/3 521/1/3
f 524/1/3 522/1/3 523/1/3
f 525/2/3 524/2/3 523/2/3
f 526/2/3 524/2/3 525/2/3
f 527/2/3 525/2/3 523/2/3
f 528/2/3 524/2/3 526/2/3
f 529/1/3 523/1/3 521/1/3
f 529/2/3 528/2/3 527/2/3
f 529/2/3 527/2/3 523/2/3
f 530/2/3 524/2/3 528/2/3
f 530/2/3 528/2/3 529/2/3
f 530/1/3 522/1/3 524/1/3
f 531/1/3 529/1/3 521/1/3
f 531/1/3 530/1/3 529/1/3
f 532/1/3 522/1/3 530/1/3
f 532/1/3 530/1/3 531/1/3
f 535/1/3 534/1/3 533/1/3
f 536/1/3 534/1/3 535/1/3
f 537/2/3 536/2/3 535/2/3
f 538/2/3 536/2/3 537/2/3
f 539/2/3 537/2/3 535/2/3
f 540/2/3 536/2/3 538/2/3
f 541/1/3 535/1/3 533/1/3
f 541/2/3 540/2/3 539/2/3
f 541/2/3 539/2/3 535/2/3
f 542/2/3 536/2/3 540/2/3
f 542/2/3 540/2/3 541/2/3
f 542/1/3 534/1/3 536/1/3
f 543/1/3 541/1/3 533/1/3
f 543/1/3 542/1/3 541/1/3
f 544/1/3 534/1/3 542/1/3
f 544/1/3 542/1/3 543/1/3
f 547/1/3 546/1/3 545/1/3
f 548/1/3 546/1/3 547/1/3
f 549/2/3 548/2/3 547/2/3
f 550/2/3 548/2/3 549/2/3
f 551/2/3 549/2/3 547/2/3
f 552/2/3 548/2/3 550/2/3
f 553/1/3 547/1/3 545/1/3
f 553/2/3 552/2/3 551/2/3
f 553/2/3 551/2/3 547/2/3
f 554/2/3 548/2/3 552/2/3
f 554/2/3 552/2/3 553/2/3
f 554/1/3 546/1/3 548/1/3
f 555/1/3 553/1/3 545/1/3
f 555/1/3 554/1/3 553/1/3
f 556/1/3 546/1/3 554/1/3
f 556/1/3 554/1/3 555/1/3
f 559/1/3 558/1/3 557/1/3
f 560/1/3 558/1/3 559/1/3
f 561/2/3 560/2/3 559/2/3
f 562/2/3 560/2/3 561/2/3
f 563/2/3 561/2/3 559/2/3
f 564/2/3 560/2/3 562/2/3
f 565/1/3 559/1/3 557/1/3
f 565/2/3 564/2/3 563/2/3
f 565/2/3 563/2/3 559/2/3
f 566/2/3 560/2/3 564/2/3
f 566/2/3 564/2/3 565/2/3
f 566/1/3 558/1/3 560/1/3
f 567/1/3 565/1/3 557/1/3
f 567/1/3 566/1/3 565/1/3
f 568/1/3 558/1/3 566/1/3
f 568/1/3 566/1/3 567/1/3
f 571/1/3 570/1/3 569/1/3
f 572/1/3 570/1/3 571/1/3
f 573/2/3 572/2/3 571/2/3
f 574/2/3 572/2/3 573/2/3
f 575/2/3 573/2/3 571/2/3
f 576/2/3 572/2/3 574/2/3
f 577/1/3 571/1/3 569/1/3
f 577/2/3 576/2/3 575/2/3
f 577/2/3 575/2/3 571/2/3
f 578/2/3 572/2/3 576/2/3
f 578/2/3 576/2/3 577/2/3
f 578/1/3 570/1/3 572/1/3
f 579/1/3 577/1/3 569/1/3
f 579/1/3 578/1/3 577/1/3
f 580/1/3 570/1/3 578/1/3
f 580/1/3 578/1/3 579/1/3
f 583/1/3 582/1/3 581/1/3
f 584/1/3 582/1/3 583/1/3
f 585/2/3 584/2/3 583/2/3
f 586/2/3 584/2/3 585/2/3
f 587/2/3 585/2/3 583/2/3
f 588/2/3 584/2/3 586/2/3
f 589/1/3 583/1/3 581/1/3
f 589/2/3 588/2/3 587/2/3
f 589/2/3 587/2/3 583/2/3
f 590/2/3 584/2/3 588/2/3
f 590/2/3 588/2/3 589/2/3
f 590/1/3 582/1/3 584/1/3
f 591/1/3 589/1/3 581/1/3
f 591/1/3 590/1/3 589/1/3
f 592/1/3 582/1/3 590/1/3
f 592/1/3 590/1/3 591/1/3
f 595/1/3 594/1/3 593/1/3
f 596/1/3 594/1/3 595/1/3
f 597/2/3 596/2/3 595/2/3
f 598/2/3 596/2/3 597/2/3
f 599/2/3 597/2/3 595/2/3
f 600/2/3 596/2/3 598/2/3
f 601/1/3 595/1/3 593/1/3
f 601/2/3 600/2/3 599/2/3
f 601/2/3 599/2/3 595/2/3
f 602/2/3 596/2/3 600/2/3
f 602/2/3 600/2/3 601/2/3
f 602/1/3 594/1/3 596/1/3
f 603/1/3 601/1/3 593/1/3
f 603/1/3 602/1/3 601/1/3
f 604/1/3 594/1/3 602/1/3
f 604/1/3 602/1/3 603/1/3
f 607/1/3 606/1/3 605/1/3
f 608/1/3 606/1/3 607/1/3
f 611/1/3 610/1/3 609/1/3
f 612/1/3 610/1/3 611/1/3
f 615/1/3 614/1/3 613/1/3
f 616/1/3 614/1/3 615/1/3
f 619/1/3 618/1/3 617/1/3
f 620/1/3 618/1/3 619/1/3
f 623/1/3 622/1/3 621/1/3
f 624/1/3 622/1/3 623/1/3
f 627/1/3 626/1/3 625/1/3
f 628/1/3 626/1/3 627/1/3
f 631/1/3 630/1/3 629/1/3
f 632/1/3 630/1/3 631/1/3
f 635/1/3 634/1/3 633/1/3
f 636/1/3 634/1/3 635/1/3
f 639/1/3 638/1/3 637/1/3
f 640/1/3 638/1/3 639/1/3
f 643/1/3 642/1/3 641/1/3
f 644/1/3 642/1/3 643/1/3
f 647/3/3 646/3/3 645/3/3
f 648/3/3 646/3/3 647/3/3
f 651/3/3 650/3/3 649/3/3
f 652/3/3 650/3/3 651/3/3
f 655/3/3 654/3/3 653/3/3
f 656/3/3 654/3/3 655/3/3
f 659/3/3 658/3/3 657/3/3
f 660/3/3 658/3/3 659/3/3
f 663/3/3 662/3/3 661/3/3
f 664/3/3 662/3/3 663/3/3
f 667/3/3 666/3/3 665/3/3
f 668/3/3 666/3/3 667/3/3
f 671/3/3 670/3/3 669/3/3
f 672/3/3 670/3/3 671/3/3
f 675/3/3 674/3/3 673/3/3
f 676/3/3 674/3/3 675/3/3
f 679/1/3 678/1/3 677/1/3
f 680/1/3 678/1/3 679/1/3
f 683/1/3 682/1/3 681/1/3
f 684/1/3 682/1/3 683/1/3
f 685/1/3 682/1/3 684/1/3
f 688/1/3 682/1/3 685/1/3
f 689/1/3 687/1/3 686/1/3
f 689/1/3 688/1/3 687/1/3
f 690/1/3 682/1/3 688/1/3
f 690/1/3 688/1/3 689/1/3
f 693/2/3 692/2/3 691/2/3
f 694/2/3 692/2/3 693/2/3
f 697/2/3 696/2/3 695/2/3
f 698/2/3 696/2/3 697/2/3
f 701/2/3 700/2/3 699/2/3
f 702/2/3 700/2/3 701/2/3
f 705/1/3 704/1/3 703/1/3
f 706/1/3 704/1/3 705/1/3
f 709/1/3 708/1/3 707/1/3
f 710/1/3 708/1/3 709/1/3
f 713/2/3 712/2/3 711/2/3
f 714/2/3 712/2/3 713/2/3
f 717/2/3 716/2/3 715/2/3
f 718/2/3 716/2/3 717/2/3
f 721/1/3 720/1/3 719/1/3
f 722/1/3 720/1/3 721/1/3
f 725/1/3 724/1/3 723/1/3
f 726/1/3 724/1/3 725/1/3
f 729/2/3 728/2/3 727/2/3
f 730/2/3 728/2/3 729/2/3
f 733/2/3 732/2/3 731/2/3
f 734/2/3 732/2/3 733/2/3
f 737/1/3 736/1/3 735/1/3
f 738/1/3 736/1/3 737/1/3
f 741/1/3 740/1/3 739/1/3
f 742/1/3 740/1/3 741/1/3
f 745/2/3 744/2/3 743/2/3
f 746/2/3 744/2/3 745/2/3
f 749/2/3 748/2/3 747/2/3
f 750/2/3 748/2/3 749/2/3
f 753/1/3 752/1/3 751/1/3
f 754/1/3 752/1/3 753/1/3
f 757/1/3 756/1/3 755/1/3
f 758/1/3 756/1/3 757/1/3
f 761/2/3 760/2/3 759/2/3
f 762/2/3 760/2/3 761/2/3
f 765/2/3 764/2/3 763/2/3
f 766/2/3 764/2/3 765/2/3
f 767/2/4 768/2/4 769/2/4
f 769/2/4 768/2/4 770/2/4
f 771/2/4 772/2/4 773/2/4
f 773/2/4 772/2/4 774/2/4
f 775/1/4 776/1/4 777/1/4
f 777/1/4 776/1/4 778/1/4
f 779/1/4 780/1/4 781/1/4
f 781/1/4 780/1/4 782/1/4
f 783/2/4 784/2/4 785/2/4
f 785/2/4 784/2/4 786/2/4
f 787/2/4 788/2/4 789/2/4
f 789/2/4 788/2/4 790/2/4
f 791/1/4 792/1/4 793/1/4
f 793/1/4 792/1/4 794/1/4
f 795/1/4 796/1/4 797/1/4
f 797/1/4 796/1/4 798/1/4
f 799/2/4 800/2/4 801/2/4
f 801/2/4 800/2/4 802/2/4
f 803/2/4 804/2/4 805/2/4
f 805/2/4 804/2/4 806/2/4
f 807/1/4 808/1/4 809/1/4
f 809/1/4 808/1/4 810/1/4
f 811/1/4 812/1/4 813/1/4
f 813/1/4 812/1/4 814/1/4
f 815/2/4 816/2/4 817/2/4
f 817/2/4 816/2/4 818/2/4
f 819/2/4 820/2/4 821/2/4
f 821/2/4 820/2/4 822/2/4
f 823/1/4 824/1/4 825/1/4
f 825/1/4 824/1/4 826/1/4
f 827/1/4 828/1/4 829/1/4
f 829/1/4 828/1/4 830/1/4
f 831/2/4 832/2/4 833/2/4
f 833/2/4 832/2/4 834/2/4
f 835/2/4 836/2/4 837/2/4
f 837/2/4 836/2/4 838/2/4
f 839/2/4 840/2/4 841/2/4
f 841/2/4 840/2/4 842/2/4
f 843/1/4 844/1/4 845/1/4
f 845/1/4 844/1/4 846/1/4
f 846/1/4 844/1/4 847/1/4
f 847/1/4 844/1/4 850/1/4
f 848/1/4 849/1/4 851/1/4
f 849/1/4 850/1/4 851/1/4
f 850/1/4 844/1/4 852/1/4
f 851/1/4 850/1/4 852/1/4
f 853/1/4 854/1/4 855/1/4
f 855/1/4 854/1/4 856/1/4
f 857/3/4 858/3/4 859/3/4
f 859/3/4 858/3/4 860/3/4
f 861/3/4 862/3/4 863/3/4
f 863/3/4 862/3/4 864/3/4
f 865/3/4 866/3/4 867/3/4
f 867/3/4 866/3/4 868/3/4
f 869/3/4 870/3/4 871/3/4
f 871/3/4 870/3/4 872/3/4
f 873/3/4 874/3/4 875/3/4
f 875/3/4 874/3/4 876/3/4
f 877/3/4 878/3/4 879/3/4
f 879/3/4 878/3/4 880/3/4
f 881/3/4 882/3/4 883/3/4
f 883/3/4 882/3/4 884/3/4
f 885/3/4 886/3/4 887/3/4
f 887/3/4 886/3/4 888/3/4
f 889/1/4 890/1/4 891/1/4
f 891/1/4 890/1/4 892/1/4
f 893/1/4 894/1/4 895/1/4
f 895/1/4 894/1/4 896/1/4
f 897/1/4 898/1/4 899/1/4
f 899/1/4 898/1/4 900/1/4
f 901/1/4 902/1/4 903/1/4
f 903/1/4 902/1/4 904/1/4
f 905/1/4 906/1/4 907/1/4
f 907/1/4 906/1/4 908/1/4
f 909/1/4 910/1/4 911/1/4
f 911/1/4 910/1/4 912/1/4
f 913/1/4 914/1/4 915/1/4
f 915/1/4 914/1/4 916/1/4
f 917/1/4 918/1/4 919/1/4
f 919/1/4 918/1/4 920/1/4
f 921/1/4 922/1/4 923/1/4
f 923/1/4 922/1/4 924/1/4
f 925/1/4 926/1/4 927/1/4
f 927/1/4 926/1/4 928/1/4
f 929/1/4 930/1/4 931/1/4
f 931/1/4 930/1/4 932/1/4
f 931/2/4 932/2/4 933/2/4
f 933/2/4 932/2/4 934/2/4
f 931/2/4 933/2/4 935/2/4
f 934/2/4 932/2/4 936/2/4
f 929/1/4 931/1/4 937/1/4
f 935/2/4 936/2/4 937/2/4
f 931/2/4 935/2/4 937/2/4
f 936/2/4 932/2/4 938/2/4
f 937/2/4 936/2/4 938/2/4
f 932/1/4 930/1/4 938/1/4
f 929/1/4 937/1/4 939/1/4
f 937/1/4 938/1/4 939/1/4
f 938/1/4 930/1/4 940/1/4
f 939/1/4 938/1/4 940/1/4
f 941/1/4 942/1/4 943/1/4
f 943/1/4 942/1/4 944/1/4
f 943/2/4 944/2/4 945/2/4
f 945/2/4 944/2/4 946/2/4
f 943/2/4 945/2/4 947/2/4
f 946/2/4 944/2/4 948/2/4
f 941/1/4 943/1/4 949/1/4
f 947/2/4 948/2/4 949/2/4
f 943/2/4 947/2/4 949/2/4
f 948/2/4 944/2/4 950/2/4
f 949/2/4 948/2/4 950/2/4
f 944/1/4 942/1/4 950/1/4
f 941/1/4 949/1/4 951/1/4
f 949/1/4 950/1/4 951/1/4
f 950/1/4 942/1/4 952/1/4
f 951/1/4 950/1/4 952/1/4
f 953/1/4 954/1/4 955/1/4
f 955/1/4 954/1/4 956/1/4
f 955/2/4 956/2/4 957/2/4
f 957/2/4 956/2/4 958/2/4
f 955/2/4 957/2/4 959/2/4
f 958/2/4 956/2/4 960/2/4
f 953/1/4 955/1/4 961/1/4
f 959/2/4 960/2/4 961/2/4
f 955/2/4 959/2/4 961/2/4
f 960/2/4 956/2/4 962/2/4
f 961/2/4 960/2/4 962/2/4
f 956/1/4 954/1/4 962/1/4
f 953/1/4 961/1/4 963/1/4
f 961/1/4 962/1/4 963/1/4
f 962/1/4 954/1/4 964/1/4
f 963/1/4 962/1/4 964/1/4
f 965/1/4 966/1/4 967/1/4
f 967/1/4 966/1/4 968/1/4
f 967/2/4 968/2/4 969/2/4
f 969/2/4 968/2/4 970/2/4
f 967/2/4 969/2/4 971/2/4
f 970/2/4 968/2/4 972/2/4
f 965/1/4 967/1/4 973/1/4
f 971/2/4 972/2/4 973/2/4
f 967/2/4 971/2/4 973/2/4
f 972/2/4 968/2/4 974/2/4
f 973/2/4 972/2/4 974/2/4
f 968/1/4 966/1/4 974/1/4
f 965/1/4 973/1/4 975/1/4
f 973/1/4 974/1/4 975/1/4
f 974/1/4 966/1/4 976/1/4
f 975/1/4 974/1/4 976/1/4
f 977/1/4 978/1/4 979/1/4
f 979/1/4 978/1/4 980/1/4
f 979/2/4 980/2/4 981/2/4
f 981/2/4 980/2/4 982/2/4
f 979/2/4 981/2/4 983/2/4
f 982/2/4 980/2/4 984/2/4
f 977/1/4 979/1/4 985/1/4
f 983/2/4 984/2/4 985/2/4
f 979/2/4 983/2/4 985/2/4
f 984/2/4 980/2/4 986/2/4
f 985/2/4 984/2/4 986/2/4
f 980/1/4 978/1/4 986/1/4
f 977/1/4 985/1/4 987/1/4
f 985/1/4 986/1/4 987/1/4
f 986/1/4 978/1/4 988/1/4
f 987/1/4 986/1/4 988/1/4
f 989/1/4 990/1/4 991/1/4
f 991/1/4 990/1/4 992/1/4
f 991/2/4 992/2/4 993/2/4
f 993/2/4 992/2/4 994/2/4
f 991/2/4 993/2/4 995/2/4
f 994/2/4 992/2/4 996/2/4
f 989/1/4 991/1/4 997/1/4
f 995/2/4 996/2/4 997/2/4
f 991/2/4 995/2/4 997/2/4
f 996/2/4 992/2/4 998/2/4
f 997/2/4 996/2/4 998/2/4
f 992/1/4 990/1/4 998/1/4
f 989/1/4 997/1/4 999/1/4
f 997/1/4 998/1/4 999/1/4
f 998/1/4 990/1/4 1000/1/4
f 999/1/4 998/1/4 1000/1/4
f 1001/1/4 1002/1/4 1003/1/4
f 1003/1/4 1002/1/4 1004/1/4
f 1003/2/4 1004/2/4 1005/2/4
f 1005/2/4 1004/2/4 1006/2/4
f 1003/2/4 1005/2/4 1007/2/4
f 1006/2/4 1004/2/4 1008/2/4
f 1001/1/4 1003/1/4 1009/1/4
f 1007/2/4 1008/2/4 1009/2/4
f 1003/2/4 1007/2/4 1009/2/4
f 1008/2/4 1004/2/4 1010/2/4
f 1009/2/4 1008/2/4 1010/2/4
f 1004/1/4 1002/1/4 1010/1/4
f 1001/1/4 1009/1/4 1011/1/4
f 1009/1/4 1010/1/4 1011/1/4
f 1010/1/4 1002/1/4 1012/1/4
f 1011/1/4 1010/1/4 1012/1/4
f 1013/1/4 1014/1/4 1015/1/4
f 1015/1/4 1014/1/4 1016/1/4
f 1015/2/4 1016/2/4 1017/2/4
f 1017/2/4 1016/2/4 1018/2/4
f 1015/2/4 1017/2/4 1019/2/4
f 1018/2/4 1016/2/4 1020/2/4
f 1013/1/4 1015/1/4 1021/1/4
f 1019/2/4 1020/2/4 1021/2/4
f 1015/2/4 1019/2/4 1021/2/4
f 1020/2/4 1016/2/4 1022/2/4
f 1021/2/4 1020/2/4 1022/2/4
f 1016/1/4 1014/1/4 1022/1/4
f 1013/1/4 1021/1/4 1023/1/4
f 1021/1/4 1022/1/4 1023/1/4
f 1022/1/4 1014/1/4 1024/1/4
f 1023/1/4 1022/1/4 1024/1/4
f 1042/1/5 1026/1/5 1025/1/5
f 1043/1/5 1026/1/5 1042/1/5
f 1044/1/5 1028/1/5 1027/1/5
f 1045/1/5 1028/1/5 1044/1/5
f 1046/1/5 1030/1/5 1029/1/5
f 1047/1/5 1030/1/5 1046/1/5
f 1048/1/5 1032/1/5 1031/1/5
f 1049/1/5 1032/1/5 1048/1/5
f 1052/1/5 1034/1/5 1033/1/5
f 1053/1/5 1034/1/5 1052/1/5
f 1054/1/5 1036/1/5 1035/1/5
f 1055/1/5 1036/1/5 1054/1/5
f 1056/1/5 1038/1/5 1037/1/5
f 1057/1/5 1038/1/5 1056/1/5
f 1058/1/5 1040/1/5 1039/1/5
f 1059/1/5 1040/1/5 1058/1/5
f 1061/1/5 1043/1/5 1042/1/5
f 1061/1/5 1045/1/5 1044/1/5
f 1061/1/5 1047/1/5 1046/1/5
f 1061/1/5 1050/1/5 1049/1/5
f 1061/1/5 1042/1/5 1041/1/5
f 1061/1/5 1044/1/5 1043/1/5
f 1061/1/5 1046/1/5 1045/1/5
f 1061/1/5 1048/1/5 1047/1/5
f 1061/1/5 1049/1/5 1048/1/5
f 1064/1/5 1057/1/5 1056/1/5
f 1064/1/5 1060/1/5 1059/1/5
f 1064/1/5 1059/1/5 1058/1/5
f 1064/1/5 1058/1/5 1057/1/5
f 1064/1/5 1052/1/5 1051/1/5
f 1064/1/5 1053/1/5 1052/1/5
f 1064/1/5 1055/1/5 1054/1/5
f 1064/1/5 1054/1/5 1053/1/5
f 1064/1/5 1056/1/5 1055/1/5
f 1065/1/5 1062/1/5 1061/1/5
f 1066/1/5 1062/1/5 1065/1/5
f 1067/1/5 1064/1/5 1063/1/5
f 1068/1/5 1064/1/5 1067/1/5
f 1069/2/5 1066/2/5 1065/2/5
f 1069/1/5 1065/1/5 1061/1/5
f 1070/2/5 1066/2/5 1069/2/5
f 1071/2/5 1068/2/5 1067/2/5
f 1072/1/5 1064/1/5 1068/1/5
f 1072/2/5 1068/2/5 1071/2/5
f 1073/2/5 1071/2/5 1070/2/5
f 1073/1/5 1070/1/5 1069/1/5
f 1074/1/5 1072/1/5 1071/1/5
f 1074/2/5 1071/2/5 1073/2/5
f 1075/1/5 1061/1/5 1041/1/5
f 1075/1/5 1073/1/5 1069/1/5
f 1075/1/5 1074/1/5 1073/1/5
f 1075/1/5 1069/1/5 1061/1/5
f 1076/1/5 1074/1/5 1075/1/5
f 1077/1/5 1064/1/5 1072/1/5
f 1077/1/5 1074/1/5 1076/1/5
f 1077/1/5 1072/1/5 1074/1/5
f 1077/1/5 1060/1/5 1064/1/5
f 1078/1/5 1060/1/5 1077/1/5
f 1080/1/5 1077/1/5 1076/1/5
f 1081/1/5 1077/1/5 1080/1/5
f 1083/1/5 1080/1/5 1079/1/5
f 1083/1/5 1082/1/5 1081/1/5
f 1083/1/5 1081/1/5 1080/1/5
f 1084/1/5 1082/1/5 1083/1/5
f 1085/1/5 1082/1/5 1084/1/5
f 1086/1/5 1082/1/5 1085/1/5
f 1088/1/5 1085/1/5 1084/1/5
f 1089/1/5 1085/1/5 1088/1/5
f 1091/1/5 1088/1/5 1087/1/5
f 1091/1/5 1090/1/5 1089/1/5
f 1091/1/5 1089/1/5 1088/1/5
f 1092/1/5 1090/1/5 1091/1/5
f 1093/1/5 1090/1/5 1092/1/5
f 1094/1/5 1090/1/5 1093/1/5
f 1096/1/5 1093/1/5 1092/1/5
f 1097/1/5 1093/1/5 1096/1/5
f 1099/1/5 1096/1/5 1095/1/5
f 1099/1/5 1098/1/5 1097/1/5
f 1099/1/5 1097/1/5 1096/1/5
f 1100/1/5 1098/1/5 1099/1/5
f 1101/1/5 1098/1/5 1100/1/5
f 1102/1/5 1098/1/5 1101/1/5
f 1104/1/5 1101/1/5 1100/1/5
f 1105/1/5 1101/1/5 1104/1/5
f 1107/1/5 1104/1/5 1103/1/5
f 1107/1/5 1106/1/5 1105/1/5
f 1107/1/5 1105/1/5 1104/1/5
f 1108/1/5 1106/1/5 1107/1/5
f 1109/1/5 1107/1/5 1103/1/5
f 1110/2/5 1108/2/5 1107/2/5
f 1110/1/5 1107/1/5 1109/1/5
f 1111/1/5 1106/1/5 1108/1/5
f 1111/2/5 1108/2/5 1110/2/5
f 1112/1/5 1106/1/5 1111/1/5
f 1113/2/5 1110/2/5 1109/2/5
f 1113/1/5 1109/1/5 1103/1/5
f 1114/2/5 1110/2/5 1113/2/5
f 1115/2/5 1112/2/5 1111/2/5
f 1116/1/5 1106/1/5 1112/1/5
f 1116/2/5 1112/2/5 1115/2/5
f 1117/1/5 1114/1/5 1113/1/5
f 1117/1/5 1113/1/5 1103/1/5
f 1118/1/5 1114/1/5 1117/1/5
f 1119/1/5 1116/1/5 1115/1/5
f 1120/1/5 1106/1/5 1116/1/5
f 1120/1/5 1116/1/5 1119/1/5
f 1121/1/5 1117/1/5 1103/1/5
f 1122/1/5 1117/1/5 1121/1/5
f 1123/1/5 1117/1/5 1122/1/5
f 1124/1/5 1117/1/5 1123/1/5
f 1125/1/5 1117/1/5 1124/1/5
f 1126/1/5 1117/1/5 1125/1/5
f 1127/1/5 1117/1/5 1126/1/5
f 1128/1/5 1117/1/5 1127/1/5
f 1129/1/5 1117/1/5 1128/1/5
f 1130/1/5 1117/1/5 1129/1/5
f 1131/1/5 1106/1/5 1120/1/5
f 1132/1/5 1106/1/5 1131/1/5
f 1133/1/5 1106/1/5 1132/1/5
f 1134/1/5 1106/1/5 1133/1/5
f 1135/1/5 1106/1/5 1134/1/5
f 1136/1/5 1106/1/5 1135/1/5
f 1137/1/5 1106/1/5 1136/1/5
f 1138/1/5 1106/1/5 1137/1/5
f 1139/1/5 1106/1/5 1138/1/5
f 1140/1/5 1106/1/5 1139/1/5
f 1141/1/5 1123/1/5 1122/1/5
f 1142/1/5 1123/1/5 1141/1/5
f 1143/1/5 1125/1/5 1124/1/5
f 1144/1/5 1125/1/5 1143/1/5
f 1145/1/5 1127/1/5 1126/1/5
f 1146/1/5 1127/1/5 1145/1/5
f 1147/1/5 1129/1/5 1128/1/5
f 1148/1/5 1129/1/5 1147/1/5
f 1149/1/5 1133/1/5 1132/1/5
f 1150/1/5 1133/1/5 1149/1/5
f 1151/1/5 1135/1/5 1134/1/5
f 1152/1/5 1135/1/5 1151/1/5
f 1153/1/5 1137/1/5 1136/1/5
f 1154/1/5 1137/1/5 1153/1/5
f 1155/1/5 1139/1/5 1138/1/5
f 1156/1/5 1139/1/5 1155/1/5
f 1173/2/5 1158/2/5 1157/2/5
f 1174/2/5 1158/2/5 1173/2/5
f 1175/2/5 1160/2/5 1159/2/5
f 1176/2/5 1160/2/5 1175/2/5
f 1177/2/5 1162/2/5 1161/2/5
f 1178/2/5 1162/2/5 1177/2/5
f 1179/2/5 1164/2/5 1163/2/5
f 1180/2/5 1164/2/5 1179/2/5
f 1181/2/5 1166/2/5 1165/2/5
f 1182/2/5 1166/2/5 1181/2/5
f 1183/2/5 1168/2/5 1167/2/5
f 1184/2/5 1168/2/5 1183/2/5
f 1185/2/5 1170/2/5 1169/2/5
f 1186/2/5 1170/2/5 1185/2/5
f 1187/2/5 1172/2/5 1171/2/5
f 1188/2/5 1172/2/5 1187/2/5
f 1193/2/5 1190/2/5 1189/2/5
f 1194/2/5 1190/2/5 1193/2/5
f 1195/2/5 1192/2/5 1191/2/5
f 1196/2/5 1192/2/5 1195/2/5
f 1201/2/5 1198/2/5 1197/2/5
f 1202/2/5 1198/2/5 1201/2/5
f 1203/2/5 1200/2/5 1199/2/5
f 1204/2/5 1200/2/5 1203/2/5
f 1209/2/5 1206/2/5 1205/2/5
f 1210/2/5 1206/2/5 1209/2/5
f 1211/2/5 1208/2/5 1207/2/5
f 1212/2/5 1208/2/5 1211/2/5
f 1217/2/5 1214/2/5 1213/2/5
f 1218/2/5 1214/2/5 1217/2/5
f 1219/2/5 1216/2/5 1215/2/5
f 1220/2/5 1216/2/5 1219/2/5
f 1225/2/5 1222/2/5 1221/2/5
f 1226/2/5 1222/2/5 1225/2/5
f 1227/2/5 1224/2/5 1223/2/5
f 1228/2/5 1224/2/5 1227/2/5
f 1245/2/5 1230/2/5 1229/2/5
f 1246/2/5 1230/2/5 1245/2/5
f 1247/2/5 1232/2/5 1231/2/5
f 1248/2/5 1232/2/5 1247/2/5
f 1249/2/5 1234/2/5 1233/2/5
f 1250/2/5 1234/2/5 1249/2/5
f 1251/2/5 1236/2/5 1235/2/5
f 1252/2/5 1236/2/5 1251/2/5
f 1253/2/5 1238/2/5 1237/2/5
f 1254/2/5 1238/2/5 1253/2/5
f 1255/2/5 1240/2/5 1239/2/5
f 1256/2/5 1240/2/5 1255/2/5
f 1257/2/5 1242/2/5 1241/2/5
f 1258/2/5 1242/2/5 1257/2/5
f 1259/2/5 1244/2/5 1243/2/5
f 1260/2/5 1244/2/5 1259/2/5
f 1263/1/5 1262/1/5 1261/1/5
f 1264/1/5 1262/1/5 1263/1/5
f 1265/2/5 1264/2/5 1263/2/5
f 1266/2/5 1264/2/5 1265/2/5
f 1267/2/5 1266/2/5 1265/2/5
f 1268/2/5 1266/2/5 1267/2/5
f 1269/1/5 1268/1/5 1267/1/5
f 1270/1/5 1268/1/5 1269/1/5
f 1273/1/5 1272/1/5 1271/1/5
f 1274/1/5 1272/1/5 1273/1/5
f 1275/2/5 1274/2/5 1273/2/5
f 1276/2/5 1274/2/5 1275/2/5
f 1277/2/5 1276/2/5 1275/2/5
f 1278/2/5 1276/2/5 1277/2/5
f 1279/1/5 1278/1/5 1277/1/5
f 1280/1/5 1278/1/5 1279/1/5
f 1281/2/6 1282/2/6 1297/2/6
f 1297/2/6 1282/2/6 1298/2/6
f 1283/2/6 1284/2/6 1299/2/6
f 1299/2/6 1284/2/6 1300/2/6
f 1285/2/6 1286/2/6 1301/2/6
f 1301/2/6 1286/2/6 1302/2/6
f 1287/2/6 1288/2/6 1303/2/6
f 1303/2/6 1288/2/6 1304/2/6
f 1289/2/6 1290/2/6 1305/2/6
f 1305/2/6 1290/2/6 1306/2/6
f 1291/2/6 1292/2/6 1307/2/6
f 1307/2/6 1292/2/6 1308/2/6
f 1293/2/6 1294/2/6 1309/2/6
f 1309/2/6 1294/2/6 1310/2/6
f 1295/2/6 1296/2/6 1311/2/6
f 1311/2/6 1296/2/6 1312/2/6
f 1313/2/6 1314/2/6 1317/2/6
f 1317/2/6 1314/2/6 1318/2/6
f 1315/2/6 1316/2/6 1319/2/6
f 1319/2/6 1316/2/6 1320/2/6
f 1321/2/6 1322/2/6 1325/2/6
f 1325/2/6 1322/2/6 1326/2/6
f 1323/2/6 1324/2/6 1327/2/6
f 1327/2/6 1324/2/6 1328/2/6
f 1329/2/6 1330/2/6 1333/2/6
f 1333/2/6 1330/2/6 1334/2/6
f 1331/2/6 1332/2/6 1335/2/6
f 1335/2/6 1332/2/6 1336/2/6
f 1337/2/6 1338/2/6 1341/2/6
f 1341/2/6 1338/2/6 1342/2/6
f 1339/2/6 1340/2/6 1343/2/6
f 1343/2/6 1340/2/6 1344/2/6
f 1345/2/6 1346/2/6 1349/2/6
f 1349/2/6 1346/2/6 1350/2/6
f 1347/2/6 1348/2/6 1351/2/6
f 1351/2/6 1348/2/6 1352/2/6
f 1353/2/6 1354/2/6 1369/2/6
f 1369/2/6 1354/2/6 1370/2/6
f 1355/2/6 1356/2/6 1371/2/6
f 1371/2/6 1356/2/6 1372/2/6
f 1357/2/6 1358/2/6 1373/2/6
f 1373/2/6 1358/2/6 1374/2/6
f 1359/2/6 1360/2/6 1375/2/6
f 1375/2/6 1360/2/6 1376/2/6
f 1361/2/6 1362/2/6 1377/2/6
f 1377/2/6 1362/2/6 1378/2/6
f 1363/2/6 1364/2/6 1379/2/6
f 1379/2/6 1364/2/6 1380/2/6
f 1365/2/6 1366/2/6 1381/2/6
f 1381/2/6 1366/2/6 1382/2/6
f 1367/2/6 1368/2/6 1383/2/6
f 1383/2/6 1368/2/6 1384/2/6
f 1385/1/6 1386/1/6 1387/1/6
f 1387/1/6 1386/1/6 1388/1/6
f 1389/1/6 1390/1/6 1391/1/6
f 1391/1/6 1390/1/6 1392/1/6
f 1393/1/6 1394/1/6 1410/1/6
f 1410/1/6 1394/1/6 1411/1/6
f 1395/1/6 1396/1/6 1412/1/6
f 1412/1/6 1396/1/6 1413/1/6
f 1397/1/6 1398/1/6 1414/1/6
f 1414/1/6 1398/1/6 1415/1/6
f 1399/1/6 1400/1/6 1416/1/6
f 1416/1/6 1400/1/6 1417/1/6
f 1401/1/6 1402/1/6 1420/1/6
f 1420/1/6 1402/1/6 1421/1/6
f 1403/1/6 1404/1/6 1422/1/6
f 1422/1/6 1404/1/6 1423/1/6
f 1405/1/6 1406/1/6 1424/1/6
f 1424/1/6 1406/1/6 1425/1/6
f 1407/1/6 1408/1/6 1426/1/6
f 1426/1/6 1408/1/6 1427/1/6
f 1410/1/6 1411/1/6 1429/1/6
f 1412/1/6 1413/1/6 1429/1/6
f 1414/1/6 1415/1/6 1429/1/6
f 1417/1/6 1418/1/6 1429/1/6
f 1409/1/6 1410/1/6 1429/1/6
f 1411/1/6 1412/1/6 1429/1/6
f 1413/1/6 1414/1/6 1429/1/6
f 1415/1/6 1416/1/6 1429/1/6
f 1416/1/6 1417/1/6 1429/1/6
f 1424/1/6 1425/1/6 1430/1/6
f 1427/1/6 1428/1/6 1430/1/6
f 1426/1/6 1427/1/6 1430/1/6
f 1419/1/6 1420/1/6 1430/1/6
f 1425/1/6 1426/1/6 1430/1/6
f 1420/1/6 1421/1/6 1430/1/6
f 1421/1/6 1422/1/6 1430/1/6
f 1422/1/6 1423/1/6 1430/1/6
f 1423/1/6 1424/1/6 1430/1/6
f 1409/1/6 1429/1/6 1431/1/6
f 1429/1/6 1430/1/6 1431/1/6
f 1431/1/6 1430/1/6 1432/1/6
f 1430/1/6 1428/1/6 1433/1/6
f 1432/1/6 1430/1/6 1433/1/6
f 1433/1/6 1428/1/6 1434/1/6
f 1432/1/6 1433/1/6 1436/1/6
f 1436/1/6 1433/1/6 1437/1/6
f 1435/1/6 1436/1/6 1439/1/6
f 1437/1/6 1438/1/6 1439/1/6
f 1436/1/6 1437/1/6 1439/1/6
f 1439/1/6 1438/1/6 1440/1/6
f 1440/1/6 1438/1/6 1441/1/6
f 1441/1/6 1438/1/6 1442/1/6
f 1440/1/6 1441/1/6 1444/1/6
f 1444/1/6 1441/1/6 1445/1/6
f 1443/1/6 1444/1/6 1447/1/6
f 1445/1/6 1446/1/6 1447/1/6
f 1444/1/6 1445/1/6 1447/1/6
f 1447/1/6 1446/1/6 1448/1/6
f 1448/1/6 1446/1/6 1449/1/6
f 1449/1/6 1446/1/6 1450/1/6
f 1448/1/6 1449/1/6 1452/1/6
f 1452/1/6 1449/1/6 1453/1/6
f 1451/1/6 1452/1/6 1455/1/6
f 1453/1/6 1454/1/6 1455/1/6
f 1452/1/6 1453/1/6 1455/1/6
f 1455/1/6 1454/1/6 1456/1/6
f 1456/1/6 1454/1/6 1457/1/6
f 1457/1/6 1454/1/6 1458/1/6
f 1456/1/6 1457/1/6 1460/1/6
f 1460/1/6 1457/1/6 1461/1/6
f 1459/1/6 1460/1/6 1463/1/6
f 1461/1/6 1462/1/6 1463/1/6
f 1460/1/6 1461/1/6 1463/1/6
f 1463/1/6 1462/1/6 1464/1/6
f 1459/1/6 1463/1/6 1465/1/6
f 1465/1/6 1463/1/6 1466/1/6
f 1466/1/6 1463/1/6 1467/1/6
f 1467/1/6 1463/1/6 1468/1/6
f 1468/1/6 1463/1/6 1469/1/6
f 1469/1/6 1463/1/6 1470/1/6
f 1470/1/6 1463/1/6 1471/1/6
f 1471/1/6 1463/1/6 1472/1/6
f 1472/1/6 1463/1/6 1473/1/6
f 1473/1/6 1463/1/6 1474/1/6
f 1464/1/6 1462/1/6 1475/1/6
f 1475/1/6 1462/1/6 1476/1/6
f 1476/1/6 1462/1/6 1477/1/6
f 1477/1/6 1462/1/6 1478/1/6
f 1478/1/6 1462/1/6 1479/1/6
f 1479/1/6 1462/1/6 1480/1/6
f 1480/1/6 1462/1/6 1481/1/6
f 1481/1/6 1462/1/6 1482/1/6
f 1482/1/6 1462/1/6 1483/1/6
f 1483/1/6 1462/1/6 1484/1/6
f 1466/1/6 1467/1/6 1485/1/6
f 1485/1/6 1467/1/6 1486/1/6
f 1468/1/6 1469/1/6 1487/1/6
f 1487/1/6 1469/1/6 1488/1/6
f 1470/1/6 1471/1/6 1489/1/6
f 1489/1/6 1471/1/6 1490/1/6
f 1472/1/6 1473/1/6 1491/1/6
f 1491/1/6 1473/1/6 1492/1/6
f 1476/1/6 1477/1/6 1493/1/6
f 1493/1/6 1477/1/6 1494/1/6
f 1478/1/6 1479/1/6 1495/1/6
f 1495/1/6 1479/1/6 1496/1/6
f 1480/1/6 1481/1/6 1497/1/6
f 1497/1/6 1481/1/6 1498/1/6
f 1482/1/6 1483/1/6 1499/1/6
f 1499/1/6 1483/1/6 1500/1/6
