# MagicaVoxel @ Ephtracy

# group
o 

# material
mtllib RoadPiece_2Lanes100.mtl
usemtl palette

# normals
vn 1 0 0
vn -1 0 0
vn 0 0 -1
vn 0 0 1
vn 0 -1 0
vn 0 1 0

# texcoords
vt 0.00195313 0.5
vt 0.00976563 0.5
vt 0.0136719 0.5

# verts
v 5 0 -5
v 5 0 5
v 5 0.2 -5
v 5 0.2 5
v -2.5 0.1 -5
v -2.5 0.1 5
v -2.5 0.2 -5
v -2.5 0.2 5
v 2.5 0.1 -5
v 2.5 0.1 5
v 2.5 0.2 -5
v 2.5 0.2 5
v -5 0 -5
v -5 0 5
v -5 0.2 -5
v -5 0.2 5
v 5 0 -5
v 5 0.2 -5
v 2.5 0 -5
v 2.5 0.1 -5
v 2.5 0.2 -5
v 0.0999999 0 -5
v 0.0999999 0.1 -5
v -0.1 0 -5
v -0.1 0.1 -5
v -2.5 0 -5
v -2.5 0.1 -5
v -2.5 0.2 -5
v -5 0 -5
v -5 0.2 -5
v 5 0 5
v 5 0.2 5
v 2.5 0 5
v 2.5 0.1 5
v 2.5 0.2 5
v -2.5 0 5
v -2.5 0.1 5
v -2.5 0.2 5
v -5 0 5
v -5 0.2 5
v 5 0 -5
v 2.5 0 -5
v 0.0999999 0 -5
v -0.1 0 -5
v -2.5 0 -5
v -5 0 -5
v 0.0999999 0 -4.5
v -0.1 0 -4.5
v 0.0999999 0 -4
v -0.1 0 -4
v 0.0999999 0 -3.5
v -0.1 0 -3.5
v 0.0999999 0 -3
v -0.1 0 -3
v 0.0999999 0 -2.5
v -0.1 0 -2.5
v 0.0999999 0 -2
v -0.1 0 -2
v 0.0999999 0 -1.5
v -0.1 0 -1.5
v 0.0999999 0 -1
v -0.1 0 -1
v 0.0999999 0 -0.5
v -0.1 0 -0.5
v 0.0999999 0 0
v -0.1 0 0
v 0.0999999 0 0.5
v -0.1 0 0.5
v 0.0999999 0 1
v -0.1 0 1
v 0.0999999 0 1.5
v -0.1 0 1.5
v 0.0999999 0 2
v -0.1 0 2
v 0.0999999 0 2.5
v -0.1 0 2.5
v 0.0999999 0 3
v -0.1 0 3
v 0.0999999 0 3.5
v -0.1 0 3.5
v 0.0999999 0 4
v -0.1 0 4
v 0.0999999 0 4.5
v -0.1 0 4.5
v 5 0 5
v 2.5 0 5
v -2.5 0 5
v -5 0 5
v 2.5 0.1 -5
v 0.0999999 0.1 -5
v -0.1 0.1 -5
v -2.5 0.1 -5
v 0.0999999 0.1 -4.5
v -0.1 0.1 -4.5
v 0.0999999 0.1 -4
v -0.1 0.1 -4
v 0.0999999 0.1 -3.5
v -0.1 0.1 -3.5
v 0.0999999 0.1 -3
v -0.1 0.1 -3
v 0.0999999 0.1 -2.5
v -0.1 0.1 -2.5
v 0.0999999 0.1 -2
v -0.1 0.1 -2
v 0.0999999 0.1 -1.5
v -0.1 0.1 -1.5
v 0.0999999 0.1 -1
v -0.1 0.1 -1
v 0.0999999 0.1 -0.5
v -0.1 0.1 -0.5
v 0.0999999 0.1 0
v -0.1 0.1 0
v 0.0999999 0.1 0.5
v -0.1 0.1 0.5
v 0.0999999 0.1 1
v -0.1 0.1 1
v 0.0999999 0.1 1.5
v -0.1 0.1 1.5
v 0.0999999 0.1 2
v -0.1 0.1 2
v 0.0999999 0.1 2.5
v -0.1 0.1 2.5
v 0.0999999 0.1 3
v -0.1 0.1 3
v 0.0999999 0.1 3.5
v -0.1 0.1 3.5
v 0.0999999 0.1 4
v -0.1 0.1 4
v 0.0999999 0.1 4.5
v -0.1 0.1 4.5
v 2.5 0.1 5
v -2.5 0.1 5
v 5 0.2 -5
v 2.5 0.2 -5
v -2.5 0.2 -5
v -5 0.2 -5
v 5 0.2 5
v 2.5 0.2 5
v -2.5 0.2 5
v -5 0.2 5

# faces
f 3/1/1 2/1/1 1/1/1
f 4/1/1 2/1/1 3/1/1
f 7/1/1 6/1/1 5/1/1
f 8/1/1 6/1/1 7/1/1
f 9/1/2 10/1/2 11/1/2
f 11/1/2 10/1/2 12/1/2
f 13/1/2 14/1/2 15/1/2
f 15/1/2 14/1/2 16/1/2
f 19/1/3 18/1/3 17/1/3
f 20/1/3 18/1/3 19/1/3
f 21/1/3 18/1/3 20/1/3
f 22/2/3 20/2/3 19/2/3
f 23/2/3 20/2/3 22/2/3
f 24/3/3 23/3/3 22/3/3
f 25/3/3 23/3/3 24/3/3
f 26/2/3 25/2/3 24/2/3
f 27/2/3 25/2/3 26/2/3
f 29/1/3 27/1/3 26/1/3
f 29/1/3 28/1/3 27/1/3
f 30/1/3 28/1/3 29/1/3
f 31/1/4 32/1/4 33/1/4
f 33/1/4 32/1/4 34/1/4
f 34/1/4 32/1/4 35/1/4
f 33/2/4 34/2/4 36/2/4
f 36/2/4 34/2/4 37/2/4
f 36/1/4 37/1/4 39/1/4
f 37/1/4 38/1/4 39/1/4
f 39/1/4 38/1/4 40/1/4
f 47/2/5 43/2/5 42/2/5
f 47/3/5 44/3/5 43/3/5
f 48/2/5 45/2/5 44/2/5
f 48/3/5 44/3/5 47/3/5
f 49/2/5 47/2/5 42/2/5
f 49/2/5 48/2/5 47/2/5
f 50/2/5 45/2/5 48/2/5
f 50/2/5 48/2/5 49/2/5
f 51/2/5 49/2/5 42/2/5
f 51/3/5 50/3/5 49/3/5
f 52/2/5 45/2/5 50/2/5
f 52/3/5 50/3/5 51/3/5
f 53/2/5 51/2/5 42/2/5
f 53/2/5 52/2/5 51/2/5
f 54/2/5 45/2/5 52/2/5
f 54/2/5 52/2/5 53/2/5
f 55/2/5 53/2/5 42/2/5
f 55/3/5 54/3/5 53/3/5
f 56/2/5 45/2/5 54/2/5
f 56/3/5 54/3/5 55/3/5
f 57/2/5 55/2/5 42/2/5
f 57/2/5 56/2/5 55/2/5
f 58/2/5 45/2/5 56/2/5
f 58/2/5 56/2/5 57/2/5
f 59/2/5 57/2/5 42/2/5
f 59/3/5 58/3/5 57/3/5
f 60/2/5 45/2/5 58/2/5
f 60/3/5 58/3/5 59/3/5
f 61/2/5 59/2/5 42/2/5
f 61/2/5 60/2/5 59/2/5
f 62/2/5 45/2/5 60/2/5
f 62/2/5 60/2/5 61/2/5
f 63/2/5 61/2/5 42/2/5
f 63/3/5 62/3/5 61/3/5
f 64/2/5 45/2/5 62/2/5
f 64/3/5 62/3/5 63/3/5
f 65/2/5 63/2/5 42/2/5
f 65/2/5 64/2/5 63/2/5
f 66/2/5 45/2/5 64/2/5
f 66/2/5 64/2/5 65/2/5
f 67/2/5 65/2/5 42/2/5
f 67/3/5 66/3/5 65/3/5
f 68/2/5 45/2/5 66/2/5
f 68/3/5 66/3/5 67/3/5
f 69/2/5 67/2/5 42/2/5
f 69/2/5 68/2/5 67/2/5
f 70/2/5 45/2/5 68/2/5
f 70/2/5 68/2/5 69/2/5
f 71/2/5 69/2/5 42/2/5
f 71/3/5 70/3/5 69/3/5
f 72/2/5 45/2/5 70/2/5
f 72/3/5 70/3/5 71/3/5
f 73/2/5 71/2/5 42/2/5
f 73/2/5 72/2/5 71/2/5
f 74/2/5 45/2/5 72/2/5
f 74/2/5 72/2/5 73/2/5
f 75/2/5 73/2/5 42/2/5
f 75/3/5 74/3/5 73/3/5
f 76/2/5 45/2/5 74/2/5
f 76/3/5 74/3/5 75/3/5
f 77/2/5 75/2/5 42/2/5
f 77/2/5 76/2/5 75/2/5
f 78/2/5 45/2/5 76/2/5
f 78/2/5 76/2/5 77/2/5
f 79/2/5 77/2/5 42/2/5
f 79/3/5 78/3/5 77/3/5
f 80/2/5 45/2/5 78/2/5
f 80/3/5 78/3/5 79/3/5
f 81/2/5 79/2/5 42/2/5
f 81/2/5 80/2/5 79/2/5
f 82/2/5 45/2/5 80/2/5
f 82/2/5 80/2/5 81/2/5
f 83/2/5 81/2/5 42/2/5
f 83/3/5 82/3/5 81/3/5
f 84/2/5 45/2/5 82/2/5
f 84/3/5 82/3/5 83/3/5
f 85/1/5 42/1/5 41/1/5
f 86/2/5 83/2/5 42/2/5
f 86/1/5 42/1/5 85/1/5
f 86/2/5 84/2/5 83/2/5
f 87/2/5 45/2/5 84/2/5
f 87/2/5 84/2/5 86/2/5
f 87/1/5 46/1/5 45/1/5
f 88/1/5 46/1/5 87/1/5
f 89/2/6 90/2/6 93/2/6
f 90/3/6 91/3/6 93/3/6
f 91/2/6 92/2/6 94/2/6
f 93/3/6 91/3/6 94/3/6
f 89/2/6 93/2/6 95/2/6
f 93/2/6 94/2/6 95/2/6
f 94/2/6 92/2/6 96/2/6
f 95/2/6 94/2/6 96/2/6
f 89/2/6 95/2/6 97/2/6
f 95/3/6 96/3/6 97/3/6
f 96/2/6 92/2/6 98/2/6
f 97/3/6 96/3/6 98/3/6
f 89/2/6 97/2/6 99/2/6
f 97/2/6 98/2/6 99/2/6
f 98/2/6 92/2/6 100/2/6
f 99/2/6 98/2/6 100/2/6
f 89/2/6 99/2/6 101/2/6
f 99/3/6 100/3/6 101/3/6
f 100/2/6 92/2/6 102/2/6
f 101/3/6 100/3/6 102/3/6
f 89/2/6 101/2/6 103/2/6
f 101/2/6 102/2/6 103/2/6
f 102/2/6 92/2/6 104/2/6
f 103/2/6 102/2/6 104/2/6
f 89/2/6 103/2/6 105/2/6
f 103/3/6 104/3/6 105/3/6
f 104/2/6 92/2/6 106/2/6
f 105/3/6 104/3/6 106/3/6
f 89/2/6 105/2/6 107/2/6
f 105/2/6 106/2/6 107/2/6
f 106/2/6 92/2/6 108/2/6
f 107/2/6 106/2/6 108/2/6
f 89/2/6 107/2/6 109/2/6
f 107/3/6 108/3/6 109/3/6
f 108/2/6 92/2/6 110/2/6
f 109/3/6 108/3/6 110/3/6
f 89/2/6 109/2/6 111/2/6
f 109/2/6 110/2/6 111/2/6
f 110/2/6 92/2/6 112/2/6
f 111/2/6 110/2/6 112/2/6
f 89/2/6 111/2/6 113/2/6
f 111/3/6 112/3/6 113/3/6
f 112/2/6 92/2/6 114/2/6
f 113/3/6 112/3/6 114/3/6
f 89/2/6 113/2/6 115/2/6
f 113/2/6 114/2/6 115/2/6
f 114/2/6 92/2/6 116/2/6
f 115/2/6 114/2/6 116/2/6
f 89/2/6 115/2/6 117/2/6
f 115/3/6 116/3/6 117/3/6
f 116/2/6 92/2/6 118/2/6
f 117/3/6 116/3/6 118/3/6
f 89/2/6 117/2/6 119/2/6
f 117/2/6 118/2/6 119/2/6
f 118/2/6 92/2/6 120/2/6
f 119/2/6 118/2/6 120/2/6
f 89/2/6 119/2/6 121/2/6
f 119/3/6 120/3/6 121/3/6
f 120/2/6 92/2/6 122/2/6
f 121/3/6 120/3/6 122/3/6
f 89/2/6 121/2/6 123/2/6
f 121/2/6 122/2/6 123/2/6
f 122/2/6 92/2/6 124/2/6
f 123/2/6 122/2/6 124/2/6
f 89/2/6 123/2/6 125/2/6
f 123/3/6 124/3/6 125/3/6
f 124/2/6 92/2/6 126/2/6
f 125/3/6 124/3/6 126/3/6
f 89/2/6 125/2/6 127/2/6
f 125/2/6 126/2/6 127/2/6
f 126/2/6 92/2/6 128/2/6
f 127/2/6 126/2/6 128/2/6
f 89/2/6 127/2/6 129/2/6
f 127/3/6 128/3/6 129/3/6
f 128/2/6 92/2/6 130/2/6
f 129/3/6 128/3/6 130/3/6
f 89/2/6 129/2/6 131/2/6
f 129/2/6 130/2/6 131/2/6
f 130/2/6 92/2/6 132/2/6
f 131/2/6 130/2/6 132/2/6
f 133/1/6 134/1/6 137/1/6
f 137/1/6 134/1/6 138/1/6
f 135/1/6 136/1/6 139/1/6
f 139/1/6 136/1/6 140/1/6
